%!PS-Adobe-3.0 EPSF-3.0
%%Creator: cairo 1.16.0 (https://cairographics.org)
%%CreationDate: Wed Oct 16 08:09:42 2019
%%Pages: 1
%%DocumentData: Clean7Bit
%%LanguageLevel: 2
%%BoundingBox: 48 48 336 336
%%EndComments
%%BeginProlog
50 dict begin
/q { gsave } bind def
/Q { grestore } bind def
/cm { 6 array astore concat } bind def
/w { setlinewidth } bind def
/J { setlinecap } bind def
/j { setlinejoin } bind def
/M { setmiterlimit } bind def
/d { setdash } bind def
/m { moveto } bind def
/l { lineto } bind def
/c { curveto } bind def
/h { closepath } bind def
/re { exch dup neg 3 1 roll 5 3 roll moveto 0 rlineto
      0 exch rlineto 0 rlineto closepath } bind def
/S { stroke } bind def
/f { fill } bind def
/f* { eofill } bind def
/n { newpath } bind def
/W { clip } bind def
/W* { eoclip } bind def
/BT { } bind def
/ET { } bind def
/BDC { mark 3 1 roll /BDC pdfmark } bind def
/EMC { mark /EMC pdfmark } bind def
/cairo_store_point { /cairo_point_y exch def /cairo_point_x exch def } def
/Tj { show currentpoint cairo_store_point } bind def
/TJ {
  {
    dup
    type /stringtype eq
    { show } { -0.001 mul 0 cairo_font_matrix dtransform rmoveto } ifelse
  } forall
  currentpoint cairo_store_point
} bind def
/cairo_selectfont { cairo_font_matrix aload pop pop pop 0 0 6 array astore
    cairo_font exch selectfont cairo_point_x cairo_point_y moveto } bind def
/Tf { pop /cairo_font exch def /cairo_font_matrix where
      { pop cairo_selectfont } if } bind def
/Td { matrix translate cairo_font_matrix matrix concatmatrix dup
      /cairo_font_matrix exch def dup 4 get exch 5 get cairo_store_point
      /cairo_font where { pop cairo_selectfont } if } bind def
/Tm { 2 copy 8 2 roll 6 array astore /cairo_font_matrix exch def
      cairo_store_point /cairo_font where { pop cairo_selectfont } if } bind def
/g { setgray } bind def
/rg { setrgbcolor } bind def
/d1 { setcachedevice } bind def
/cairo_data_source {
  CairoDataIndex CairoData length lt
    { CairoData CairoDataIndex get /CairoDataIndex CairoDataIndex 1 add def }
    { () } ifelse
} def
/cairo_flush_ascii85_file { cairo_ascii85_file status { cairo_ascii85_file flushfile } if } def
/cairo_image { image cairo_flush_ascii85_file } def
/cairo_imagemask { imagemask cairo_flush_ascii85_file } def
%%EndProlog
%%BeginSetup
%%EndSetup
%%Page: 1 1
%%BeginPageSetup
%%PageBoundingBox: 48 48 336 336
%%EndPageSetup
q 48 48 288 288 rectclip
1 0 0 -1 0 384 cm q
0.301961 0.815686 0.882353 rg
96 60 m 288 60 l 307.883 60 324 76.117 324 96 c 324 288 l 324 307.883 307.883
 324 288 324 c 96 324 l 76.117 324 60 307.883 60 288 c 60 96 l 60 76.117
 76.117 60 96 60 c h
96 60 m f
0.00392157 0.180392 0.321569 rg
324 120 m 317.375 120 312 125.375 312 132 c 312 288 l 312 301.234 301.234
 312 288 312 c 96 312 l 82.766 312 72 301.234 72 288 c 72 96 l 72 82.766
 82.766 72 96 72 c 252 72 l 258.625 72 264 66.625 264 60 c 264 53.375 258.625
 48 252 48 c 96 48 l 69.535 48 48 69.535 48 96 c 48 288 l 48 314.465 69.535
 336 96 336 c 288 336 l 314.465 336 336 314.465 336 288 c 336 132 l 336 
125.375 330.625 120 324 120 c h
324 120 m f
260.484 123.516 m 255.797 118.828 248.203 118.828 243.516 123.516 c 144
 223.031 l 144 186 l 144 179.375 138.625 174 132 174 c 125.375 174 120 179.375
 120 186 c 120 252 l 120 258.625 125.375 264 132 264 c 198 264 l 204.625
 264 210 258.625 210 252 c 210 245.375 204.625 240 198 240 c 160.969 240
 l 260.484 140.484 l 265.172 135.797 265.172 128.203 260.484 123.516 c h
260.484 123.516 m f
Q Q
showpage
%%Trailer
end
%%EOF
