%!PS-Adobe-3.0 EPSF-3.0
%%Creator: cairo 1.16.0 (https://cairographics.org)
%%CreationDate: Wed Oct 16 08:09:42 2019
%%Pages: 1
%%DocumentData: Clean7Bit
%%LanguageLevel: 2
%%BoundingBox: 48 48 337 337
%%EndComments
%%BeginProlog
50 dict begin
/q { gsave } bind def
/Q { grestore } bind def
/cm { 6 array astore concat } bind def
/w { setlinewidth } bind def
/J { setlinecap } bind def
/j { setlinejoin } bind def
/M { setmiterlimit } bind def
/d { setdash } bind def
/m { moveto } bind def
/l { lineto } bind def
/c { curveto } bind def
/h { closepath } bind def
/re { exch dup neg 3 1 roll 5 3 roll moveto 0 rlineto
      0 exch rlineto 0 rlineto closepath } bind def
/S { stroke } bind def
/f { fill } bind def
/f* { eofill } bind def
/n { newpath } bind def
/W { clip } bind def
/W* { eoclip } bind def
/BT { } bind def
/ET { } bind def
/BDC { mark 3 1 roll /BDC pdfmark } bind def
/EMC { mark /EMC pdfmark } bind def
/cairo_store_point { /cairo_point_y exch def /cairo_point_x exch def } def
/Tj { show currentpoint cairo_store_point } bind def
/TJ {
  {
    dup
    type /stringtype eq
    { show } { -0.001 mul 0 cairo_font_matrix dtransform rmoveto } ifelse
  } forall
  currentpoint cairo_store_point
} bind def
/cairo_selectfont { cairo_font_matrix aload pop pop pop 0 0 6 array astore
    cairo_font exch selectfont cairo_point_x cairo_point_y moveto } bind def
/Tf { pop /cairo_font exch def /cairo_font_matrix where
      { pop cairo_selectfont } if } bind def
/Td { matrix translate cairo_font_matrix matrix concatmatrix dup
      /cairo_font_matrix exch def dup 4 get exch 5 get cairo_store_point
      /cairo_font where { pop cairo_selectfont } if } bind def
/Tm { 2 copy 8 2 roll 6 array astore /cairo_font_matrix exch def
      cairo_store_point /cairo_font where { pop cairo_selectfont } if } bind def
/g { setgray } bind def
/rg { setrgbcolor } bind def
/d1 { setcachedevice } bind def
/cairo_data_source {
  CairoDataIndex CairoData length lt
    { CairoData CairoDataIndex get /CairoDataIndex CairoDataIndex 1 add def }
    { () } ifelse
} def
/cairo_flush_ascii85_file { cairo_ascii85_file status { cairo_ascii85_file flushfile } if } def
/cairo_image { image cairo_flush_ascii85_file } def
/cairo_imagemask { imagemask cairo_flush_ascii85_file } def
%%EndProlog
%%BeginSetup
%%EndSetup
%%Page: 1 1
%%BeginPageSetup
%%PageBoundingBox: 48 48 337 337
%%EndPageSetup
q 48 48 289 289 rectclip
1 0 0 -1 0 384 cm q
1 0.439216 0.262745 rg
324 192 m 324 264.902 264.902 324 192 324 c 119.098 324 60 264.902 60 192
 c 60 119.098 119.098 60 192 60 c 264.902 60 324 119.098 324 192 c h
324 192 m f
0.00392157 0.180392 0.321569 rg
264.562 96.434 m 268.812 99.605 272.957 103.207 276.875 107.125 c 280.793
 111.043 284.387 115.188 287.562 119.438 c 289.922 122.594 293.531 124.262
 297.188 124.262 c 299.684 124.262 302.203 123.484 304.355 121.879 c 309.664
 117.91 310.758 110.395 306.793 105.086 c 302.93 99.91 298.57 94.891 293.844
 90.16 c 289.117 85.43 284.094 81.066 278.914 77.207 c 273.613 73.234 266.094
 74.336 262.121 79.645 c 258.16 84.949 259.246 92.465 264.562 96.434 c h
264.562 96.434 m f
313.891 139.844 m 307.586 141.883 304.129 148.648 306.16 154.957 c 320.105
 198.098 308.879 244.816 276.875 276.875 c 230.102 323.652 153.949 323.645
 107.129 276.883 c 60.355 230.051 60.355 153.906 107.117 107.137 c 139.188
 75.121 185.91 63.898 229.051 77.844 c 235.352 79.867 242.125 76.43 244.156
 70.117 c 246.199 63.809 242.734 57.043 236.43 55.004 c 184.68 38.281 128.633
 51.742 90.156 90.156 c 34.031 146.281 34.031 237.648 90.156 293.844 c 118.254
 321.91 155.137 335.941 192.02 335.941 c 228.898 335.941 265.781 321.898
 293.852 293.832 c 332.258 255.367 345.727 199.312 328.992 147.562 c 326.965
 141.266 320.215 137.82 313.891 139.844 c h
313.891 139.844 m f
243.516 123.516 m 144 223.031 l 144 186 l 144 179.375 138.625 174 132 174
 c 125.375 174 120 179.375 120 186 c 120 252 l 120 258.625 125.375 264 132
 264 c 198 264 l 204.625 264 210 258.625 210 252 c 210 245.375 204.625 240
 198 240 c 160.969 240 l 260.484 140.484 l 265.172 135.797 265.172 128.203
 260.484 123.516 c 255.805 118.828 248.195 118.828 243.516 123.516 c h
243.516 123.516 m f
Q Q
showpage
%%Trailer
end
%%EOF
