%!PS-Adobe-3.0 EPSF-3.0
%%Creator: cairo 1.16.0 (https://cairographics.org)
%%CreationDate: Wed Oct 16 08:09:43 2019
%%Pages: 1
%%DocumentData: Clean7Bit
%%LanguageLevel: 2
%%BoundingBox: 48 48 337 337
%%EndComments
%%BeginProlog
50 dict begin
/q { gsave } bind def
/Q { grestore } bind def
/cm { 6 array astore concat } bind def
/w { setlinewidth } bind def
/J { setlinecap } bind def
/j { setlinejoin } bind def
/M { setmiterlimit } bind def
/d { setdash } bind def
/m { moveto } bind def
/l { lineto } bind def
/c { curveto } bind def
/h { closepath } bind def
/re { exch dup neg 3 1 roll 5 3 roll moveto 0 rlineto
      0 exch rlineto 0 rlineto closepath } bind def
/S { stroke } bind def
/f { fill } bind def
/f* { eofill } bind def
/n { newpath } bind def
/W { clip } bind def
/W* { eoclip } bind def
/BT { } bind def
/ET { } bind def
/BDC { mark 3 1 roll /BDC pdfmark } bind def
/EMC { mark /EMC pdfmark } bind def
/cairo_store_point { /cairo_point_y exch def /cairo_point_x exch def } def
/Tj { show currentpoint cairo_store_point } bind def
/TJ {
  {
    dup
    type /stringtype eq
    { show } { -0.001 mul 0 cairo_font_matrix dtransform rmoveto } ifelse
  } forall
  currentpoint cairo_store_point
} bind def
/cairo_selectfont { cairo_font_matrix aload pop pop pop 0 0 6 array astore
    cairo_font exch selectfont cairo_point_x cairo_point_y moveto } bind def
/Tf { pop /cairo_font exch def /cairo_font_matrix where
      { pop cairo_selectfont } if } bind def
/Td { matrix translate cairo_font_matrix matrix concatmatrix dup
      /cairo_font_matrix exch def dup 4 get exch 5 get cairo_store_point
      /cairo_font where { pop cairo_selectfont } if } bind def
/Tm { 2 copy 8 2 roll 6 array astore /cairo_font_matrix exch def
      cairo_store_point /cairo_font where { pop cairo_selectfont } if } bind def
/g { setgray } bind def
/rg { setrgbcolor } bind def
/d1 { setcachedevice } bind def
/cairo_data_source {
  CairoDataIndex CairoData length lt
    { CairoData CairoDataIndex get /CairoDataIndex CairoDataIndex 1 add def }
    { () } ifelse
} def
/cairo_flush_ascii85_file { cairo_ascii85_file status { cairo_ascii85_file flushfile } if } def
/cairo_image { image cairo_flush_ascii85_file } def
/cairo_imagemask { imagemask cairo_flush_ascii85_file } def
%%EndProlog
%%BeginSetup
%%EndSetup
%%Page: 1 1
%%BeginPageSetup
%%PageBoundingBox: 48 48 337 337
%%EndPageSetup
q 48 48 289 289 rectclip
1 0 0 -1 0 384 cm q
0.301961 0.815686 0.882353 rg
324 192 m 324 264.902 264.902 324 192 324 c 119.098 324 60 264.902 60 192
 c 60 119.098 119.098 60 192 60 c 264.902 60 324 119.098 324 192 c h
324 192 m f
0.00392157 0.180392 0.321569 rg
162 144 m 155.375 144 150 149.375 150 156 c 150 210 l 150 223.234 160.766
 234 174 234 c 228 234 l 234.625 234 240 228.625 240 222 c 240 215.375 234.625
 210 228 210 c 174 210 l 174 156 l 174 149.375 168.625 144 162 144 c h
162 144 m f
264.562 96.438 m 268.648 99.492 272.695 103.004 276.875 107.129 c 280.793
 111.047 284.395 115.188 287.566 119.441 c 289.926 122.598 293.531 124.266
 297.191 124.266 c 299.688 124.266 302.207 123.492 304.355 121.883 c 309.672
 117.918 310.758 110.398 306.793 105.09 c 302.93 99.91 298.57 94.891 293.777
 90.102 c 288.758 85.145 283.895 80.93 278.91 77.215 c 273.59 73.242 266.074
 74.34 262.117 79.648 c 258.156 84.953 259.246 92.473 264.562 96.438 c h
264.562 96.438 m f
191.977 335.941 m 228.859 335.941 265.754 321.906 293.852 293.84 c 332.258
 255.367 345.727 199.32 328.996 147.57 c 326.953 141.27 320.203 137.785 
313.883 139.844 c 307.578 141.875 304.117 148.645 306.156 154.949 c 320.102
 198.09 308.879 244.812 276.875 276.871 c 230.035 323.641 153.895 323.645
 107.125 276.875 c 60.348 230.047 60.348 153.895 107.113 107.129 c 139.184
 75.113 185.902 63.898 229.043 77.832 c 235.355 79.883 242.117 76.41 244.156
 70.105 c 246.199 63.797 242.734 57.031 236.43 54.996 c 184.68 38.27 128.629
 51.738 90.156 90.148 c 34.031 146.273 34.031 237.648 90.156 293.84 c 118.219
 321.906 155.09 335.941 191.977 335.941 c h
191.977 335.941 m f
Q Q
showpage
%%Trailer
end
%%EOF
