%!PS-Adobe-3.0 EPSF-3.0
%%Creator: cairo 1.16.0 (https://cairographics.org)
%%CreationDate: Wed Oct 16 08:09:43 2019
%%Pages: 1
%%DocumentData: Clean7Bit
%%LanguageLevel: 2
%%BoundingBox: 47 48 336 337
%%EndComments
%%BeginProlog
50 dict begin
/q { gsave } bind def
/Q { grestore } bind def
/cm { 6 array astore concat } bind def
/w { setlinewidth } bind def
/J { setlinecap } bind def
/j { setlinejoin } bind def
/M { setmiterlimit } bind def
/d { setdash } bind def
/m { moveto } bind def
/l { lineto } bind def
/c { curveto } bind def
/h { closepath } bind def
/re { exch dup neg 3 1 roll 5 3 roll moveto 0 rlineto
      0 exch rlineto 0 rlineto closepath } bind def
/S { stroke } bind def
/f { fill } bind def
/f* { eofill } bind def
/n { newpath } bind def
/W { clip } bind def
/W* { eoclip } bind def
/BT { } bind def
/ET { } bind def
/BDC { mark 3 1 roll /BDC pdfmark } bind def
/EMC { mark /EMC pdfmark } bind def
/cairo_store_point { /cairo_point_y exch def /cairo_point_x exch def } def
/Tj { show currentpoint cairo_store_point } bind def
/TJ {
  {
    dup
    type /stringtype eq
    { show } { -0.001 mul 0 cairo_font_matrix dtransform rmoveto } ifelse
  } forall
  currentpoint cairo_store_point
} bind def
/cairo_selectfont { cairo_font_matrix aload pop pop pop 0 0 6 array astore
    cairo_font exch selectfont cairo_point_x cairo_point_y moveto } bind def
/Tf { pop /cairo_font exch def /cairo_font_matrix where
      { pop cairo_selectfont } if } bind def
/Td { matrix translate cairo_font_matrix matrix concatmatrix dup
      /cairo_font_matrix exch def dup 4 get exch 5 get cairo_store_point
      /cairo_font where { pop cairo_selectfont } if } bind def
/Tm { 2 copy 8 2 roll 6 array astore /cairo_font_matrix exch def
      cairo_store_point /cairo_font where { pop cairo_selectfont } if } bind def
/g { setgray } bind def
/rg { setrgbcolor } bind def
/d1 { setcachedevice } bind def
/cairo_data_source {
  CairoDataIndex CairoData length lt
    { CairoData CairoDataIndex get /CairoDataIndex CairoDataIndex 1 add def }
    { () } ifelse
} def
/cairo_flush_ascii85_file { cairo_ascii85_file status { cairo_ascii85_file flushfile } if } def
/cairo_image { image cairo_flush_ascii85_file } def
/cairo_imagemask { imagemask cairo_flush_ascii85_file } def
%%EndProlog
%%BeginSetup
%%EndSetup
%%Page: 1 1
%%BeginPageSetup
%%PageBoundingBox: 47 48 336 337
%%EndPageSetup
q 47 48 289 289 rectclip
1 0 0 -1 0 384 cm q
1 0.439216 0.262745 rg
324 192 m 324 264.902 264.902 324 192 324 c 119.098 324 60 264.902 60 192
 c 60 119.098 119.098 60 192 60 c 264.902 60 324 119.098 324 192 c h
324 192 m f
0.00392157 0.180392 0.321569 rg
105.086 77.203 m 100.098 80.922 95.23 85.141 90.156 90.156 c 85.625 94.688
 81.406 99.539 77.262 105.008 c 73.262 110.285 74.285 117.816 79.566 121.816
 c 81.73 123.461 84.281 124.262 86.812 124.262 c 90.438 124.262 94.02 122.629
 96.383 119.516 c 99.863 114.93 103.379 110.879 107.074 107.18 c 111.305
 103.004 115.352 99.484 119.441 96.434 c 124.754 92.465 125.844 84.949 121.879
 79.637 c 117.91 74.328 110.387 73.234 105.086 77.203 c h
105.086 77.203 m f
147.57 55.004 m 141.266 57.043 137.809 63.809 139.844 70.117 c 141.883 
76.43 148.645 79.867 154.949 77.844 c 198.102 63.898 244.816 75.125 276.871
 107.129 c 323.645 153.906 323.645 230.051 276.871 276.875 c 230.09 323.652
 153.949 323.645 107.129 276.883 c 75.113 244.812 63.887 198.098 77.832 
154.957 c 79.871 148.648 76.41 141.883 70.105 139.844 c 63.797 137.832 57.035
 141.266 54.996 147.57 c 38.27 199.32 51.738 255.371 90.148 293.852 c 118.246
 321.91 155.129 335.945 192.012 335.945 c 228.895 335.945 265.77 321.91 
293.84 293.84 c 349.961 237.652 349.961 146.281 293.824 90.156 c 255.371
 51.738 199.324 38.273 147.57 55.004 c h
147.57 55.004 m f
174 252 m 174 258.625 179.375 264 186 264 c 252 264 l 258.625 264 264 258.625
 264 252 c 264 186 l 264 179.375 258.625 174 252 174 c 245.375 174 240 179.375
 240 186 c 240 223.031 l 140.484 123.516 l 135.805 118.828 128.195 118.828
 123.516 123.516 c 118.828 128.203 118.828 135.797 123.516 140.484 c 223.031
 240 l 186 240 l 179.375 240 174 245.375 174 252 c h
174 252 m f
Q Q
showpage
%%Trailer
end
%%EOF
