%!PS-Adobe-3.0 EPSF-3.0
%%Creator: cairo 1.16.0 (https://cairographics.org)
%%CreationDate: Wed Oct 16 08:09:44 2019
%%Pages: 1
%%DocumentData: Clean7Bit
%%LanguageLevel: 2
%%BoundingBox: 47 48 336 337
%%EndComments
%%BeginProlog
50 dict begin
/q { gsave } bind def
/Q { grestore } bind def
/cm { 6 array astore concat } bind def
/w { setlinewidth } bind def
/J { setlinecap } bind def
/j { setlinejoin } bind def
/M { setmiterlimit } bind def
/d { setdash } bind def
/m { moveto } bind def
/l { lineto } bind def
/c { curveto } bind def
/h { closepath } bind def
/re { exch dup neg 3 1 roll 5 3 roll moveto 0 rlineto
      0 exch rlineto 0 rlineto closepath } bind def
/S { stroke } bind def
/f { fill } bind def
/f* { eofill } bind def
/n { newpath } bind def
/W { clip } bind def
/W* { eoclip } bind def
/BT { } bind def
/ET { } bind def
/BDC { mark 3 1 roll /BDC pdfmark } bind def
/EMC { mark /EMC pdfmark } bind def
/cairo_store_point { /cairo_point_y exch def /cairo_point_x exch def } def
/Tj { show currentpoint cairo_store_point } bind def
/TJ {
  {
    dup
    type /stringtype eq
    { show } { -0.001 mul 0 cairo_font_matrix dtransform rmoveto } ifelse
  } forall
  currentpoint cairo_store_point
} bind def
/cairo_selectfont { cairo_font_matrix aload pop pop pop 0 0 6 array astore
    cairo_font exch selectfont cairo_point_x cairo_point_y moveto } bind def
/Tf { pop /cairo_font exch def /cairo_font_matrix where
      { pop cairo_selectfont } if } bind def
/Td { matrix translate cairo_font_matrix matrix concatmatrix dup
      /cairo_font_matrix exch def dup 4 get exch 5 get cairo_store_point
      /cairo_font where { pop cairo_selectfont } if } bind def
/Tm { 2 copy 8 2 roll 6 array astore /cairo_font_matrix exch def
      cairo_store_point /cairo_font where { pop cairo_selectfont } if } bind def
/g { setgray } bind def
/rg { setrgbcolor } bind def
/d1 { setcachedevice } bind def
/cairo_data_source {
  CairoDataIndex CairoData length lt
    { CairoData CairoDataIndex get /CairoDataIndex CairoDataIndex 1 add def }
    { () } ifelse
} def
/cairo_flush_ascii85_file { cairo_ascii85_file status { cairo_ascii85_file flushfile } if } def
/cairo_image { image cairo_flush_ascii85_file } def
/cairo_imagemask { imagemask cairo_flush_ascii85_file } def
%%EndProlog
%%BeginSetup
%%EndSetup
%%Page: 1 1
%%BeginPageSetup
%%PageBoundingBox: 47 48 336 337
%%EndPageSetup
q 47 48 289 289 rectclip
1 0 0 -1 0 384 cm q
0.301961 0.815686 0.882353 rg
324 192 m 324 264.902 264.902 324 192 324 c 119.098 324 60 264.902 60 192
 c 60 119.098 119.098 60 192 60 c 264.902 60 324 119.098 324 192 c h
324 192 m f
0.00392157 0.180392 0.321569 rg
210 234 m 223.234 234 234 223.234 234 210 c 234 156 l 234 149.375 228.625
 144 222 144 c 215.375 144 210 149.375 210 156 c 210 210 l 156 210 l 149.375
 210 144 215.375 144 222 c 144 228.625 149.375 234 156 234 c h
210 234 m f
79.637 121.879 m 81.793 123.484 84.305 124.262 86.801 124.262 c 90.461 
124.262 94.074 122.598 96.426 119.438 c 99.602 115.188 103.199 111.043 107.117
 107.125 c 111.035 103.207 115.184 99.613 119.43 96.438 c 124.746 92.473
 125.832 84.953 121.867 79.645 c 117.906 74.336 110.383 73.242 105.07 77.207
 c 99.898 81.07 94.879 85.43 90.148 90.156 c 85.414 94.883 81.055 99.906
 77.195 105.086 c 73.234 110.387 74.328 117.91 79.637 121.879 c h
79.637 121.879 m f
191.977 335.941 m 228.852 335.941 265.754 321.906 293.852 293.844 c 349.973
 237.652 349.973 146.281 293.84 90.148 c 255.367 51.742 199.312 38.27 147.57
 55.008 c 141.266 57.043 137.801 63.809 139.844 70.117 c 141.887 76.414 
148.637 79.891 154.957 77.844 c 198.086 63.898 244.816 75.121 276.875 107.129
 c 323.652 153.898 323.652 230.051 276.883 276.875 c 230.047 323.652 153.898
 323.645 107.137 276.887 c 75.121 244.816 63.898 198.098 77.844 154.957 
c 79.883 148.648 76.422 141.883 70.117 139.848 c 63.793 137.789 57.043 141.27
 55.004 147.574 c 38.273 199.324 51.742 255.371 90.156 293.852 c 118.219
 321.906 155.094 335.941 191.977 335.941 c h
191.977 335.941 m f
Q Q
showpage
%%Trailer
end
%%EOF
