%!PS-Adobe-3.0 EPSF-3.0
%%Creator: cairo 1.16.0 (https://cairographics.org)
%%CreationDate: Wed Oct 16 08:09:44 2019
%%Pages: 1
%%DocumentData: Clean7Bit
%%LanguageLevel: 2
%%BoundingBox: 48 47 337 336
%%EndComments
%%BeginProlog
50 dict begin
/q { gsave } bind def
/Q { grestore } bind def
/cm { 6 array astore concat } bind def
/w { setlinewidth } bind def
/J { setlinecap } bind def
/j { setlinejoin } bind def
/M { setmiterlimit } bind def
/d { setdash } bind def
/m { moveto } bind def
/l { lineto } bind def
/c { curveto } bind def
/h { closepath } bind def
/re { exch dup neg 3 1 roll 5 3 roll moveto 0 rlineto
      0 exch rlineto 0 rlineto closepath } bind def
/S { stroke } bind def
/f { fill } bind def
/f* { eofill } bind def
/n { newpath } bind def
/W { clip } bind def
/W* { eoclip } bind def
/BT { } bind def
/ET { } bind def
/BDC { mark 3 1 roll /BDC pdfmark } bind def
/EMC { mark /EMC pdfmark } bind def
/cairo_store_point { /cairo_point_y exch def /cairo_point_x exch def } def
/Tj { show currentpoint cairo_store_point } bind def
/TJ {
  {
    dup
    type /stringtype eq
    { show } { -0.001 mul 0 cairo_font_matrix dtransform rmoveto } ifelse
  } forall
  currentpoint cairo_store_point
} bind def
/cairo_selectfont { cairo_font_matrix aload pop pop pop 0 0 6 array astore
    cairo_font exch selectfont cairo_point_x cairo_point_y moveto } bind def
/Tf { pop /cairo_font exch def /cairo_font_matrix where
      { pop cairo_selectfont } if } bind def
/Td { matrix translate cairo_font_matrix matrix concatmatrix dup
      /cairo_font_matrix exch def dup 4 get exch 5 get cairo_store_point
      /cairo_font where { pop cairo_selectfont } if } bind def
/Tm { 2 copy 8 2 roll 6 array astore /cairo_font_matrix exch def
      cairo_store_point /cairo_font where { pop cairo_selectfont } if } bind def
/g { setgray } bind def
/rg { setrgbcolor } bind def
/d1 { setcachedevice } bind def
/cairo_data_source {
  CairoDataIndex CairoData length lt
    { CairoData CairoDataIndex get /CairoDataIndex CairoDataIndex 1 add def }
    { () } ifelse
} def
/cairo_flush_ascii85_file { cairo_ascii85_file status { cairo_ascii85_file flushfile } if } def
/cairo_image { image cairo_flush_ascii85_file } def
/cairo_imagemask { imagemask cairo_flush_ascii85_file } def
%%EndProlog
%%BeginSetup
%%EndSetup
%%Page: 1 1
%%BeginPageSetup
%%PageBoundingBox: 48 47 337 336
%%EndPageSetup
q 48 47 289 289 rectclip
1 0 0 -1 0 384 cm q
1 0.439216 0.262745 rg
324 192 m 324 264.902 264.902 324 192 324 c 119.098 324 60 264.902 60 192
 c 60 119.098 119.098 60 192 60 c 264.902 60 324 119.098 324 192 c h
324 192 m f
0.00392157 0.180392 0.321569 rg
304.355 262.129 m 299.047 258.16 291.523 259.246 287.562 264.562 c 284.508
 268.648 280.996 272.695 276.871 276.875 c 272.953 280.793 268.812 284.395
 264.559 287.566 c 259.246 291.535 258.156 299.051 262.121 304.363 c 264.48
 307.52 268.094 309.188 271.746 309.188 c 274.242 309.188 276.762 308.41
 278.914 306.805 c 284.094 302.941 289.117 298.586 293.902 293.789 c 298.859
 288.77 303.078 283.906 306.793 278.922 c 310.758 273.613 309.664 266.094
 304.355 262.129 c h
304.355 262.129 m f
90.156 90.156 m 34.031 146.281 34.031 237.648 90.16 293.844 c 117.707 321.348
 154.262 336.059 191.797 336.059 c 206.684 336.059 221.73 333.742 236.43
 328.992 c 242.734 326.953 246.191 320.184 244.156 313.879 c 242.125 307.566
 235.367 304.133 229.051 306.148 c 185.902 320.102 139.188 308.875 107.129
 276.871 c 60.355 230.039 60.355 153.895 107.125 107.125 c 153.949 60.348
 230.105 60.336 276.871 107.113 c 308.887 139.184 320.113 185.898 306.168
 229.039 c 304.129 235.344 307.59 242.113 313.895 244.152 c 320.215 246.168
 326.969 242.734 329.004 236.426 c 345.73 184.676 332.262 128.621 293.852
 90.148 c 237.727 34.02 146.348 34.016 90.156 90.156 c h
90.156 90.156 m f
210 132 m 210 125.375 204.625 120 198 120 c 132 120 l 125.375 120 120 125.375
 120 132 c 120 198 l 120 204.625 125.375 210 132 210 c 138.625 210 144 204.625
 144 198 c 144 160.969 l 243.516 260.484 l 245.855 262.828 248.93 264 252
 264 c 255.07 264 258.145 262.828 260.484 260.484 c 265.172 255.797 265.172
 248.203 260.484 243.516 c 160.969 144 l 198 144 l 204.625 144 210 138.625
 210 132 c h
210 132 m f
Q Q
showpage
%%Trailer
end
%%EOF
