%!PS-Adobe-3.0 EPSF-3.0
%%Creator: cairo 1.16.0 (https://cairographics.org)
%%CreationDate: Wed Oct 16 08:09:45 2019
%%Pages: 1
%%DocumentData: Clean7Bit
%%LanguageLevel: 2
%%BoundingBox: 48 47 337 336
%%EndComments
%%BeginProlog
50 dict begin
/q { gsave } bind def
/Q { grestore } bind def
/cm { 6 array astore concat } bind def
/w { setlinewidth } bind def
/J { setlinecap } bind def
/j { setlinejoin } bind def
/M { setmiterlimit } bind def
/d { setdash } bind def
/m { moveto } bind def
/l { lineto } bind def
/c { curveto } bind def
/h { closepath } bind def
/re { exch dup neg 3 1 roll 5 3 roll moveto 0 rlineto
      0 exch rlineto 0 rlineto closepath } bind def
/S { stroke } bind def
/f { fill } bind def
/f* { eofill } bind def
/n { newpath } bind def
/W { clip } bind def
/W* { eoclip } bind def
/BT { } bind def
/ET { } bind def
/BDC { mark 3 1 roll /BDC pdfmark } bind def
/EMC { mark /EMC pdfmark } bind def
/cairo_store_point { /cairo_point_y exch def /cairo_point_x exch def } def
/Tj { show currentpoint cairo_store_point } bind def
/TJ {
  {
    dup
    type /stringtype eq
    { show } { -0.001 mul 0 cairo_font_matrix dtransform rmoveto } ifelse
  } forall
  currentpoint cairo_store_point
} bind def
/cairo_selectfont { cairo_font_matrix aload pop pop pop 0 0 6 array astore
    cairo_font exch selectfont cairo_point_x cairo_point_y moveto } bind def
/Tf { pop /cairo_font exch def /cairo_font_matrix where
      { pop cairo_selectfont } if } bind def
/Td { matrix translate cairo_font_matrix matrix concatmatrix dup
      /cairo_font_matrix exch def dup 4 get exch 5 get cairo_store_point
      /cairo_font where { pop cairo_selectfont } if } bind def
/Tm { 2 copy 8 2 roll 6 array astore /cairo_font_matrix exch def
      cairo_store_point /cairo_font where { pop cairo_selectfont } if } bind def
/g { setgray } bind def
/rg { setrgbcolor } bind def
/d1 { setcachedevice } bind def
/cairo_data_source {
  CairoDataIndex CairoData length lt
    { CairoData CairoDataIndex get /CairoDataIndex CairoDataIndex 1 add def }
    { () } ifelse
} def
/cairo_flush_ascii85_file { cairo_ascii85_file status { cairo_ascii85_file flushfile } if } def
/cairo_image { image cairo_flush_ascii85_file } def
/cairo_imagemask { imagemask cairo_flush_ascii85_file } def
%%EndProlog
%%BeginSetup
%%EndSetup
%%Page: 1 1
%%BeginPageSetup
%%PageBoundingBox: 48 47 337 336
%%EndPageSetup
q 48 47 289 289 rectclip
1 0 0 -1 0 384 cm q
0.301961 0.815686 0.882353 rg
324 192 m 324 264.902 264.902 324 192 324 c 119.098 324 60 264.902 60 192
 c 60 119.098 119.098 60 192 60 c 264.902 60 324 119.098 324 192 c h
324 192 m f
0.00392157 0.180392 0.321569 rg
174 150 m 160.766 150 150 160.766 150 174 c 150 228 l 150 234.625 155.375
 240 162 240 c 168.625 240 174 234.625 174 228 c 174 174 l 228 174 l 234.625
 174 240 168.625 240 162 c 240 155.375 234.625 150 228 150 c h
174 150 m f
287.562 264.562 m 284.395 268.812 280.793 272.953 276.938 276.816 c 272.695
 280.996 268.645 284.516 264.562 287.566 c 259.254 291.535 258.16 299.051
 262.129 304.363 c 264.484 307.52 268.098 309.188 271.754 309.188 c 274.246
 309.188 276.77 308.41 278.922 306.805 c 283.895 303.09 288.758 298.879 
293.852 293.852 c 298.586 289.117 302.941 284.094 306.797 278.93 c 310.766
 273.617 309.672 266.102 304.363 262.133 c 299.051 258.16 291.527 259.246
 287.562 264.562 c h
287.562 264.562 m f
191.797 336.066 m 206.684 336.066 221.73 333.75 236.43 328.996 c 242.734
 326.965 246.191 320.195 244.156 313.891 c 242.125 307.586 235.352 304.121
 229.051 306.16 c 185.902 320.113 139.188 308.879 107.125 276.875 c 60.324
 230.074 60.324 153.926 107.125 107.125 c 153.895 60.355 230.047 60.348 
276.871 107.117 c 308.887 139.188 320.113 185.91 306.168 229.051 c 304.129
 235.355 307.59 242.125 313.895 244.156 c 320.195 246.215 326.969 242.742
 329.004 236.43 c 345.73 184.68 332.27 128.633 293.852 90.148 c 237.66 34.027
 146.285 34.027 90.16 90.156 c 34.004 146.309 34.004 237.691 90.168 293.855
 c 117.707 321.355 154.262 336.066 191.797 336.066 c h
191.797 336.066 m f
Q Q
showpage
%%Trailer
end
%%EOF
