%!PS-Adobe-3.0 EPSF-3.0
%%Creator: cairo 1.16.0 (https://cairographics.org)
%%CreationDate: Wed Oct 16 08:09:45 2019
%%Pages: 1
%%DocumentData: Clean7Bit
%%LanguageLevel: 2
%%BoundingBox: 47 47 337 337
%%EndComments
%%BeginProlog
50 dict begin
/q { gsave } bind def
/Q { grestore } bind def
/cm { 6 array astore concat } bind def
/w { setlinewidth } bind def
/J { setlinecap } bind def
/j { setlinejoin } bind def
/M { setmiterlimit } bind def
/d { setdash } bind def
/m { moveto } bind def
/l { lineto } bind def
/c { curveto } bind def
/h { closepath } bind def
/re { exch dup neg 3 1 roll 5 3 roll moveto 0 rlineto
      0 exch rlineto 0 rlineto closepath } bind def
/S { stroke } bind def
/f { fill } bind def
/f* { eofill } bind def
/n { newpath } bind def
/W { clip } bind def
/W* { eoclip } bind def
/BT { } bind def
/ET { } bind def
/BDC { mark 3 1 roll /BDC pdfmark } bind def
/EMC { mark /EMC pdfmark } bind def
/cairo_store_point { /cairo_point_y exch def /cairo_point_x exch def } def
/Tj { show currentpoint cairo_store_point } bind def
/TJ {
  {
    dup
    type /stringtype eq
    { show } { -0.001 mul 0 cairo_font_matrix dtransform rmoveto } ifelse
  } forall
  currentpoint cairo_store_point
} bind def
/cairo_selectfont { cairo_font_matrix aload pop pop pop 0 0 6 array astore
    cairo_font exch selectfont cairo_point_x cairo_point_y moveto } bind def
/Tf { pop /cairo_font exch def /cairo_font_matrix where
      { pop cairo_selectfont } if } bind def
/Td { matrix translate cairo_font_matrix matrix concatmatrix dup
      /cairo_font_matrix exch def dup 4 get exch 5 get cairo_store_point
      /cairo_font where { pop cairo_selectfont } if } bind def
/Tm { 2 copy 8 2 roll 6 array astore /cairo_font_matrix exch def
      cairo_store_point /cairo_font where { pop cairo_selectfont } if } bind def
/g { setgray } bind def
/rg { setrgbcolor } bind def
/d1 { setcachedevice } bind def
/cairo_data_source {
  CairoDataIndex CairoData length lt
    { CairoData CairoDataIndex get /CairoDataIndex CairoDataIndex 1 add def }
    { () } ifelse
} def
/cairo_flush_ascii85_file { cairo_ascii85_file status { cairo_ascii85_file flushfile } if } def
/cairo_image { image cairo_flush_ascii85_file } def
/cairo_imagemask { imagemask cairo_flush_ascii85_file } def
%%EndProlog
%%BeginSetup
%%EndSetup
%%Page: 1 1
%%BeginPageSetup
%%PageBoundingBox: 47 47 337 337
%%EndPageSetup
q 47 47 290 290 rectclip
1 0 0 -1 0 384 cm q
1 0.439216 0.262745 rg
324 192 m 324 264.902 264.902 324 192 324 c 119.098 324 60 264.902 60 192
 c 60 119.098 119.098 60 192 60 c 264.902 60 324 119.098 324 192 c h
324 192 m f
0.00392157 0.180392 0.321569 rg
119.438 287.566 m 115.184 284.395 111.043 280.793 107.117 276.871 c 103.207
 272.965 99.605 268.816 96.434 264.562 c 92.477 259.254 84.941 258.156 79.637
 262.129 c 74.32 266.094 73.234 273.613 77.203 278.922 c 81.07 284.102 85.43
 289.129 90.148 293.84 c 94.871 298.57 99.898 302.934 105.078 306.797 c 
107.23 308.41 109.746 309.18 112.242 309.18 c 115.902 309.18 119.516 307.52
 121.867 304.355 c 125.844 299.051 124.754 291.535 119.438 287.566 c h
119.438 287.566 m f
147.57 328.996 m 162.27 333.75 177.312 336.066 192.199 336.066 c 229.734
 336.059 266.297 321.348 293.84 293.844 c 321.035 266.652 336.012 230.477
 336.012 192 c 336.012 153.523 321.035 117.355 293.84 90.156 c 266.645 62.957
 230.477 47.98 192 47.98 c 153.523 47.98 117.355 62.957 90.148 90.16 c 51.742
 128.629 38.273 184.68 55.004 236.43 c 57.047 242.734 63.797 246.191 70.117
 244.156 c 76.422 242.117 79.883 235.352 77.844 229.043 c 63.898 185.902
 75.121 139.184 107.129 107.125 c 129.793 84.461 159.938 71.98 192.008 71.98
 c 224.074 71.98 254.215 84.461 276.883 107.125 c 299.551 129.785 312.02
 159.93 312.02 192 c 312.02 224.07 299.539 254.207 276.883 276.871 c 244.824
 308.887 198.102 320.113 154.957 306.16 c 148.633 304.141 141.875 307.59
 139.844 313.891 c 137.801 320.191 141.266 326.957 147.57 328.996 c h
147.57 328.996 m f
140.484 260.484 m 240 160.969 l 240 198 l 240 204.625 245.375 210 252 210
 c 258.625 210 264 204.625 264 198 c 264 132 l 264 125.375 258.625 120 252
 120 c 186 120 l 179.375 120 174 125.375 174 132 c 174 138.625 179.375 144
 186 144 c 223.031 144 l 123.516 243.516 l 118.828 248.203 118.828 255.797
 123.516 260.484 c 125.863 262.828 128.93 264 132 264 c 135.07 264 138.137
 262.828 140.484 260.484 c h
140.484 260.484 m f
Q Q
showpage
%%Trailer
end
%%EOF
