%!PS-Adobe-3.0 EPSF-3.0
%%Creator: cairo 1.16.0 (https://cairographics.org)
%%CreationDate: Wed Oct 16 08:09:47 2019
%%Pages: 1
%%DocumentData: Clean7Bit
%%LanguageLevel: 2
%%BoundingBox: 47 47 336 336
%%EndComments
%%BeginProlog
50 dict begin
/q { gsave } bind def
/Q { grestore } bind def
/cm { 6 array astore concat } bind def
/w { setlinewidth } bind def
/J { setlinecap } bind def
/j { setlinejoin } bind def
/M { setmiterlimit } bind def
/d { setdash } bind def
/m { moveto } bind def
/l { lineto } bind def
/c { curveto } bind def
/h { closepath } bind def
/re { exch dup neg 3 1 roll 5 3 roll moveto 0 rlineto
      0 exch rlineto 0 rlineto closepath } bind def
/S { stroke } bind def
/f { fill } bind def
/f* { eofill } bind def
/n { newpath } bind def
/W { clip } bind def
/W* { eoclip } bind def
/BT { } bind def
/ET { } bind def
/BDC { mark 3 1 roll /BDC pdfmark } bind def
/EMC { mark /EMC pdfmark } bind def
/cairo_store_point { /cairo_point_y exch def /cairo_point_x exch def } def
/Tj { show currentpoint cairo_store_point } bind def
/TJ {
  {
    dup
    type /stringtype eq
    { show } { -0.001 mul 0 cairo_font_matrix dtransform rmoveto } ifelse
  } forall
  currentpoint cairo_store_point
} bind def
/cairo_selectfont { cairo_font_matrix aload pop pop pop 0 0 6 array astore
    cairo_font exch selectfont cairo_point_x cairo_point_y moveto } bind def
/Tf { pop /cairo_font exch def /cairo_font_matrix where
      { pop cairo_selectfont } if } bind def
/Td { matrix translate cairo_font_matrix matrix concatmatrix dup
      /cairo_font_matrix exch def dup 4 get exch 5 get cairo_store_point
      /cairo_font where { pop cairo_selectfont } if } bind def
/Tm { 2 copy 8 2 roll 6 array astore /cairo_font_matrix exch def
      cairo_store_point /cairo_font where { pop cairo_selectfont } if } bind def
/g { setgray } bind def
/rg { setrgbcolor } bind def
/d1 { setcachedevice } bind def
/cairo_data_source {
  CairoDataIndex CairoData length lt
    { CairoData CairoDataIndex get /CairoDataIndex CairoDataIndex 1 add def }
    { () } ifelse
} def
/cairo_flush_ascii85_file { cairo_ascii85_file status { cairo_ascii85_file flushfile } if } def
/cairo_image { image cairo_flush_ascii85_file } def
/cairo_imagemask { imagemask cairo_flush_ascii85_file } def
%%EndProlog
%%BeginSetup
%%EndSetup
%%Page: 1 1
%%BeginPageSetup
%%PageBoundingBox: 47 47 336 336
%%EndPageSetup
q 47 47 289 289 rectclip
1 0 0 -1 0 384 cm q
0.301961 0.815686 0.882353 rg
324 192 m 324 264.902 264.902 324 192 324 c 119.098 324 60 264.902 60 192
 c 60 119.098 119.098 60 192 60 c 264.902 60 324 119.098 324 192 c h
324 192 m f
0.00392157 0.180392 0.321569 rg
222 240 m 228.625 240 234 234.625 234 228 c 234 174 l 234 160.766 223.234
 150 210 150 c 156 150 l 149.375 150 144 155.375 144 162 c 144 168.625 149.375
 174 156 174 c 210 174 l 210 228 l 210 234.625 215.375 240 222 240 c h
222 240 m f
107.125 276.875 m 103.199 272.953 99.605 268.805 96.434 264.559 c 92.465
 259.246 84.941 258.156 79.637 262.121 c 74.328 266.09 73.234 273.605 77.203
 278.914 c 81.059 284.082 85.414 289.105 90.156 293.844 c 94.891 298.578
 99.91 302.934 105.078 306.793 c 107.23 308.398 109.746 309.176 112.246 
309.176 c 115.902 309.176 119.516 307.512 121.871 304.352 c 125.84 299.039
 124.746 291.523 119.438 287.555 c 115.195 284.395 111.047 280.793 107.125
 276.875 c h
107.125 276.875 m f
70.109 244.156 m 76.414 242.125 79.871 235.355 77.84 229.051 c 63.895 185.91
 75.121 139.188 107.125 107.125 c 153.93 60.324 230.07 60.324 276.875 107.125
 c 323.676 153.926 323.676 230.074 276.883 276.871 c 244.805 308.887 198.09
 320.102 154.949 306.168 c 148.645 304.121 141.883 307.59 139.844 313.895
 c 137.801 320.203 141.266 326.969 147.57 329.004 c 162.27 333.758 177.312
 336.07 192.199 336.07 c 229.734 336.07 266.297 321.355 293.844 293.852 
c 350.004 237.695 350.004 146.316 293.844 90.16 c 237.691 34.004 146.316
 34.008 90.145 90.168 c 51.738 128.633 38.273 184.68 55.004 236.43 c 57.043
 242.742 63.805 246.215 70.109 244.156 c h
70.109 244.156 m f
Q Q
showpage
%%Trailer
end
%%EOF
