%!PS-Adobe-3.0 EPSF-3.0
%%Creator: cairo 1.16.0 (https://cairographics.org)
%%CreationDate: Wed Oct 16 08:09:47 2019
%%Pages: 1
%%DocumentData: Clean7Bit
%%LanguageLevel: 2
%%BoundingBox: 48 48 336 336
%%EndComments
%%BeginProlog
50 dict begin
/q { gsave } bind def
/Q { grestore } bind def
/cm { 6 array astore concat } bind def
/w { setlinewidth } bind def
/J { setlinecap } bind def
/j { setlinejoin } bind def
/M { setmiterlimit } bind def
/d { setdash } bind def
/m { moveto } bind def
/l { lineto } bind def
/c { curveto } bind def
/h { closepath } bind def
/re { exch dup neg 3 1 roll 5 3 roll moveto 0 rlineto
      0 exch rlineto 0 rlineto closepath } bind def
/S { stroke } bind def
/f { fill } bind def
/f* { eofill } bind def
/n { newpath } bind def
/W { clip } bind def
/W* { eoclip } bind def
/BT { } bind def
/ET { } bind def
/BDC { mark 3 1 roll /BDC pdfmark } bind def
/EMC { mark /EMC pdfmark } bind def
/cairo_store_point { /cairo_point_y exch def /cairo_point_x exch def } def
/Tj { show currentpoint cairo_store_point } bind def
/TJ {
  {
    dup
    type /stringtype eq
    { show } { -0.001 mul 0 cairo_font_matrix dtransform rmoveto } ifelse
  } forall
  currentpoint cairo_store_point
} bind def
/cairo_selectfont { cairo_font_matrix aload pop pop pop 0 0 6 array astore
    cairo_font exch selectfont cairo_point_x cairo_point_y moveto } bind def
/Tf { pop /cairo_font exch def /cairo_font_matrix where
      { pop cairo_selectfont } if } bind def
/Td { matrix translate cairo_font_matrix matrix concatmatrix dup
      /cairo_font_matrix exch def dup 4 get exch 5 get cairo_store_point
      /cairo_font where { pop cairo_selectfont } if } bind def
/Tm { 2 copy 8 2 roll 6 array astore /cairo_font_matrix exch def
      cairo_store_point /cairo_font where { pop cairo_selectfont } if } bind def
/g { setgray } bind def
/rg { setrgbcolor } bind def
/d1 { setcachedevice } bind def
/cairo_data_source {
  CairoDataIndex CairoData length lt
    { CairoData CairoDataIndex get /CairoDataIndex CairoDataIndex 1 add def }
    { () } ifelse
} def
/cairo_flush_ascii85_file { cairo_ascii85_file status { cairo_ascii85_file flushfile } if } def
/cairo_image { image cairo_flush_ascii85_file } def
/cairo_imagemask { imagemask cairo_flush_ascii85_file } def
%%EndProlog
%%BeginSetup
%%EndSetup
%%Page: 1 1
%%BeginPageSetup
%%PageBoundingBox: 48 48 336 336
%%EndPageSetup
q 48 48 288 288 rectclip
1 0 0 -1 0 384 cm q
1 0.439216 0.262745 rg
324 192 m 324 264.902 264.902 324 192 324 c 119.098 324 60 264.902 60 192
 c 60 119.098 119.098 60 192 60 c 264.902 60 324 119.098 324 192 c h
324 192 m f
0.00392157 0.180392 0.321569 rg
175.699 73.141 m 186.266 71.629 197.73 71.629 208.301 73.141 c 208.883 
73.223 209.449 73.266 210.02 73.266 c 215.891 73.266 221.023 68.945 221.879
 62.965 c 222.816 56.398 218.258 50.32 211.703 49.387 c 198.883 47.562 185.117
 47.562 172.309 49.387 c 165.75 50.32 161.191 56.398 162.125 62.965 c 163.062
 69.523 169.152 74.094 175.699 73.141 c h
175.699 73.141 m f
257.461 63.715 m 251.555 60.695 244.332 63.043 241.312 68.934 c 238.301
 74.84 240.641 82.062 246.539 85.078 c 286.914 105.727 312 146.695 312 192
 c 312 258.168 258.168 312 192 312 c 125.832 312 72 258.168 72 192 c 72 
146.695 97.086 105.727 137.465 85.086 c 143.363 82.066 145.703 74.84 142.688
 68.941 c 139.668 63.035 132.434 60.703 126.539 63.719 c 78.098 88.48 48
 137.633 48 192 c 48 271.398 112.598 336 192 336 c 271.398 336 336 271.398
 336 192 c 336 137.633 305.902 88.48 257.461 63.715 c h
257.461 63.715 m f
135.516 219.516 m 130.828 224.203 130.828 231.797 135.516 236.484 c 183.516
 284.484 l 185.855 286.828 188.93 288 192 288 c 195.07 288 198.137 286.828
 200.484 284.484 c 248.484 236.484 l 253.172 231.797 253.172 224.203 248.484
 219.516 c 243.797 214.828 236.203 214.828 231.516 219.516 c 204 247.031
 l 204 108 l 204 101.375 198.625 96 192 96 c 185.375 96 180 101.375 180 
108 c 180 247.031 l 152.484 219.516 l 147.805 214.828 140.195 214.828 135.516
 219.516 c h
135.516 219.516 m f
Q Q
showpage
%%Trailer
end
%%EOF
