%!PS-Adobe-3.0 EPSF-3.0
%%Creator: cairo 1.16.0 (https://cairographics.org)
%%CreationDate: Wed Oct 16 08:09:47 2019
%%Pages: 1
%%DocumentData: Clean7Bit
%%LanguageLevel: 2
%%BoundingBox: 48 48 336 336
%%EndComments
%%BeginProlog
50 dict begin
/q { gsave } bind def
/Q { grestore } bind def
/cm { 6 array astore concat } bind def
/w { setlinewidth } bind def
/J { setlinecap } bind def
/j { setlinejoin } bind def
/M { setmiterlimit } bind def
/d { setdash } bind def
/m { moveto } bind def
/l { lineto } bind def
/c { curveto } bind def
/h { closepath } bind def
/re { exch dup neg 3 1 roll 5 3 roll moveto 0 rlineto
      0 exch rlineto 0 rlineto closepath } bind def
/S { stroke } bind def
/f { fill } bind def
/f* { eofill } bind def
/n { newpath } bind def
/W { clip } bind def
/W* { eoclip } bind def
/BT { } bind def
/ET { } bind def
/BDC { mark 3 1 roll /BDC pdfmark } bind def
/EMC { mark /EMC pdfmark } bind def
/cairo_store_point { /cairo_point_y exch def /cairo_point_x exch def } def
/Tj { show currentpoint cairo_store_point } bind def
/TJ {
  {
    dup
    type /stringtype eq
    { show } { -0.001 mul 0 cairo_font_matrix dtransform rmoveto } ifelse
  } forall
  currentpoint cairo_store_point
} bind def
/cairo_selectfont { cairo_font_matrix aload pop pop pop 0 0 6 array astore
    cairo_font exch selectfont cairo_point_x cairo_point_y moveto } bind def
/Tf { pop /cairo_font exch def /cairo_font_matrix where
      { pop cairo_selectfont } if } bind def
/Td { matrix translate cairo_font_matrix matrix concatmatrix dup
      /cairo_font_matrix exch def dup 4 get exch 5 get cairo_store_point
      /cairo_font where { pop cairo_selectfont } if } bind def
/Tm { 2 copy 8 2 roll 6 array astore /cairo_font_matrix exch def
      cairo_store_point /cairo_font where { pop cairo_selectfont } if } bind def
/g { setgray } bind def
/rg { setrgbcolor } bind def
/d1 { setcachedevice } bind def
/cairo_data_source {
  CairoDataIndex CairoData length lt
    { CairoData CairoDataIndex get /CairoDataIndex CairoDataIndex 1 add def }
    { () } ifelse
} def
/cairo_flush_ascii85_file { cairo_ascii85_file status { cairo_ascii85_file flushfile } if } def
/cairo_image { image cairo_flush_ascii85_file } def
/cairo_imagemask { imagemask cairo_flush_ascii85_file } def
%%EndProlog
%%BeginSetup
%%EndSetup
%%Page: 1 1
%%BeginPageSetup
%%PageBoundingBox: 48 48 336 336
%%EndPageSetup
q 48 48 288 288 rectclip
1 0 0 -1 0 384 cm q
0.301961 0.815686 0.882353 rg
324 192 m 324 264.902 264.902 324 192 324 c 119.098 324 60 264.902 60 192
 c 60 119.098 119.098 60 192 60 c 264.902 60 324 119.098 324 192 c h
324 192 m f
0.00392157 0.180392 0.321569 rg
135.395 165.629 m 130.77 170.383 130.879 177.977 135.629 182.598 c 175.004
 220.891 l 179.539 225.484 185.574 228.02 192 228.02 c 198.426 228.02 204.461
 225.484 208.828 221.062 c 248.371 182.605 l 253.121 177.984 253.23 170.387
 248.605 165.637 c 243.984 160.879 236.383 160.789 231.637 165.402 c 191.91
 203.863 l 152.371 165.402 l 147.625 160.781 140.016 160.879 135.395 165.629
 c h
135.395 165.629 m f
175.699 73.141 m 186.27 71.629 197.73 71.629 208.301 73.141 c 208.883 73.223
 209.449 73.266 210.02 73.266 c 215.891 73.266 221.023 68.945 221.879 62.965
 c 222.816 56.398 218.258 50.32 211.703 49.387 c 198.883 47.555 185.125 
47.555 172.309 49.387 c 165.75 50.32 161.191 56.398 162.133 62.965 c 163.062
 69.523 169.207 74.094 175.699 73.141 c h
175.699 73.141 m f
192 336 m 271.398 336 336 271.398 336 192 c 336 137.633 305.902 88.48 257.461
 63.715 c 251.555 60.695 244.332 63.043 241.312 68.934 c 238.301 74.84 240.641
 82.062 246.539 85.078 c 286.914 105.727 312 146.695 312 192 c 312 258.168
 258.168 312 192 312 c 125.832 312 72 258.168 72 192 c 72 146.695 97.086
 105.727 137.461 85.086 c 143.359 82.066 145.699 74.84 142.688 68.941 c 
139.668 63.047 132.445 60.703 126.539 63.719 c 78.098 88.48 48 137.633 48
 192 c 48 271.398 112.602 336 192 336 c h
192 336 m f
Q Q
showpage
%%Trailer
end
%%EOF
