%!PS-Adobe-3.0 EPSF-3.0
%%Creator: cairo 1.16.0 (https://cairographics.org)
%%CreationDate: Wed Oct 16 08:09:48 2019
%%Pages: 1
%%DocumentData: Clean7Bit
%%LanguageLevel: 2
%%BoundingBox: 48 48 336 336
%%EndComments
%%BeginProlog
50 dict begin
/q { gsave } bind def
/Q { grestore } bind def
/cm { 6 array astore concat } bind def
/w { setlinewidth } bind def
/J { setlinecap } bind def
/j { setlinejoin } bind def
/M { setmiterlimit } bind def
/d { setdash } bind def
/m { moveto } bind def
/l { lineto } bind def
/c { curveto } bind def
/h { closepath } bind def
/re { exch dup neg 3 1 roll 5 3 roll moveto 0 rlineto
      0 exch rlineto 0 rlineto closepath } bind def
/S { stroke } bind def
/f { fill } bind def
/f* { eofill } bind def
/n { newpath } bind def
/W { clip } bind def
/W* { eoclip } bind def
/BT { } bind def
/ET { } bind def
/BDC { mark 3 1 roll /BDC pdfmark } bind def
/EMC { mark /EMC pdfmark } bind def
/cairo_store_point { /cairo_point_y exch def /cairo_point_x exch def } def
/Tj { show currentpoint cairo_store_point } bind def
/TJ {
  {
    dup
    type /stringtype eq
    { show } { -0.001 mul 0 cairo_font_matrix dtransform rmoveto } ifelse
  } forall
  currentpoint cairo_store_point
} bind def
/cairo_selectfont { cairo_font_matrix aload pop pop pop 0 0 6 array astore
    cairo_font exch selectfont cairo_point_x cairo_point_y moveto } bind def
/Tf { pop /cairo_font exch def /cairo_font_matrix where
      { pop cairo_selectfont } if } bind def
/Td { matrix translate cairo_font_matrix matrix concatmatrix dup
      /cairo_font_matrix exch def dup 4 get exch 5 get cairo_store_point
      /cairo_font where { pop cairo_selectfont } if } bind def
/Tm { 2 copy 8 2 roll 6 array astore /cairo_font_matrix exch def
      cairo_store_point /cairo_font where { pop cairo_selectfont } if } bind def
/g { setgray } bind def
/rg { setrgbcolor } bind def
/d1 { setcachedevice } bind def
/cairo_data_source {
  CairoDataIndex CairoData length lt
    { CairoData CairoDataIndex get /CairoDataIndex CairoDataIndex 1 add def }
    { () } ifelse
} def
/cairo_flush_ascii85_file { cairo_ascii85_file status { cairo_ascii85_file flushfile } if } def
/cairo_image { image cairo_flush_ascii85_file } def
/cairo_imagemask { imagemask cairo_flush_ascii85_file } def
%%EndProlog
%%BeginSetup
%%EndSetup
%%Page: 1 1
%%BeginPageSetup
%%PageBoundingBox: 48 48 336 336
%%EndPageSetup
q 48 48 288 288 rectclip
1 0 0 -1 0 384 cm q
0.301961 0.815686 0.882353 rg
96 60 m 288 60 l 307.883 60 324 76.117 324 96 c 324 288 l 324 307.883 307.883
 324 288 324 c 96 324 l 76.117 324 60 307.883 60 288 c 60 96 l 60 76.117
 76.117 60 96 60 c h
96 60 m f
0.00392157 0.180392 0.321569 rg
96 336 m 288 336 l 314.465 336 336 314.465 336 288 c 336 240 l 336 233.375
 330.625 228 324 228 c 317.375 228 312 233.375 312 240 c 312 288 l 312 301.234
 301.234 312 288 312 c 96 312 l 82.766 312 72 301.234 72 288 c 72 96 l 72
 82.766 82.766 72 96 72 c 288 72 l 301.234 72 312 82.766 312 96 c 312 144
 l 312 150.625 317.375 156 324 156 c 330.625 156 336 150.625 336 144 c 336
 96 l 336 69.535 314.465 48 288 48 c 96 48 l 69.535 48 48 69.535 48 96 c
 48 288 l 48 314.465 69.535 336 96 336 c h
96 336 m f
288 192 m 288 185.375 282.625 180 276 180 c 136.969 180 l 164.484 152.484
 l 169.172 147.797 169.172 140.203 164.484 135.516 c 159.797 130.828 152.203
 130.828 147.516 135.516 c 99.516 183.516 l 94.828 188.203 94.828 195.797
 99.516 200.484 c 147.516 248.484 l 149.863 250.828 152.93 252 156 252 c
 159.07 252 162.137 250.828 164.484 248.484 c 169.172 243.797 169.172 236.203
 164.484 231.516 c 136.969 204 l 276 204 l 282.625 204 288 198.625 288 192
 c h
288 192 m f
Q Q
showpage
%%Trailer
end
%%EOF
