%!PS-Adobe-3.0 EPSF-3.0
%%Creator: cairo 1.16.0 (https://cairographics.org)
%%CreationDate: Wed Oct 16 08:09:48 2019
%%Pages: 1
%%DocumentData: Clean7Bit
%%LanguageLevel: 2
%%BoundingBox: 108 48 276 336
%%EndComments
%%BeginProlog
50 dict begin
/q { gsave } bind def
/Q { grestore } bind def
/cm { 6 array astore concat } bind def
/w { setlinewidth } bind def
/J { setlinecap } bind def
/j { setlinejoin } bind def
/M { setmiterlimit } bind def
/d { setdash } bind def
/m { moveto } bind def
/l { lineto } bind def
/c { curveto } bind def
/h { closepath } bind def
/re { exch dup neg 3 1 roll 5 3 roll moveto 0 rlineto
      0 exch rlineto 0 rlineto closepath } bind def
/S { stroke } bind def
/f { fill } bind def
/f* { eofill } bind def
/n { newpath } bind def
/W { clip } bind def
/W* { eoclip } bind def
/BT { } bind def
/ET { } bind def
/BDC { mark 3 1 roll /BDC pdfmark } bind def
/EMC { mark /EMC pdfmark } bind def
/cairo_store_point { /cairo_point_y exch def /cairo_point_x exch def } def
/Tj { show currentpoint cairo_store_point } bind def
/TJ {
  {
    dup
    type /stringtype eq
    { show } { -0.001 mul 0 cairo_font_matrix dtransform rmoveto } ifelse
  } forall
  currentpoint cairo_store_point
} bind def
/cairo_selectfont { cairo_font_matrix aload pop pop pop 0 0 6 array astore
    cairo_font exch selectfont cairo_point_x cairo_point_y moveto } bind def
/Tf { pop /cairo_font exch def /cairo_font_matrix where
      { pop cairo_selectfont } if } bind def
/Td { matrix translate cairo_font_matrix matrix concatmatrix dup
      /cairo_font_matrix exch def dup 4 get exch 5 get cairo_store_point
      /cairo_font where { pop cairo_selectfont } if } bind def
/Tm { 2 copy 8 2 roll 6 array astore /cairo_font_matrix exch def
      cairo_store_point /cairo_font where { pop cairo_selectfont } if } bind def
/g { setgray } bind def
/rg { setrgbcolor } bind def
/d1 { setcachedevice } bind def
/cairo_data_source {
  CairoDataIndex CairoData length lt
    { CairoData CairoDataIndex get /CairoDataIndex CairoDataIndex 1 add def }
    { () } ifelse
} def
/cairo_flush_ascii85_file { cairo_ascii85_file status { cairo_ascii85_file flushfile } if } def
/cairo_image { image cairo_flush_ascii85_file } def
/cairo_imagemask { imagemask cairo_flush_ascii85_file } def
%%EndProlog
%%BeginSetup
%%EndSetup
%%Page: 1 1
%%BeginPageSetup
%%PageBoundingBox: 108 48 276 336
%%EndPageSetup
q 108 48 168 288 rectclip
1 0 0 -1 0 384 cm q
1 0.439216 0.262745 rg
264 72 m 264 312 l 264 322.68 251.102 328.02 243.539 320.461 c 122.941 
198 l 119.039 193.5 119.039 186.781 122.941 182.281 c 243.539 63.539 l 251.102
 55.98 264 61.32 264 72 c h
264 72 m f
0.00392157 0.180392 0.321569 rg
114.391 206.418 m 235.051 328.945 l 239.656 333.547 245.766 335.988 252
 335.988 c 255.098 335.988 258.215 335.387 261.203 334.152 c 270.191 330.426
 276 321.73 276 312 c 276 72 l 276 62.27 270.191 53.574 261.203 49.848 c
 252.203 46.129 241.949 48.168 235.117 54.988 c 114.516 173.73 l 114.293
 173.953 114.078 174.18 113.867 174.422 c 106.098 183.383 106.098 196.902
 113.867 205.867 c 114.043 206.051 114.215 206.238 114.391 206.418 c h
251.992 71.887 m 251.992 71.887 252 71.922 252 72 c 252.09 312.043 l 132.055
 190.145 l h
251.992 71.887 m f
Q Q
showpage
%%Trailer
end
%%EOF
