%!PS-Adobe-3.0 EPSF-3.0
%%Creator: cairo 1.16.0 (https://cairographics.org)
%%CreationDate: Wed Oct 16 08:09:49 2019
%%Pages: 1
%%DocumentData: Clean7Bit
%%LanguageLevel: 2
%%BoundingBox: 48 48 336 336
%%EndComments
%%BeginProlog
50 dict begin
/q { gsave } bind def
/Q { grestore } bind def
/cm { 6 array astore concat } bind def
/w { setlinewidth } bind def
/J { setlinecap } bind def
/j { setlinejoin } bind def
/M { setmiterlimit } bind def
/d { setdash } bind def
/m { moveto } bind def
/l { lineto } bind def
/c { curveto } bind def
/h { closepath } bind def
/re { exch dup neg 3 1 roll 5 3 roll moveto 0 rlineto
      0 exch rlineto 0 rlineto closepath } bind def
/S { stroke } bind def
/f { fill } bind def
/f* { eofill } bind def
/n { newpath } bind def
/W { clip } bind def
/W* { eoclip } bind def
/BT { } bind def
/ET { } bind def
/BDC { mark 3 1 roll /BDC pdfmark } bind def
/EMC { mark /EMC pdfmark } bind def
/cairo_store_point { /cairo_point_y exch def /cairo_point_x exch def } def
/Tj { show currentpoint cairo_store_point } bind def
/TJ {
  {
    dup
    type /stringtype eq
    { show } { -0.001 mul 0 cairo_font_matrix dtransform rmoveto } ifelse
  } forall
  currentpoint cairo_store_point
} bind def
/cairo_selectfont { cairo_font_matrix aload pop pop pop 0 0 6 array astore
    cairo_font exch selectfont cairo_point_x cairo_point_y moveto } bind def
/Tf { pop /cairo_font exch def /cairo_font_matrix where
      { pop cairo_selectfont } if } bind def
/Td { matrix translate cairo_font_matrix matrix concatmatrix dup
      /cairo_font_matrix exch def dup 4 get exch 5 get cairo_store_point
      /cairo_font where { pop cairo_selectfont } if } bind def
/Tm { 2 copy 8 2 roll 6 array astore /cairo_font_matrix exch def
      cairo_store_point /cairo_font where { pop cairo_selectfont } if } bind def
/g { setgray } bind def
/rg { setrgbcolor } bind def
/d1 { setcachedevice } bind def
/cairo_data_source {
  CairoDataIndex CairoData length lt
    { CairoData CairoDataIndex get /CairoDataIndex CairoDataIndex 1 add def }
    { () } ifelse
} def
/cairo_flush_ascii85_file { cairo_ascii85_file status { cairo_ascii85_file flushfile } if } def
/cairo_image { image cairo_flush_ascii85_file } def
/cairo_imagemask { imagemask cairo_flush_ascii85_file } def
%%EndProlog
%%BeginSetup
%%EndSetup
%%Page: 1 1
%%BeginPageSetup
%%PageBoundingBox: 48 48 336 336
%%EndPageSetup
q 48 48 288 288 rectclip
1 0 0 -1 0 384 cm q
0.301961 0.815686 0.882353 rg
324 192 m 324 264.902 264.902 324 192 324 c 119.098 324 60 264.902 60 192
 c 60 119.098 119.098 60 192 60 c 264.902 60 324 119.098 324 192 c h
324 192 m f
0.00392157 0.180392 0.321569 rg
218.375 135.402 m 213.629 130.777 206.023 130.879 201.406 135.625 c 163.004
 175.051 l 153.652 184.391 153.652 199.598 162.887 208.828 c 201.406 248.371
 l 203.754 250.789 206.875 252 210 252 c 213.02 252 216.043 250.871 218.375
 248.598 c 223.121 243.973 223.223 236.375 218.598 231.629 c 180.078 191.914
 l 218.598 152.375 l 223.219 147.625 223.121 140.027 218.375 135.402 c h
218.375 135.402 m f
321.047 162.121 m 314.484 163.055 309.926 169.129 310.859 175.691 c 311.621
 181.004 312 186.484 312 192 c 312 197.516 311.621 202.996 310.859 208.309
 c 309.93 214.871 314.484 220.945 321.047 221.879 c 321.625 221.965 322.188
 222 322.758 222 c 328.633 222 333.77 217.676 334.625 211.691 c 335.539 
205.266 336 198.641 336 192 c 336 185.359 335.539 178.734 334.625 172.309
 c 333.68 165.742 327.559 161.191 321.047 162.121 c h
321.047 162.121 m f
192 336 m 246.367 336 295.52 305.902 320.285 257.461 c 323.297 251.562 
320.957 244.332 315.059 241.312 c 309.16 238.297 301.934 240.641 298.914
 246.539 c 278.273 286.914 237.305 312 192 312 c 125.832 312 72 258.168 
72 192 c 72 125.832 125.832 72 192 72 c 237.305 72 278.273 97.086 298.906
 137.461 c 301.926 143.359 309.156 145.703 315.055 142.688 c 320.953 139.668
 323.293 132.438 320.281 126.539 c 295.52 78.098 246.367 48 192 48 c 112.602
 48 48 112.598 48 192 c 48 271.402 112.602 336 192 336 c h
192 336 m f
Q Q
showpage
%%Trailer
end
%%EOF
