%!PS-Adobe-3.0 EPSF-3.0
%%Creator: cairo 1.16.0 (https://cairographics.org)
%%CreationDate: Wed Oct 16 08:09:49 2019
%%Pages: 1
%%DocumentData: Clean7Bit
%%LanguageLevel: 2
%%BoundingBox: 48 48 336 336
%%EndComments
%%BeginProlog
50 dict begin
/q { gsave } bind def
/Q { grestore } bind def
/cm { 6 array astore concat } bind def
/w { setlinewidth } bind def
/J { setlinecap } bind def
/j { setlinejoin } bind def
/M { setmiterlimit } bind def
/d { setdash } bind def
/m { moveto } bind def
/l { lineto } bind def
/c { curveto } bind def
/h { closepath } bind def
/re { exch dup neg 3 1 roll 5 3 roll moveto 0 rlineto
      0 exch rlineto 0 rlineto closepath } bind def
/S { stroke } bind def
/f { fill } bind def
/f* { eofill } bind def
/n { newpath } bind def
/W { clip } bind def
/W* { eoclip } bind def
/BT { } bind def
/ET { } bind def
/BDC { mark 3 1 roll /BDC pdfmark } bind def
/EMC { mark /EMC pdfmark } bind def
/cairo_store_point { /cairo_point_y exch def /cairo_point_x exch def } def
/Tj { show currentpoint cairo_store_point } bind def
/TJ {
  {
    dup
    type /stringtype eq
    { show } { -0.001 mul 0 cairo_font_matrix dtransform rmoveto } ifelse
  } forall
  currentpoint cairo_store_point
} bind def
/cairo_selectfont { cairo_font_matrix aload pop pop pop 0 0 6 array astore
    cairo_font exch selectfont cairo_point_x cairo_point_y moveto } bind def
/Tf { pop /cairo_font exch def /cairo_font_matrix where
      { pop cairo_selectfont } if } bind def
/Td { matrix translate cairo_font_matrix matrix concatmatrix dup
      /cairo_font_matrix exch def dup 4 get exch 5 get cairo_store_point
      /cairo_font where { pop cairo_selectfont } if } bind def
/Tm { 2 copy 8 2 roll 6 array astore /cairo_font_matrix exch def
      cairo_store_point /cairo_font where { pop cairo_selectfont } if } bind def
/g { setgray } bind def
/rg { setrgbcolor } bind def
/d1 { setcachedevice } bind def
/cairo_data_source {
  CairoDataIndex CairoData length lt
    { CairoData CairoDataIndex get /CairoDataIndex CairoDataIndex 1 add def }
    { () } ifelse
} def
/cairo_flush_ascii85_file { cairo_ascii85_file status { cairo_ascii85_file flushfile } if } def
/cairo_image { image cairo_flush_ascii85_file } def
/cairo_imagemask { imagemask cairo_flush_ascii85_file } def
%%EndProlog
%%BeginSetup
%%EndSetup
%%Page: 1 1
%%BeginPageSetup
%%PageBoundingBox: 48 48 336 336
%%EndPageSetup
q 48 48 288 288 rectclip
1 0 0 -1 0 384 cm q
1 0.439216 0.262745 rg
324 192 m 324 264.902 264.902 324 192 324 c 119.098 324 60 264.902 60 192
 c 60 119.098 119.098 60 192 60 c 264.902 60 324 119.098 324 192 c h
324 192 m f
0.00392157 0.180392 0.321569 rg
321.047 162.121 m 314.484 163.055 309.926 169.129 310.859 175.691 c 311.621
 181.004 312 186.484 312 192 c 312 197.508 311.621 202.996 310.859 208.309
 c 309.93 214.871 314.484 220.945 321.047 221.887 c 321.625 221.965 322.188
 222.008 322.758 222.008 c 328.633 222.008 333.77 217.688 334.625 211.699
 c 335.539 205.266 336 198.637 336 192 c 336 185.359 335.539 178.734 334.625
 172.309 c 333.684 165.742 327.547 161.18 321.047 162.121 c h
321.047 162.121 m f
315.059 142.688 m 320.957 139.668 323.297 132.438 320.285 126.539 c 295.52
 78.098 246.367 48 192 48 c 112.602 48 48 112.598 48 192 c 48 271.398 112.602
 336 192 336 c 246.367 336 295.52 305.902 320.285 257.461 c 323.297 251.562
 320.957 244.332 315.059 241.312 c 309.16 238.309 301.934 240.641 298.914
 246.539 c 278.273 286.914 237.305 312 192 312 c 125.832 312 72 258.168 
72 192 c 72 125.832 125.832 72 192 72 c 237.305 72 278.273 97.086 298.906
 137.461 c 301.926 143.363 309.156 145.703 315.059 142.688 c h
315.059 142.688 m f
288 192 m 288 185.375 282.625 180 276 180 c 136.969 180 l 164.484 152.484
 l 169.172 147.797 169.172 140.203 164.484 135.516 c 159.797 130.828 152.203
 130.828 147.516 135.516 c 99.516 183.516 l 94.828 188.203 94.828 195.797
 99.516 200.484 c 147.516 248.484 l 149.863 250.828 152.93 252 156 252 c
 159.07 252 162.137 250.828 164.484 248.484 c 169.172 243.797 169.172 236.203
 164.484 231.516 c 136.969 204 l 276 204 l 282.625 204 288 198.625 288 192
 c h
288 192 m f
Q Q
showpage
%%Trailer
end
%%EOF
