%!PS-Adobe-3.0 EPSF-3.0
%%Creator: cairo 1.16.0 (https://cairographics.org)
%%CreationDate: Wed Oct 16 08:09:51 2019
%%Pages: 1
%%DocumentData: Clean7Bit
%%LanguageLevel: 2
%%BoundingBox: 48 48 336 336
%%EndComments
%%BeginProlog
50 dict begin
/q { gsave } bind def
/Q { grestore } bind def
/cm { 6 array astore concat } bind def
/w { setlinewidth } bind def
/J { setlinecap } bind def
/j { setlinejoin } bind def
/M { setmiterlimit } bind def
/d { setdash } bind def
/m { moveto } bind def
/l { lineto } bind def
/c { curveto } bind def
/h { closepath } bind def
/re { exch dup neg 3 1 roll 5 3 roll moveto 0 rlineto
      0 exch rlineto 0 rlineto closepath } bind def
/S { stroke } bind def
/f { fill } bind def
/f* { eofill } bind def
/n { newpath } bind def
/W { clip } bind def
/W* { eoclip } bind def
/BT { } bind def
/ET { } bind def
/BDC { mark 3 1 roll /BDC pdfmark } bind def
/EMC { mark /EMC pdfmark } bind def
/cairo_store_point { /cairo_point_y exch def /cairo_point_x exch def } def
/Tj { show currentpoint cairo_store_point } bind def
/TJ {
  {
    dup
    type /stringtype eq
    { show } { -0.001 mul 0 cairo_font_matrix dtransform rmoveto } ifelse
  } forall
  currentpoint cairo_store_point
} bind def
/cairo_selectfont { cairo_font_matrix aload pop pop pop 0 0 6 array astore
    cairo_font exch selectfont cairo_point_x cairo_point_y moveto } bind def
/Tf { pop /cairo_font exch def /cairo_font_matrix where
      { pop cairo_selectfont } if } bind def
/Td { matrix translate cairo_font_matrix matrix concatmatrix dup
      /cairo_font_matrix exch def dup 4 get exch 5 get cairo_store_point
      /cairo_font where { pop cairo_selectfont } if } bind def
/Tm { 2 copy 8 2 roll 6 array astore /cairo_font_matrix exch def
      cairo_store_point /cairo_font where { pop cairo_selectfont } if } bind def
/g { setgray } bind def
/rg { setrgbcolor } bind def
/d1 { setcachedevice } bind def
/cairo_data_source {
  CairoDataIndex CairoData length lt
    { CairoData CairoDataIndex get /CairoDataIndex CairoDataIndex 1 add def }
    { () } ifelse
} def
/cairo_flush_ascii85_file { cairo_ascii85_file status { cairo_ascii85_file flushfile } if } def
/cairo_image { image cairo_flush_ascii85_file } def
/cairo_imagemask { imagemask cairo_flush_ascii85_file } def
%%EndProlog
%%BeginSetup
%%EndSetup
%%Page: 1 1
%%BeginPageSetup
%%PageBoundingBox: 48 48 336 336
%%EndPageSetup
q 48 48 288 288 rectclip
1 0 0 -1 0 384 cm q
1 0.439216 0.262745 rg
324 192 m 324 264.902 264.902 324 192 324 c 119.098 324 60 264.902 60 192
 c 60 119.098 119.098 60 192 60 c 264.902 60 324 119.098 324 192 c h
324 192 m f
0.00392157 0.180392 0.321569 rg
61.242 222 m 61.812 222 62.375 221.957 62.953 221.879 c 69.516 220.945 
74.074 214.867 73.141 208.301 c 72.379 202.996 72 197.508 72 192 c 72 186.484
 72.379 181.004 73.141 175.691 c 74.07 169.129 69.516 163.055 62.953 162.121
 c 56.461 161.203 50.316 165.742 49.375 172.309 c 48.461 178.734 48 185.359
 48 192 c 48 198.637 48.461 205.266 49.375 211.691 c 50.23 217.68 55.367
 222 61.242 222 c h
61.242 222 m f
68.941 241.312 m 63.043 244.332 60.703 251.562 63.715 257.461 c 88.48 305.902
 137.633 336 192 336 c 271.398 336 336 271.398 336 192 c 336 112.598 271.398
 48 192 48 c 137.633 48 88.48 78.098 63.715 126.539 c 60.703 132.438 63.043
 139.668 68.941 142.688 c 74.844 145.703 82.066 143.363 85.086 137.461 c
 105.727 97.086 146.695 72 192 72 c 258.168 72 312 125.832 312 192 c 312
 258.168 258.168 312 192 312 c 146.695 312 105.727 286.914 85.094 246.539
 c 82.074 240.637 74.852 238.309 68.941 241.312 c h
68.941 241.312 m f
96 192 m 96 198.625 101.375 204 108 204 c 247.031 204 l 219.516 231.516
 l 214.828 236.203 214.828 243.797 219.516 248.484 c 221.863 250.828 224.93
 252 228 252 c 231.07 252 234.137 250.828 236.484 248.484 c 284.484 200.484
 l 289.172 195.797 289.172 188.203 284.484 183.516 c 236.484 135.516 l 231.797
 130.828 224.203 130.828 219.516 135.516 c 214.828 140.203 214.828 147.797
 219.516 152.484 c 247.031 180 l 108 180 l 101.375 180 96 185.375 96 192
 c h
96 192 m f
Q Q
showpage
%%Trailer
end
%%EOF
