%!PS-Adobe-3.0 EPSF-3.0
%%Creator: cairo 1.16.0 (https://cairographics.org)
%%CreationDate: Wed Oct 16 08:09:56 2019
%%Pages: 1
%%DocumentData: Clean7Bit
%%LanguageLevel: 2
%%BoundingBox: 48 48 336 336
%%EndComments
%%BeginProlog
50 dict begin
/q { gsave } bind def
/Q { grestore } bind def
/cm { 6 array astore concat } bind def
/w { setlinewidth } bind def
/J { setlinecap } bind def
/j { setlinejoin } bind def
/M { setmiterlimit } bind def
/d { setdash } bind def
/m { moveto } bind def
/l { lineto } bind def
/c { curveto } bind def
/h { closepath } bind def
/re { exch dup neg 3 1 roll 5 3 roll moveto 0 rlineto
      0 exch rlineto 0 rlineto closepath } bind def
/S { stroke } bind def
/f { fill } bind def
/f* { eofill } bind def
/n { newpath } bind def
/W { clip } bind def
/W* { eoclip } bind def
/BT { } bind def
/ET { } bind def
/BDC { mark 3 1 roll /BDC pdfmark } bind def
/EMC { mark /EMC pdfmark } bind def
/cairo_store_point { /cairo_point_y exch def /cairo_point_x exch def } def
/Tj { show currentpoint cairo_store_point } bind def
/TJ {
  {
    dup
    type /stringtype eq
    { show } { -0.001 mul 0 cairo_font_matrix dtransform rmoveto } ifelse
  } forall
  currentpoint cairo_store_point
} bind def
/cairo_selectfont { cairo_font_matrix aload pop pop pop 0 0 6 array astore
    cairo_font exch selectfont cairo_point_x cairo_point_y moveto } bind def
/Tf { pop /cairo_font exch def /cairo_font_matrix where
      { pop cairo_selectfont } if } bind def
/Td { matrix translate cairo_font_matrix matrix concatmatrix dup
      /cairo_font_matrix exch def dup 4 get exch 5 get cairo_store_point
      /cairo_font where { pop cairo_selectfont } if } bind def
/Tm { 2 copy 8 2 roll 6 array astore /cairo_font_matrix exch def
      cairo_store_point /cairo_font where { pop cairo_selectfont } if } bind def
/g { setgray } bind def
/rg { setrgbcolor } bind def
/d1 { setcachedevice } bind def
/cairo_data_source {
  CairoDataIndex CairoData length lt
    { CairoData CairoDataIndex get /CairoDataIndex CairoDataIndex 1 add def }
    { () } ifelse
} def
/cairo_flush_ascii85_file { cairo_ascii85_file status { cairo_ascii85_file flushfile } if } def
/cairo_image { image cairo_flush_ascii85_file } def
/cairo_imagemask { imagemask cairo_flush_ascii85_file } def
%%EndProlog
%%BeginSetup
%%EndSetup
%%Page: 1 1
%%BeginPageSetup
%%PageBoundingBox: 48 48 336 336
%%EndPageSetup
q 48 48 288 288 rectclip
1 0 0 -1 0 384 cm q
0.301961 0.815686 0.882353 rg
324 192 m 324 264.902 264.902 324 192 324 c 119.098 324 60 264.902 60 192
 c 60 119.098 119.098 60 192 60 c 264.902 60 324 119.098 324 192 c h
324 192 m f
0.00392157 0.180392 0.321569 rg
165.629 248.605 m 167.965 250.871 170.98 252 174 252 c 177.125 252 180.254
 250.781 182.605 248.371 c 220.895 208.996 l 225.492 204.461 228.023 198.414
 228.023 191.965 c 228.023 185.52 225.492 179.473 221.062 175.105 c 182.605
 135.625 l 177.973 130.871 170.375 130.777 165.637 135.402 c 160.883 140.027
 160.789 147.625 165.414 152.371 c 203.867 192.09 l 165.406 231.629 l 160.777
 236.383 160.879 243.984 165.629 248.605 c h
165.629 248.605 m f
61.246 222 m 61.812 222 62.383 221.957 62.965 221.875 c 69.523 220.938 
74.082 214.859 73.145 208.297 c 72.383 203.016 72 197.531 72 192 c 72 186.469
 72.383 180.984 73.141 175.699 c 74.074 169.133 69.516 163.055 62.957 162.121
 c 56.387 161.191 50.316 165.738 49.379 172.301 c 48.469 178.711 48 185.336
 48 192 c 48 198.664 48.469 205.289 49.379 211.699 c 50.238 217.688 55.375
 222 61.246 222 c h
61.246 222 m f
192 48 m 137.633 48 88.48 78.098 63.715 126.535 c 60.695 132.438 63.035
 139.66 68.934 142.68 c 74.84 145.688 82.062 143.359 85.078 137.461 c 105.727
 97.086 146.695 72 192 72 c 258.168 72 312 125.832 312 192 c 312 258.168
 258.168 312 192 312 c 146.695 312 105.727 286.914 85.086 246.535 c 82.066
 240.629 74.832 238.297 68.941 241.312 c 63.043 244.332 60.703 251.562 63.719
 257.461 c 88.48 305.902 137.633 336 192 336 c 271.398 336 336 271.402 336
 192 c 336 112.598 271.398 48 192 48 c h
192 48 m f
Q Q
showpage
%%Trailer
end
%%EOF
