%!PS-Adobe-3.0 EPSF-3.0
%%Creator: cairo 1.16.0 (https://cairographics.org)
%%CreationDate: Wed Oct 16 08:09:58 2019
%%Pages: 1
%%DocumentData: Clean7Bit
%%LanguageLevel: 2
%%BoundingBox: 48 48 336 336
%%EndComments
%%BeginProlog
50 dict begin
/q { gsave } bind def
/Q { grestore } bind def
/cm { 6 array astore concat } bind def
/w { setlinewidth } bind def
/J { setlinecap } bind def
/j { setlinejoin } bind def
/M { setmiterlimit } bind def
/d { setdash } bind def
/m { moveto } bind def
/l { lineto } bind def
/c { curveto } bind def
/h { closepath } bind def
/re { exch dup neg 3 1 roll 5 3 roll moveto 0 rlineto
      0 exch rlineto 0 rlineto closepath } bind def
/S { stroke } bind def
/f { fill } bind def
/f* { eofill } bind def
/n { newpath } bind def
/W { clip } bind def
/W* { eoclip } bind def
/BT { } bind def
/ET { } bind def
/BDC { mark 3 1 roll /BDC pdfmark } bind def
/EMC { mark /EMC pdfmark } bind def
/cairo_store_point { /cairo_point_y exch def /cairo_point_x exch def } def
/Tj { show currentpoint cairo_store_point } bind def
/TJ {
  {
    dup
    type /stringtype eq
    { show } { -0.001 mul 0 cairo_font_matrix dtransform rmoveto } ifelse
  } forall
  currentpoint cairo_store_point
} bind def
/cairo_selectfont { cairo_font_matrix aload pop pop pop 0 0 6 array astore
    cairo_font exch selectfont cairo_point_x cairo_point_y moveto } bind def
/Tf { pop /cairo_font exch def /cairo_font_matrix where
      { pop cairo_selectfont } if } bind def
/Td { matrix translate cairo_font_matrix matrix concatmatrix dup
      /cairo_font_matrix exch def dup 4 get exch 5 get cairo_store_point
      /cairo_font where { pop cairo_selectfont } if } bind def
/Tm { 2 copy 8 2 roll 6 array astore /cairo_font_matrix exch def
      cairo_store_point /cairo_font where { pop cairo_selectfont } if } bind def
/g { setgray } bind def
/rg { setrgbcolor } bind def
/d1 { setcachedevice } bind def
/cairo_data_source {
  CairoDataIndex CairoData length lt
    { CairoData CairoDataIndex get /CairoDataIndex CairoDataIndex 1 add def }
    { () } ifelse
} def
/cairo_flush_ascii85_file { cairo_ascii85_file status { cairo_ascii85_file flushfile } if } def
/cairo_image { image cairo_flush_ascii85_file } def
/cairo_imagemask { imagemask cairo_flush_ascii85_file } def
%%EndProlog
%%BeginSetup
%%EndSetup
%%Page: 1 1
%%BeginPageSetup
%%PageBoundingBox: 48 48 336 336
%%EndPageSetup
q 48 48 288 288 rectclip
1 0 0 -1 0 384 cm q
1 0.439216 0.262745 rg
324 192 m 324 264.902 264.902 324 192 324 c 119.098 324 60 264.902 60 192
 c 60 119.098 119.098 60 192 60 c 264.902 60 324 119.098 324 192 c h
324 192 m f
0.00392157 0.180392 0.321569 rg
208.309 310.859 m 197.695 312.383 186.305 312.383 175.691 310.859 c 169.121
 309.988 163.055 314.484 162.121 321.047 c 161.184 327.613 165.742 333.684
 172.309 334.625 c 178.734 335.539 185.359 336 192 336 c 198.641 336 205.266
 335.539 211.691 334.625 c 218.25 333.691 222.816 327.613 221.879 321.047
 c 220.945 314.488 214.871 309.996 208.309 310.859 c h
208.309 310.859 m f
192 48 m 112.598 48 48 112.602 48 192 c 48 246.367 78.098 295.52 126.539
 320.285 c 132.426 323.285 139.668 320.965 142.688 315.059 c 145.703 309.16
 143.363 301.934 137.461 298.914 c 97.086 278.273 72 237.305 72 192 c 72
 125.832 125.832 72 192 72 c 258.168 72 312 125.832 312 192 c 312 237.305
 286.914 278.273 246.539 298.906 c 240.637 301.926 238.297 309.156 241.312
 315.055 c 243.438 319.207 247.645 321.594 252.008 321.594 c 253.848 321.594
 255.707 321.176 257.461 320.281 c 305.902 295.52 336 246.367 336 192 c 
336 112.602 271.402 48 192 48 c h
192 48 m f
240 168 m 243.07 168 246.145 166.828 248.484 164.484 c 253.172 159.797 
253.172 152.203 248.484 147.516 c 200.484 99.516 l 195.805 94.828 188.195
 94.828 183.516 99.516 c 135.516 147.516 l 130.828 152.203 130.828 159.797
 135.516 164.484 c 140.195 169.172 147.805 169.172 152.484 164.484 c 180
 136.969 l 180 276 l 180 282.625 185.375 288 192 288 c 198.625 288 204 282.625
 204 276 c 204 136.969 l 231.516 164.484 l 233.855 166.828 236.93 168 240
 168 c h
240 168 m f
Q Q
showpage
%%Trailer
end
%%EOF
