%!PS-Adobe-3.0 EPSF-3.0
%%Creator: cairo 1.16.0 (https://cairographics.org)
%%CreationDate: Wed Oct 16 08:09:59 2019
%%Pages: 1
%%DocumentData: Clean7Bit
%%LanguageLevel: 2
%%BoundingBox: 48 48 336 336
%%EndComments
%%BeginProlog
50 dict begin
/q { gsave } bind def
/Q { grestore } bind def
/cm { 6 array astore concat } bind def
/w { setlinewidth } bind def
/J { setlinecap } bind def
/j { setlinejoin } bind def
/M { setmiterlimit } bind def
/d { setdash } bind def
/m { moveto } bind def
/l { lineto } bind def
/c { curveto } bind def
/h { closepath } bind def
/re { exch dup neg 3 1 roll 5 3 roll moveto 0 rlineto
      0 exch rlineto 0 rlineto closepath } bind def
/S { stroke } bind def
/f { fill } bind def
/f* { eofill } bind def
/n { newpath } bind def
/W { clip } bind def
/W* { eoclip } bind def
/BT { } bind def
/ET { } bind def
/BDC { mark 3 1 roll /BDC pdfmark } bind def
/EMC { mark /EMC pdfmark } bind def
/cairo_store_point { /cairo_point_y exch def /cairo_point_x exch def } def
/Tj { show currentpoint cairo_store_point } bind def
/TJ {
  {
    dup
    type /stringtype eq
    { show } { -0.001 mul 0 cairo_font_matrix dtransform rmoveto } ifelse
  } forall
  currentpoint cairo_store_point
} bind def
/cairo_selectfont { cairo_font_matrix aload pop pop pop 0 0 6 array astore
    cairo_font exch selectfont cairo_point_x cairo_point_y moveto } bind def
/Tf { pop /cairo_font exch def /cairo_font_matrix where
      { pop cairo_selectfont } if } bind def
/Td { matrix translate cairo_font_matrix matrix concatmatrix dup
      /cairo_font_matrix exch def dup 4 get exch 5 get cairo_store_point
      /cairo_font where { pop cairo_selectfont } if } bind def
/Tm { 2 copy 8 2 roll 6 array astore /cairo_font_matrix exch def
      cairo_store_point /cairo_font where { pop cairo_selectfont } if } bind def
/g { setgray } bind def
/rg { setrgbcolor } bind def
/d1 { setcachedevice } bind def
/cairo_data_source {
  CairoDataIndex CairoData length lt
    { CairoData CairoDataIndex get /CairoDataIndex CairoDataIndex 1 add def }
    { () } ifelse
} def
/cairo_flush_ascii85_file { cairo_ascii85_file status { cairo_ascii85_file flushfile } if } def
/cairo_image { image cairo_flush_ascii85_file } def
/cairo_imagemask { imagemask cairo_flush_ascii85_file } def
%%EndProlog
%%BeginSetup
%%EndSetup
%%Page: 1 1
%%BeginPageSetup
%%PageBoundingBox: 48 48 336 336
%%EndPageSetup
q 48 48 288 288 rectclip
1 0 0 -1 0 384 cm q
0.301961 0.815686 0.882353 rg
324 192 m 324 264.902 264.902 324 192 324 c 119.098 324 60 264.902 60 192
 c 60 119.098 119.098 60 192 60 c 264.902 60 324 119.098 324 192 c h
324 192 m f
0.00392157 0.180392 0.321569 rg
240 222 m 243.125 222 246.246 220.789 248.598 218.375 c 253.223 213.629
 253.121 206.035 248.375 201.406 c 208.949 163.004 l 204.422 158.473 198.391
 155.977 191.977 155.977 c 185.555 155.977 179.527 158.477 175.105 162.898
 c 135.625 201.422 l 130.879 206.047 130.781 213.648 135.414 218.387 c 140.047
 223.133 147.648 223.223 152.383 218.598 c 192.09 180.086 l 231.629 218.605
 l 233.957 220.871 236.98 222 240 222 c h
240 222 m f
208.301 310.859 m 197.73 312.371 186.27 312.371 175.699 310.859 c 169.098
 309.895 163.055 314.477 162.121 321.043 c 161.184 327.605 165.742 333.684
 172.301 334.621 c 178.711 335.531 185.336 336 192 336 c 198.664 336 205.289
 335.531 211.699 334.621 c 218.258 333.684 222.816 327.605 221.879 321.043
 c 220.945 314.484 214.902 309.926 208.301 310.859 c h
208.301 310.859 m f
192 48 m 112.598 48 48 112.602 48 192 c 48 246.367 78.098 295.52 126.535
 320.285 c 132.438 323.293 139.66 320.965 142.68 315.066 c 145.699 309.16
 143.359 301.938 137.461 298.922 c 97.086 278.273 72 237.305 72 192 c 72
 125.832 125.832 72 192 72 c 258.168 72 312 125.832 312 192 c 312 237.305
 286.914 278.273 246.535 298.914 c 240.637 301.934 238.297 309.16 241.312
 315.059 c 243.438 319.211 247.645 321.602 252.008 321.602 c 253.848 321.602
 255.715 321.176 257.461 320.281 c 305.902 295.52 336 246.367 336 192 c 
336 112.602 271.402 48 192 48 c h
192 48 m f
Q Q
showpage
%%Trailer
end
%%EOF
