%!PS-Adobe-3.0 EPSF-3.0
%%Creator: cairo 1.16.0 (https://cairographics.org)
%%CreationDate: Wed Oct 16 08:10:00 2019
%%Pages: 1
%%DocumentData: Clean7Bit
%%LanguageLevel: 2
%%BoundingBox: 72 48 312 336
%%EndComments
%%BeginProlog
50 dict begin
/q { gsave } bind def
/Q { grestore } bind def
/cm { 6 array astore concat } bind def
/w { setlinewidth } bind def
/J { setlinecap } bind def
/j { setlinejoin } bind def
/M { setmiterlimit } bind def
/d { setdash } bind def
/m { moveto } bind def
/l { lineto } bind def
/c { curveto } bind def
/h { closepath } bind def
/re { exch dup neg 3 1 roll 5 3 roll moveto 0 rlineto
      0 exch rlineto 0 rlineto closepath } bind def
/S { stroke } bind def
/f { fill } bind def
/f* { eofill } bind def
/n { newpath } bind def
/W { clip } bind def
/W* { eoclip } bind def
/BT { } bind def
/ET { } bind def
/BDC { mark 3 1 roll /BDC pdfmark } bind def
/EMC { mark /EMC pdfmark } bind def
/cairo_store_point { /cairo_point_y exch def /cairo_point_x exch def } def
/Tj { show currentpoint cairo_store_point } bind def
/TJ {
  {
    dup
    type /stringtype eq
    { show } { -0.001 mul 0 cairo_font_matrix dtransform rmoveto } ifelse
  } forall
  currentpoint cairo_store_point
} bind def
/cairo_selectfont { cairo_font_matrix aload pop pop pop 0 0 6 array astore
    cairo_font exch selectfont cairo_point_x cairo_point_y moveto } bind def
/Tf { pop /cairo_font exch def /cairo_font_matrix where
      { pop cairo_selectfont } if } bind def
/Td { matrix translate cairo_font_matrix matrix concatmatrix dup
      /cairo_font_matrix exch def dup 4 get exch 5 get cairo_store_point
      /cairo_font where { pop cairo_selectfont } if } bind def
/Tm { 2 copy 8 2 roll 6 array astore /cairo_font_matrix exch def
      cairo_store_point /cairo_font where { pop cairo_selectfont } if } bind def
/g { setgray } bind def
/rg { setrgbcolor } bind def
/d1 { setcachedevice } bind def
/cairo_data_source {
  CairoDataIndex CairoData length lt
    { CairoData CairoDataIndex get /CairoDataIndex CairoDataIndex 1 add def }
    { () } ifelse
} def
/cairo_flush_ascii85_file { cairo_ascii85_file status { cairo_ascii85_file flushfile } if } def
/cairo_image { image cairo_flush_ascii85_file } def
/cairo_imagemask { imagemask cairo_flush_ascii85_file } def
%%EndProlog
%%BeginSetup
%%EndSetup
%%Page: 1 1
%%BeginPageSetup
%%PageBoundingBox: 72 48 312 336
%%EndPageSetup
q 72 48 240 288 rectclip
1 0 0 -1 0 384 cm q
0.00392157 0.180392 0.321569 rg
291.516 273.516 m 270 295.031 l 270 60 l 270 53.375 264.625 48 258 48 c
 251.375 48 246 53.375 246 60 c 246 295.031 l 224.484 273.516 l 219.797 
268.828 212.203 268.828 207.516 273.516 c 202.828 278.203 202.828 285.797
 207.516 290.484 c 249.516 332.484 l 251.863 334.828 254.93 336 258 336 
c 261.07 336 264.137 334.828 266.484 332.484 c 308.484 290.484 l 313.172
 285.797 313.172 278.203 308.484 273.516 c 303.797 268.828 296.203 268.828
 291.516 273.516 c h
291.516 273.516 m f
159.516 273.516 m 138 295.031 l 138 60 l 138 53.375 132.625 48 126 48 c
 119.375 48 114 53.375 114 60 c 114 295.031 l 92.484 273.516 l 87.797 268.828
 80.203 268.828 75.516 273.516 c 70.828 278.203 70.828 285.797 75.516 290.484
 c 117.516 332.484 l 119.863 334.828 122.93 336 126 336 c 129.07 336 132.137
 334.828 134.484 332.484 c 176.484 290.484 l 181.172 285.797 181.172 278.203
 176.484 273.516 c 171.797 268.828 164.203 268.828 159.516 273.516 c h
159.516 273.516 m f
Q Q
showpage
%%Trailer
end
%%EOF
