%!PS-Adobe-3.0 EPSF-3.0
%%Creator: cairo 1.16.0 (https://cairographics.org)
%%CreationDate: Wed Oct 16 08:10:00 2019
%%Pages: 1
%%DocumentData: Clean7Bit
%%LanguageLevel: 2
%%BoundingBox: 48 72 336 312
%%EndComments
%%BeginProlog
50 dict begin
/q { gsave } bind def
/Q { grestore } bind def
/cm { 6 array astore concat } bind def
/w { setlinewidth } bind def
/J { setlinecap } bind def
/j { setlinejoin } bind def
/M { setmiterlimit } bind def
/d { setdash } bind def
/m { moveto } bind def
/l { lineto } bind def
/c { curveto } bind def
/h { closepath } bind def
/re { exch dup neg 3 1 roll 5 3 roll moveto 0 rlineto
      0 exch rlineto 0 rlineto closepath } bind def
/S { stroke } bind def
/f { fill } bind def
/f* { eofill } bind def
/n { newpath } bind def
/W { clip } bind def
/W* { eoclip } bind def
/BT { } bind def
/ET { } bind def
/BDC { mark 3 1 roll /BDC pdfmark } bind def
/EMC { mark /EMC pdfmark } bind def
/cairo_store_point { /cairo_point_y exch def /cairo_point_x exch def } def
/Tj { show currentpoint cairo_store_point } bind def
/TJ {
  {
    dup
    type /stringtype eq
    { show } { -0.001 mul 0 cairo_font_matrix dtransform rmoveto } ifelse
  } forall
  currentpoint cairo_store_point
} bind def
/cairo_selectfont { cairo_font_matrix aload pop pop pop 0 0 6 array astore
    cairo_font exch selectfont cairo_point_x cairo_point_y moveto } bind def
/Tf { pop /cairo_font exch def /cairo_font_matrix where
      { pop cairo_selectfont } if } bind def
/Td { matrix translate cairo_font_matrix matrix concatmatrix dup
      /cairo_font_matrix exch def dup 4 get exch 5 get cairo_store_point
      /cairo_font where { pop cairo_selectfont } if } bind def
/Tm { 2 copy 8 2 roll 6 array astore /cairo_font_matrix exch def
      cairo_store_point /cairo_font where { pop cairo_selectfont } if } bind def
/g { setgray } bind def
/rg { setrgbcolor } bind def
/d1 { setcachedevice } bind def
/cairo_data_source {
  CairoDataIndex CairoData length lt
    { CairoData CairoDataIndex get /CairoDataIndex CairoDataIndex 1 add def }
    { () } ifelse
} def
/cairo_flush_ascii85_file { cairo_ascii85_file status { cairo_ascii85_file flushfile } if } def
/cairo_image { image cairo_flush_ascii85_file } def
/cairo_imagemask { imagemask cairo_flush_ascii85_file } def
%%EndProlog
%%BeginSetup
%%EndSetup
%%Page: 1 1
%%BeginPageSetup
%%PageBoundingBox: 48 72 336 312
%%EndPageSetup
q 48 72 288 240 rectclip
1 0 0 -1 0 384 cm q
0.00392157 0.180392 0.321569 rg
324 246 m 88.969 246 l 110.484 224.484 l 115.172 219.797 115.172 212.203
 110.484 207.516 c 105.805 202.828 98.195 202.828 93.516 207.516 c 51.516
 249.516 l 46.828 254.203 46.828 261.797 51.516 266.484 c 93.516 308.484
 l 95.855 310.828 98.93 312 102 312 c 105.07 312 108.145 310.828 110.484
 308.484 c 115.172 303.797 115.172 296.203 110.484 291.516 c 88.969 270 
l 324 270 l 330.625 270 336 264.625 336 258 c 336 251.375 330.625 246 324
 246 c h
324 246 m f
324 114 m 88.969 114 l 110.484 92.484 l 115.172 87.797 115.172 80.203 110.484
 75.516 c 105.805 70.828 98.195 70.828 93.516 75.516 c 51.516 117.516 l 
46.828 122.203 46.828 129.797 51.516 134.484 c 93.516 176.484 l 95.855 178.828
 98.93 180 102 180 c 105.07 180 108.145 178.828 110.484 176.484 c 115.172
 171.797 115.172 164.203 110.484 159.516 c 88.969 138 l 324 138 l 330.625
 138 336 132.625 336 126 c 336 119.375 330.625 114 324 114 c h
324 114 m f
Q Q
showpage
%%Trailer
end
%%EOF
