%!PS-Adobe-3.0 EPSF-3.0
%%Creator: cairo 1.16.0 (https://cairographics.org)
%%CreationDate: Wed Oct 16 08:10:01 2019
%%Pages: 1
%%DocumentData: Clean7Bit
%%LanguageLevel: 2
%%BoundingBox: 72 48 312 336
%%EndComments
%%BeginProlog
50 dict begin
/q { gsave } bind def
/Q { grestore } bind def
/cm { 6 array astore concat } bind def
/w { setlinewidth } bind def
/J { setlinecap } bind def
/j { setlinejoin } bind def
/M { setmiterlimit } bind def
/d { setdash } bind def
/m { moveto } bind def
/l { lineto } bind def
/c { curveto } bind def
/h { closepath } bind def
/re { exch dup neg 3 1 roll 5 3 roll moveto 0 rlineto
      0 exch rlineto 0 rlineto closepath } bind def
/S { stroke } bind def
/f { fill } bind def
/f* { eofill } bind def
/n { newpath } bind def
/W { clip } bind def
/W* { eoclip } bind def
/BT { } bind def
/ET { } bind def
/BDC { mark 3 1 roll /BDC pdfmark } bind def
/EMC { mark /EMC pdfmark } bind def
/cairo_store_point { /cairo_point_y exch def /cairo_point_x exch def } def
/Tj { show currentpoint cairo_store_point } bind def
/TJ {
  {
    dup
    type /stringtype eq
    { show } { -0.001 mul 0 cairo_font_matrix dtransform rmoveto } ifelse
  } forall
  currentpoint cairo_store_point
} bind def
/cairo_selectfont { cairo_font_matrix aload pop pop pop 0 0 6 array astore
    cairo_font exch selectfont cairo_point_x cairo_point_y moveto } bind def
/Tf { pop /cairo_font exch def /cairo_font_matrix where
      { pop cairo_selectfont } if } bind def
/Td { matrix translate cairo_font_matrix matrix concatmatrix dup
      /cairo_font_matrix exch def dup 4 get exch 5 get cairo_store_point
      /cairo_font where { pop cairo_selectfont } if } bind def
/Tm { 2 copy 8 2 roll 6 array astore /cairo_font_matrix exch def
      cairo_store_point /cairo_font where { pop cairo_selectfont } if } bind def
/g { setgray } bind def
/rg { setrgbcolor } bind def
/d1 { setcachedevice } bind def
/cairo_data_source {
  CairoDataIndex CairoData length lt
    { CairoData CairoDataIndex get /CairoDataIndex CairoDataIndex 1 add def }
    { () } ifelse
} def
/cairo_flush_ascii85_file { cairo_ascii85_file status { cairo_ascii85_file flushfile } if } def
/cairo_image { image cairo_flush_ascii85_file } def
/cairo_imagemask { imagemask cairo_flush_ascii85_file } def
%%EndProlog
%%BeginSetup
%%EndSetup
%%Page: 1 1
%%BeginPageSetup
%%PageBoundingBox: 72 48 312 336
%%EndPageSetup
q 72 48 240 288 rectclip
1 0 0 -1 0 384 cm q
0.00392157 0.180392 0.321569 rg
134.484 51.516 m 129.805 46.828 122.195 46.828 117.516 51.516 c 75.516 
93.516 l 70.828 98.203 70.828 105.797 75.516 110.484 c 80.195 115.172 87.805
 115.172 92.484 110.484 c 114 88.969 l 114 324 l 114 330.625 119.375 336
 126 336 c 132.625 336 138 330.625 138 324 c 138 88.969 l 159.516 110.484
 l 161.855 112.828 164.93 114 168 114 c 171.07 114 174.145 112.828 176.484
 110.484 c 181.172 105.797 181.172 98.203 176.484 93.516 c h
134.484 51.516 m f
266.484 51.516 m 261.797 46.828 254.203 46.828 249.516 51.516 c 207.516
 93.516 l 202.828 98.203 202.828 105.797 207.516 110.484 c 212.203 115.172
 219.797 115.172 224.484 110.484 c 246 88.969 l 246 324 l 246 330.625 251.375
 336 258 336 c 264.625 336 270 330.625 270 324 c 270 88.969 l 291.516 110.484
 l 293.863 112.828 296.93 114 300 114 c 303.07 114 306.137 112.828 308.484
 110.484 c 313.172 105.797 313.172 98.203 308.484 93.516 c h
266.484 51.516 m f
Q Q
showpage
%%Trailer
end
%%EOF
