%!PS-Adobe-3.0 EPSF-3.0
%%Creator: cairo 1.16.0 (https://cairographics.org)
%%CreationDate: Wed Oct 16 08:10:01 2019
%%Pages: 1
%%DocumentData: Clean7Bit
%%LanguageLevel: 2
%%BoundingBox: 84 48 300 336
%%EndComments
%%BeginProlog
50 dict begin
/q { gsave } bind def
/Q { grestore } bind def
/cm { 6 array astore concat } bind def
/w { setlinewidth } bind def
/J { setlinecap } bind def
/j { setlinejoin } bind def
/M { setmiterlimit } bind def
/d { setdash } bind def
/m { moveto } bind def
/l { lineto } bind def
/c { curveto } bind def
/h { closepath } bind def
/re { exch dup neg 3 1 roll 5 3 roll moveto 0 rlineto
      0 exch rlineto 0 rlineto closepath } bind def
/S { stroke } bind def
/f { fill } bind def
/f* { eofill } bind def
/n { newpath } bind def
/W { clip } bind def
/W* { eoclip } bind def
/BT { } bind def
/ET { } bind def
/BDC { mark 3 1 roll /BDC pdfmark } bind def
/EMC { mark /EMC pdfmark } bind def
/cairo_store_point { /cairo_point_y exch def /cairo_point_x exch def } def
/Tj { show currentpoint cairo_store_point } bind def
/TJ {
  {
    dup
    type /stringtype eq
    { show } { -0.001 mul 0 cairo_font_matrix dtransform rmoveto } ifelse
  } forall
  currentpoint cairo_store_point
} bind def
/cairo_selectfont { cairo_font_matrix aload pop pop pop 0 0 6 array astore
    cairo_font exch selectfont cairo_point_x cairo_point_y moveto } bind def
/Tf { pop /cairo_font exch def /cairo_font_matrix where
      { pop cairo_selectfont } if } bind def
/Td { matrix translate cairo_font_matrix matrix concatmatrix dup
      /cairo_font_matrix exch def dup 4 get exch 5 get cairo_store_point
      /cairo_font where { pop cairo_selectfont } if } bind def
/Tm { 2 copy 8 2 roll 6 array astore /cairo_font_matrix exch def
      cairo_store_point /cairo_font where { pop cairo_selectfont } if } bind def
/g { setgray } bind def
/rg { setrgbcolor } bind def
/d1 { setcachedevice } bind def
/cairo_data_source {
  CairoDataIndex CairoData length lt
    { CairoData CairoDataIndex get /CairoDataIndex CairoDataIndex 1 add def }
    { () } ifelse
} def
/cairo_flush_ascii85_file { cairo_ascii85_file status { cairo_ascii85_file flushfile } if } def
/cairo_image { image cairo_flush_ascii85_file } def
/cairo_imagemask { imagemask cairo_flush_ascii85_file } def
%%EndProlog
%%BeginSetup
%%EndSetup
%%Page: 1 1
%%BeginPageSetup
%%PageBoundingBox: 84 48 300 336
%%EndPageSetup
q 84 48 216 288 rectclip
1 0 0 -1 0 384 cm q
1 0.439216 0.262745 rg
288 72 m 288 312 l 288 322.68 275.102 328.02 267.539 320.461 c 146.941 
198 l 143.039 193.5 143.039 186.781 146.941 182.281 c 267.539 63.539 l 275.102
 55.98 288 61.32 288 72 c h
288 72 m f
0.00392157 0.180392 0.321569 rg
108 324 m 108 60 l 108 53.375 102.625 48 96 48 c 89.375 48 84 53.375 84
 60 c 84 324 l 84 330.625 89.375 336 96 336 c 102.625 336 108 330.625 108
 324 c h
108 324 m f
300 312 m 300 72 l 300 62.262 294.191 53.566 285.199 49.848 c 276.199 46.109
 265.945 48.168 259.117 54.988 c 138.516 173.73 l 138.293 173.953 138.078
 174.18 137.875 174.422 c 130.098 183.383 130.098 196.902 137.875 205.867
 c 138.035 206.059 138.211 206.242 138.391 206.426 c 259.051 328.949 l 263.656
 333.559 269.766 335.992 275.992 335.992 c 279.09 335.992 282.211 335.395
 285.191 334.156 c 294.191 330.434 300 321.738 300 312 c h
156.055 190.145 m 275.992 71.887 l 275.992 71.887 276 71.922 276 72 c 276.09
 312.043 l h
156.055 190.145 m f
Q Q
showpage
%%Trailer
end
%%EOF
