%!PS-Adobe-3.0 EPSF-3.0
%%Creator: cairo 1.16.0 (https://cairographics.org)
%%CreationDate: Wed Oct 16 08:10:01 2019
%%Pages: 1
%%DocumentData: Clean7Bit
%%LanguageLevel: 2
%%BoundingBox: 48 66 336 318
%%EndComments
%%BeginProlog
50 dict begin
/q { gsave } bind def
/Q { grestore } bind def
/cm { 6 array astore concat } bind def
/w { setlinewidth } bind def
/J { setlinecap } bind def
/j { setlinejoin } bind def
/M { setmiterlimit } bind def
/d { setdash } bind def
/m { moveto } bind def
/l { lineto } bind def
/c { curveto } bind def
/h { closepath } bind def
/re { exch dup neg 3 1 roll 5 3 roll moveto 0 rlineto
      0 exch rlineto 0 rlineto closepath } bind def
/S { stroke } bind def
/f { fill } bind def
/f* { eofill } bind def
/n { newpath } bind def
/W { clip } bind def
/W* { eoclip } bind def
/BT { } bind def
/ET { } bind def
/BDC { mark 3 1 roll /BDC pdfmark } bind def
/EMC { mark /EMC pdfmark } bind def
/cairo_store_point { /cairo_point_y exch def /cairo_point_x exch def } def
/Tj { show currentpoint cairo_store_point } bind def
/TJ {
  {
    dup
    type /stringtype eq
    { show } { -0.001 mul 0 cairo_font_matrix dtransform rmoveto } ifelse
  } forall
  currentpoint cairo_store_point
} bind def
/cairo_selectfont { cairo_font_matrix aload pop pop pop 0 0 6 array astore
    cairo_font exch selectfont cairo_point_x cairo_point_y moveto } bind def
/Tf { pop /cairo_font exch def /cairo_font_matrix where
      { pop cairo_selectfont } if } bind def
/Td { matrix translate cairo_font_matrix matrix concatmatrix dup
      /cairo_font_matrix exch def dup 4 get exch 5 get cairo_store_point
      /cairo_font where { pop cairo_selectfont } if } bind def
/Tm { 2 copy 8 2 roll 6 array astore /cairo_font_matrix exch def
      cairo_store_point /cairo_font where { pop cairo_selectfont } if } bind def
/g { setgray } bind def
/rg { setrgbcolor } bind def
/d1 { setcachedevice } bind def
/cairo_data_source {
  CairoDataIndex CairoData length lt
    { CairoData CairoDataIndex get /CairoDataIndex CairoDataIndex 1 add def }
    { () } ifelse
} def
/cairo_flush_ascii85_file { cairo_ascii85_file status { cairo_ascii85_file flushfile } if } def
/cairo_image { image cairo_flush_ascii85_file } def
/cairo_imagemask { imagemask cairo_flush_ascii85_file } def
%%EndProlog
%%BeginSetup
%%EndSetup
%%Page: 1 1
%%BeginPageSetup
%%PageBoundingBox: 48 66 336 318
%%EndPageSetup
q 48 66 288 252 rectclip
1 0 0 -1 0 384 cm q
0.00392157 0.180392 0.321569 rg
279.516 158.484 m 281.863 160.828 284.93 162 288 162 c 291.07 162 294.137
 160.828 296.484 158.484 c 332.484 122.484 l 337.172 117.797 337.172 110.203
 332.484 105.516 c 296.484 69.516 l 291.797 64.828 284.203 64.828 279.516
 69.516 c 274.828 74.203 274.828 81.797 279.516 86.484 c 295.031 102 l 108
 102 l 92.027 102 76.961 108.223 65.52 119.586 c 54.223 130.969 48 146.035
 48 162 c 48 195.086 74.914 222 108 222 c 276 222 l 285.594 222 294.648 
225.75 301.441 232.492 c 308.25 239.352 312 248.406 312 258 c 312 277.855
 295.855 294 276 294 c 60 294 l 53.375 294 48 299.375 48 306 c 48 312.625
 53.375 318 60 318 c 276 318 l 309.086 318 336 291.086 336 258 c 336 242.035
 329.777 226.969 318.414 215.52 c 307.031 204.223 291.965 198 276 198 c 
108 198 l 88.145 198 72 181.855 72 162 c 72 152.406 75.75 143.352 82.492
 136.555 c 89.352 129.75 98.406 126 108 126 c 295.031 126 l 279.516 141.516
 l 274.828 146.203 274.828 153.797 279.516 158.484 c h
279.516 158.484 m f
Q Q
showpage
%%Trailer
end
%%EOF
