%!PS-Adobe-3.0 EPSF-3.0
%%Creator: cairo 1.16.0 (https://cairographics.org)
%%CreationDate: Wed Oct 16 08:10:02 2019
%%Pages: 1
%%DocumentData: Clean7Bit
%%LanguageLevel: 2
%%BoundingBox: 48 84 336 300
%%EndComments
%%BeginProlog
50 dict begin
/q { gsave } bind def
/Q { grestore } bind def
/cm { 6 array astore concat } bind def
/w { setlinewidth } bind def
/J { setlinecap } bind def
/j { setlinejoin } bind def
/M { setmiterlimit } bind def
/d { setdash } bind def
/m { moveto } bind def
/l { lineto } bind def
/c { curveto } bind def
/h { closepath } bind def
/re { exch dup neg 3 1 roll 5 3 roll moveto 0 rlineto
      0 exch rlineto 0 rlineto closepath } bind def
/S { stroke } bind def
/f { fill } bind def
/f* { eofill } bind def
/n { newpath } bind def
/W { clip } bind def
/W* { eoclip } bind def
/BT { } bind def
/ET { } bind def
/BDC { mark 3 1 roll /BDC pdfmark } bind def
/EMC { mark /EMC pdfmark } bind def
/cairo_store_point { /cairo_point_y exch def /cairo_point_x exch def } def
/Tj { show currentpoint cairo_store_point } bind def
/TJ {
  {
    dup
    type /stringtype eq
    { show } { -0.001 mul 0 cairo_font_matrix dtransform rmoveto } ifelse
  } forall
  currentpoint cairo_store_point
} bind def
/cairo_selectfont { cairo_font_matrix aload pop pop pop 0 0 6 array astore
    cairo_font exch selectfont cairo_point_x cairo_point_y moveto } bind def
/Tf { pop /cairo_font exch def /cairo_font_matrix where
      { pop cairo_selectfont } if } bind def
/Td { matrix translate cairo_font_matrix matrix concatmatrix dup
      /cairo_font_matrix exch def dup 4 get exch 5 get cairo_store_point
      /cairo_font where { pop cairo_selectfont } if } bind def
/Tm { 2 copy 8 2 roll 6 array astore /cairo_font_matrix exch def
      cairo_store_point /cairo_font where { pop cairo_selectfont } if } bind def
/g { setgray } bind def
/rg { setrgbcolor } bind def
/d1 { setcachedevice } bind def
/cairo_data_source {
  CairoDataIndex CairoData length lt
    { CairoData CairoDataIndex get /CairoDataIndex CairoDataIndex 1 add def }
    { () } ifelse
} def
/cairo_flush_ascii85_file { cairo_ascii85_file status { cairo_ascii85_file flushfile } if } def
/cairo_image { image cairo_flush_ascii85_file } def
/cairo_imagemask { imagemask cairo_flush_ascii85_file } def
%%EndProlog
%%BeginSetup
%%EndSetup
%%Page: 1 1
%%BeginPageSetup
%%PageBoundingBox: 48 84 336 300
%%EndPageSetup
q 48 84 288 216 rectclip
1 0 0 -1 0 384 cm q
1 0.439216 0.262745 rg
312 96 m 322.68 96 328.02 108.898 320.461 116.461 c 198 237.059 l 193.5
 240.961 186.781 240.961 182.281 237.059 c 63.539 116.461 l 55.98 108.898
 61.32 96 72 96 c h
312 96 m f
0.00392157 0.180392 0.321569 rg
324 276 m 60 276 l 53.375 276 48 281.375 48 288 c 48 294.625 53.375 300
 60 300 c 324 300 l 330.625 300 336 294.625 336 288 c 336 281.375 330.625
 276 324 276 c h
324 276 m f
312 84 m 72 84 l 62.27 84 53.574 89.809 49.848 98.797 c 46.121 107.789 
48.168 118.051 54.988 124.883 c 173.73 245.484 l 173.945 245.707 174.18 
245.922 174.414 246.133 c 178.895 250.016 184.52 251.957 190.133 251.957
 c 195.762 251.957 201.379 250.016 205.859 246.133 c 206.047 245.965 206.238
 245.789 206.418 245.617 c 328.945 124.957 l 335.832 118.062 337.879 107.801
 334.152 98.809 c 330.426 89.809 321.73 84 312 84 c h
190.145 227.945 m 71.887 108.008 l 71.887 108.008 71.922 108 72 108 c 312.043
 107.91 l h
190.145 227.945 m f
Q Q
showpage
%%Trailer
end
%%EOF
