%!PS-Adobe-3.0 EPSF-3.0
%%Creator: cairo 1.16.0 (https://cairographics.org)
%%CreationDate: Wed Oct 16 08:10:02 2019
%%Pages: 1
%%DocumentData: Clean7Bit
%%LanguageLevel: 2
%%BoundingBox: 84 48 300 336
%%EndComments
%%BeginProlog
50 dict begin
/q { gsave } bind def
/Q { grestore } bind def
/cm { 6 array astore concat } bind def
/w { setlinewidth } bind def
/J { setlinecap } bind def
/j { setlinejoin } bind def
/M { setmiterlimit } bind def
/d { setdash } bind def
/m { moveto } bind def
/l { lineto } bind def
/c { curveto } bind def
/h { closepath } bind def
/re { exch dup neg 3 1 roll 5 3 roll moveto 0 rlineto
      0 exch rlineto 0 rlineto closepath } bind def
/S { stroke } bind def
/f { fill } bind def
/f* { eofill } bind def
/n { newpath } bind def
/W { clip } bind def
/W* { eoclip } bind def
/BT { } bind def
/ET { } bind def
/BDC { mark 3 1 roll /BDC pdfmark } bind def
/EMC { mark /EMC pdfmark } bind def
/cairo_store_point { /cairo_point_y exch def /cairo_point_x exch def } def
/Tj { show currentpoint cairo_store_point } bind def
/TJ {
  {
    dup
    type /stringtype eq
    { show } { -0.001 mul 0 cairo_font_matrix dtransform rmoveto } ifelse
  } forall
  currentpoint cairo_store_point
} bind def
/cairo_selectfont { cairo_font_matrix aload pop pop pop 0 0 6 array astore
    cairo_font exch selectfont cairo_point_x cairo_point_y moveto } bind def
/Tf { pop /cairo_font exch def /cairo_font_matrix where
      { pop cairo_selectfont } if } bind def
/Td { matrix translate cairo_font_matrix matrix concatmatrix dup
      /cairo_font_matrix exch def dup 4 get exch 5 get cairo_store_point
      /cairo_font where { pop cairo_selectfont } if } bind def
/Tm { 2 copy 8 2 roll 6 array astore /cairo_font_matrix exch def
      cairo_store_point /cairo_font where { pop cairo_selectfont } if } bind def
/g { setgray } bind def
/rg { setrgbcolor } bind def
/d1 { setcachedevice } bind def
/cairo_data_source {
  CairoDataIndex CairoData length lt
    { CairoData CairoDataIndex get /CairoDataIndex CairoDataIndex 1 add def }
    { () } ifelse
} def
/cairo_flush_ascii85_file { cairo_ascii85_file status { cairo_ascii85_file flushfile } if } def
/cairo_image { image cairo_flush_ascii85_file } def
/cairo_imagemask { imagemask cairo_flush_ascii85_file } def
%%EndProlog
%%BeginSetup
%%EndSetup
%%Page: 1 1
%%BeginPageSetup
%%PageBoundingBox: 84 48 300 336
%%EndPageSetup
q 84 48 216 288 rectclip
1 0 0 -1 0 384 cm q
0.878431 0.968627 0.980392 rg
288 228 m 288 281.02 245.02 324 192 324 c 138.98 324 96 281.02 96 228 c
 96 174.98 138.98 132 192 132 c 245.02 132 288 174.98 288 228 c h
288 228 m f
0.00392157 0.180392 0.321569 rg
239.242 130.871 m 233.305 127.98 226.105 130.453 223.207 136.422 c 220.312
 142.379 222.797 149.562 228.758 152.461 c 257.891 166.621 276 195.562 276
 228 c 276 274.32 238.32 312 192 312 c 145.68 312 108 274.32 108 228 c 108
 195.617 126.113 166.66 155.262 152.449 c 161.215 149.543 163.691 142.355
 160.789 136.398 c 157.883 130.445 150.707 127.969 144.738 130.871 c 107.273
 149.148 84 186.367 84 228 c 84 287.551 132.449 336 192 336 c 251.551 336
 300 287.551 300 228 c 300 186.301 276.719 149.082 239.242 130.871 c h
239.242 130.871 m f
192 48 m 185.375 48 180 53.375 180 60 c 180 199.031 l 170.484 189.516 l
 165.797 184.828 158.203 184.828 153.516 189.516 c 148.828 194.203 148.828
 201.797 153.516 206.484 c 183.516 236.484 l 185.863 238.828 188.93 240 
192 240 c 195.07 240 198.137 238.828 200.484 236.484 c 230.484 206.484 l
 235.172 201.797 235.172 194.203 230.484 189.516 c 225.797 184.828 218.203
 184.828 213.516 189.516 c 204 199.031 l 204 60 l 204 53.375 198.625 48 
192 48 c h
192 48 m f
Q Q
showpage
%%Trailer
end
%%EOF
