%!PS-Adobe-3.0 EPSF-3.0
%%Creator: cairo 1.16.0 (https://cairographics.org)
%%CreationDate: Wed Oct 16 08:10:02 2019
%%Pages: 1
%%DocumentData: Clean7Bit
%%LanguageLevel: 2
%%BoundingBox: 48 144 336 240
%%EndComments
%%BeginProlog
50 dict begin
/q { gsave } bind def
/Q { grestore } bind def
/cm { 6 array astore concat } bind def
/w { setlinewidth } bind def
/J { setlinecap } bind def
/j { setlinejoin } bind def
/M { setmiterlimit } bind def
/d { setdash } bind def
/m { moveto } bind def
/l { lineto } bind def
/c { curveto } bind def
/h { closepath } bind def
/re { exch dup neg 3 1 roll 5 3 roll moveto 0 rlineto
      0 exch rlineto 0 rlineto closepath } bind def
/S { stroke } bind def
/f { fill } bind def
/f* { eofill } bind def
/n { newpath } bind def
/W { clip } bind def
/W* { eoclip } bind def
/BT { } bind def
/ET { } bind def
/BDC { mark 3 1 roll /BDC pdfmark } bind def
/EMC { mark /EMC pdfmark } bind def
/cairo_store_point { /cairo_point_y exch def /cairo_point_x exch def } def
/Tj { show currentpoint cairo_store_point } bind def
/TJ {
  {
    dup
    type /stringtype eq
    { show } { -0.001 mul 0 cairo_font_matrix dtransform rmoveto } ifelse
  } forall
  currentpoint cairo_store_point
} bind def
/cairo_selectfont { cairo_font_matrix aload pop pop pop 0 0 6 array astore
    cairo_font exch selectfont cairo_point_x cairo_point_y moveto } bind def
/Tf { pop /cairo_font exch def /cairo_font_matrix where
      { pop cairo_selectfont } if } bind def
/Td { matrix translate cairo_font_matrix matrix concatmatrix dup
      /cairo_font_matrix exch def dup 4 get exch 5 get cairo_store_point
      /cairo_font where { pop cairo_selectfont } if } bind def
/Tm { 2 copy 8 2 roll 6 array astore /cairo_font_matrix exch def
      cairo_store_point /cairo_font where { pop cairo_selectfont } if } bind def
/g { setgray } bind def
/rg { setrgbcolor } bind def
/d1 { setcachedevice } bind def
/cairo_data_source {
  CairoDataIndex CairoData length lt
    { CairoData CairoDataIndex get /CairoDataIndex CairoDataIndex 1 add def }
    { () } ifelse
} def
/cairo_flush_ascii85_file { cairo_ascii85_file status { cairo_ascii85_file flushfile } if } def
/cairo_image { image cairo_flush_ascii85_file } def
/cairo_imagemask { imagemask cairo_flush_ascii85_file } def
%%EndProlog
%%BeginSetup
%%EndSetup
%%Page: 1 1
%%BeginPageSetup
%%PageBoundingBox: 48 144 336 240
%%EndPageSetup
q 48 144 288 96 rectclip
1 0 0 -1 0 384 cm q
0.00392157 0.180392 0.321569 rg
216 204 m 295.031 204 l 279.516 219.516 l 274.828 224.203 274.828 231.797
 279.516 236.484 c 281.863 238.828 284.93 240 288 240 c 291.07 240 294.137
 238.828 296.484 236.484 c 332.484 200.484 l 337.172 195.797 337.172 188.203
 332.484 183.516 c 296.484 147.516 l 291.797 142.828 284.203 142.828 279.516
 147.516 c 274.828 152.203 274.828 159.797 279.516 164.484 c 295.031 180
 l 216 180 l 209.375 180 204 185.375 204 192 c 204 198.625 209.375 204 216
 204 c h
216 204 m f
87.516 236.484 m 89.863 238.828 92.93 240 96 240 c 99.07 240 102.137 238.828
 104.484 236.484 c 109.172 231.797 109.172 224.203 104.484 219.516 c 88.969
 204 l 168 204 l 174.625 204 180 198.625 180 192 c 180 185.375 174.625 180
 168 180 c 88.969 180 l 104.484 164.484 l 109.172 159.797 109.172 152.203
 104.484 147.516 c 99.797 142.828 92.203 142.828 87.516 147.516 c 51.516
 183.516 l 46.828 188.203 46.828 195.797 51.516 200.484 c h
87.516 236.484 m f
Q Q
showpage
%%Trailer
end
%%EOF
