%!PS-Adobe-3.0 EPSF-3.0
%%Creator: cairo 1.16.0 (https://cairographics.org)
%%CreationDate: Wed Oct 16 08:10:03 2019
%%Pages: 1
%%DocumentData: Clean7Bit
%%LanguageLevel: 2
%%BoundingBox: 144 48 240 336
%%EndComments
%%BeginProlog
50 dict begin
/q { gsave } bind def
/Q { grestore } bind def
/cm { 6 array astore concat } bind def
/w { setlinewidth } bind def
/J { setlinecap } bind def
/j { setlinejoin } bind def
/M { setmiterlimit } bind def
/d { setdash } bind def
/m { moveto } bind def
/l { lineto } bind def
/c { curveto } bind def
/h { closepath } bind def
/re { exch dup neg 3 1 roll 5 3 roll moveto 0 rlineto
      0 exch rlineto 0 rlineto closepath } bind def
/S { stroke } bind def
/f { fill } bind def
/f* { eofill } bind def
/n { newpath } bind def
/W { clip } bind def
/W* { eoclip } bind def
/BT { } bind def
/ET { } bind def
/BDC { mark 3 1 roll /BDC pdfmark } bind def
/EMC { mark /EMC pdfmark } bind def
/cairo_store_point { /cairo_point_y exch def /cairo_point_x exch def } def
/Tj { show currentpoint cairo_store_point } bind def
/TJ {
  {
    dup
    type /stringtype eq
    { show } { -0.001 mul 0 cairo_font_matrix dtransform rmoveto } ifelse
  } forall
  currentpoint cairo_store_point
} bind def
/cairo_selectfont { cairo_font_matrix aload pop pop pop 0 0 6 array astore
    cairo_font exch selectfont cairo_point_x cairo_point_y moveto } bind def
/Tf { pop /cairo_font exch def /cairo_font_matrix where
      { pop cairo_selectfont } if } bind def
/Td { matrix translate cairo_font_matrix matrix concatmatrix dup
      /cairo_font_matrix exch def dup 4 get exch 5 get cairo_store_point
      /cairo_font where { pop cairo_selectfont } if } bind def
/Tm { 2 copy 8 2 roll 6 array astore /cairo_font_matrix exch def
      cairo_store_point /cairo_font where { pop cairo_selectfont } if } bind def
/g { setgray } bind def
/rg { setrgbcolor } bind def
/d1 { setcachedevice } bind def
/cairo_data_source {
  CairoDataIndex CairoData length lt
    { CairoData CairoDataIndex get /CairoDataIndex CairoDataIndex 1 add def }
    { () } ifelse
} def
/cairo_flush_ascii85_file { cairo_ascii85_file status { cairo_ascii85_file flushfile } if } def
/cairo_image { image cairo_flush_ascii85_file } def
/cairo_imagemask { imagemask cairo_flush_ascii85_file } def
%%EndProlog
%%BeginSetup
%%EndSetup
%%Page: 1 1
%%BeginPageSetup
%%PageBoundingBox: 144 48 240 336
%%EndPageSetup
q 144 48 96 288 rectclip
1 0 0 -1 0 384 cm q
0.00392157 0.180392 0.321569 rg
192 180 m 198.625 180 204 174.625 204 168 c 204 88.969 l 219.516 104.484
 l 221.855 106.828 224.93 108 228 108 c 231.07 108 234.145 106.828 236.484
 104.484 c 241.172 99.797 241.172 92.203 236.484 87.516 c 200.484 51.516
 l 195.805 46.828 188.195 46.828 183.516 51.516 c 147.516 87.516 l 142.828
 92.203 142.828 99.797 147.516 104.484 c 152.195 109.172 159.805 109.172
 164.484 104.484 c 180 88.969 l 180 168 l 180 174.625 185.375 180 192 180
 c h
192 180 m f
147.516 296.484 m 183.516 332.484 l 185.855 334.828 188.93 336 192 336 
c 195.07 336 198.145 334.828 200.484 332.484 c 236.484 296.484 l 241.172
 291.797 241.172 284.203 236.484 279.516 c 231.805 274.828 224.195 274.828
 219.516 279.516 c 204 295.031 l 204 216 l 204 209.375 198.625 204 192 204
 c 185.375 204 180 209.375 180 216 c 180 295.031 l 164.484 279.516 l 159.805
 274.828 152.195 274.828 147.516 279.516 c 142.828 284.203 142.828 291.797
 147.516 296.484 c h
147.516 296.484 m f
Q Q
showpage
%%Trailer
end
%%EOF
