%!PS-Adobe-3.0 EPSF-3.0
%%Creator: cairo 1.16.0 (https://cairographics.org)
%%CreationDate: Wed Oct 16 08:10:03 2019
%%Pages: 1
%%DocumentData: Clean7Bit
%%LanguageLevel: 2
%%BoundingBox: 48 48 336 336
%%EndComments
%%BeginProlog
50 dict begin
/q { gsave } bind def
/Q { grestore } bind def
/cm { 6 array astore concat } bind def
/w { setlinewidth } bind def
/J { setlinecap } bind def
/j { setlinejoin } bind def
/M { setmiterlimit } bind def
/d { setdash } bind def
/m { moveto } bind def
/l { lineto } bind def
/c { curveto } bind def
/h { closepath } bind def
/re { exch dup neg 3 1 roll 5 3 roll moveto 0 rlineto
      0 exch rlineto 0 rlineto closepath } bind def
/S { stroke } bind def
/f { fill } bind def
/f* { eofill } bind def
/n { newpath } bind def
/W { clip } bind def
/W* { eoclip } bind def
/BT { } bind def
/ET { } bind def
/BDC { mark 3 1 roll /BDC pdfmark } bind def
/EMC { mark /EMC pdfmark } bind def
/cairo_store_point { /cairo_point_y exch def /cairo_point_x exch def } def
/Tj { show currentpoint cairo_store_point } bind def
/TJ {
  {
    dup
    type /stringtype eq
    { show } { -0.001 mul 0 cairo_font_matrix dtransform rmoveto } ifelse
  } forall
  currentpoint cairo_store_point
} bind def
/cairo_selectfont { cairo_font_matrix aload pop pop pop 0 0 6 array astore
    cairo_font exch selectfont cairo_point_x cairo_point_y moveto } bind def
/Tf { pop /cairo_font exch def /cairo_font_matrix where
      { pop cairo_selectfont } if } bind def
/Td { matrix translate cairo_font_matrix matrix concatmatrix dup
      /cairo_font_matrix exch def dup 4 get exch 5 get cairo_store_point
      /cairo_font where { pop cairo_selectfont } if } bind def
/Tm { 2 copy 8 2 roll 6 array astore /cairo_font_matrix exch def
      cairo_store_point /cairo_font where { pop cairo_selectfont } if } bind def
/g { setgray } bind def
/rg { setrgbcolor } bind def
/d1 { setcachedevice } bind def
/cairo_data_source {
  CairoDataIndex CairoData length lt
    { CairoData CairoDataIndex get /CairoDataIndex CairoDataIndex 1 add def }
    { () } ifelse
} def
/cairo_flush_ascii85_file { cairo_ascii85_file status { cairo_ascii85_file flushfile } if } def
/cairo_image { image cairo_flush_ascii85_file } def
/cairo_imagemask { imagemask cairo_flush_ascii85_file } def
%%EndProlog
%%BeginSetup
%%EndSetup
%%Page: 1 1
%%BeginPageSetup
%%PageBoundingBox: 48 48 336 336
%%EndPageSetup
q 48 48 288 288 rectclip
1 0 0 -1 0 384 cm q
0.878431 0.968627 0.980392 rg
246 192 m 246 221.824 221.824 246 192 246 c 162.176 246 138 221.824 138
 192 c 138 162.176 162.176 138 192 138 c 221.824 138 246 162.176 246 192
 c h
246 192 m f
0.00392157 0.180392 0.321569 rg
324 48 m 258 48 l 251.375 48 246 53.375 246 60 c 246 66.625 251.375 72 
258 72 c 295.031 72 l 207.516 159.516 l 202.828 164.203 202.828 171.797 
207.516 176.484 c 209.863 178.828 212.93 180 216 180 c 219.07 180 222.137
 178.828 224.484 176.484 c 312 88.969 l 312 126 l 312 132.625 317.375 138
 324 138 c 330.625 138 336 132.625 336 126 c 336 60 l 336 53.375 330.625
 48 324 48 c h
324 48 m f
324 246 m 317.375 246 312 251.375 312 258 c 312 295.031 l 224.484 207.516
 l 219.797 202.828 212.203 202.828 207.516 207.516 c 202.828 212.203 202.828
 219.797 207.516 224.484 c 295.031 312 l 258 312 l 251.375 312 246 317.375
 246 324 c 246 330.625 251.375 336 258 336 c 324 336 l 330.625 336 336 330.625
 336 324 c 336 258 l 336 251.375 330.625 246 324 246 c h
324 246 m f
88.969 72 m 126 72 l 132.625 72 138 66.625 138 60 c 138 53.375 132.625 
48 126 48 c 60 48 l 53.375 48 48 53.375 48 60 c 48 126 l 48 132.625 53.375
 138 60 138 c 66.625 138 72 132.625 72 126 c 72 88.969 l 159.516 176.484
 l 161.863 178.828 164.93 180 168 180 c 171.07 180 174.137 178.828 176.484
 176.484 c 181.172 171.797 181.172 164.203 176.484 159.516 c h
88.969 72 m f
159.516 207.516 m 72 295.031 l 72 258 l 72 251.375 66.625 246 60 246 c 
53.375 246 48 251.375 48 258 c 48 324 l 48 330.625 53.375 336 60 336 c 126
 336 l 132.625 336 138 330.625 138 324 c 138 317.375 132.625 312 126 312
 c 88.969 312 l 176.484 224.484 l 181.172 219.797 181.172 212.203 176.484
 207.516 c 171.797 202.828 164.203 202.828 159.516 207.516 c h
159.516 207.516 m f
Q Q
showpage
%%Trailer
end
%%EOF
