%!PS-Adobe-3.0 EPSF-3.0
%%Creator: cairo 1.16.0 (https://cairographics.org)
%%CreationDate: Wed Oct 16 08:10:05 2019
%%Pages: 1
%%DocumentData: Clean7Bit
%%LanguageLevel: 2
%%BoundingBox: 84 48 300 336
%%EndComments
%%BeginProlog
50 dict begin
/q { gsave } bind def
/Q { grestore } bind def
/cm { 6 array astore concat } bind def
/w { setlinewidth } bind def
/J { setlinecap } bind def
/j { setlinejoin } bind def
/M { setmiterlimit } bind def
/d { setdash } bind def
/m { moveto } bind def
/l { lineto } bind def
/c { curveto } bind def
/h { closepath } bind def
/re { exch dup neg 3 1 roll 5 3 roll moveto 0 rlineto
      0 exch rlineto 0 rlineto closepath } bind def
/S { stroke } bind def
/f { fill } bind def
/f* { eofill } bind def
/n { newpath } bind def
/W { clip } bind def
/W* { eoclip } bind def
/BT { } bind def
/ET { } bind def
/BDC { mark 3 1 roll /BDC pdfmark } bind def
/EMC { mark /EMC pdfmark } bind def
/cairo_store_point { /cairo_point_y exch def /cairo_point_x exch def } def
/Tj { show currentpoint cairo_store_point } bind def
/TJ {
  {
    dup
    type /stringtype eq
    { show } { -0.001 mul 0 cairo_font_matrix dtransform rmoveto } ifelse
  } forall
  currentpoint cairo_store_point
} bind def
/cairo_selectfont { cairo_font_matrix aload pop pop pop 0 0 6 array astore
    cairo_font exch selectfont cairo_point_x cairo_point_y moveto } bind def
/Tf { pop /cairo_font exch def /cairo_font_matrix where
      { pop cairo_selectfont } if } bind def
/Td { matrix translate cairo_font_matrix matrix concatmatrix dup
      /cairo_font_matrix exch def dup 4 get exch 5 get cairo_store_point
      /cairo_font where { pop cairo_selectfont } if } bind def
/Tm { 2 copy 8 2 roll 6 array astore /cairo_font_matrix exch def
      cairo_store_point /cairo_font where { pop cairo_selectfont } if } bind def
/g { setgray } bind def
/rg { setrgbcolor } bind def
/d1 { setcachedevice } bind def
/cairo_data_source {
  CairoDataIndex CairoData length lt
    { CairoData CairoDataIndex get /CairoDataIndex CairoDataIndex 1 add def }
    { () } ifelse
} def
/cairo_flush_ascii85_file { cairo_ascii85_file status { cairo_ascii85_file flushfile } if } def
/cairo_image { image cairo_flush_ascii85_file } def
/cairo_imagemask { imagemask cairo_flush_ascii85_file } def
%%EndProlog
%%BeginSetup
%%EndSetup
%%Page: 1 1
%%BeginPageSetup
%%PageBoundingBox: 84 48 300 336
%%EndPageSetup
q 84 48 216 288 rectclip
1 0 0 -1 0 384 cm q
1 0.439216 0.262745 rg
237.059 182.281 m 240.961 186.781 240.961 193.5 237.059 198 c 116.461 320.461
 l 108.898 328.02 96 322.68 96 312 c 96 72 l 96 61.32 108.898 55.98 116.461
 63.539 c h
237.059 182.281 m f
0.00392157 0.180392 0.321569 rg
300 324 m 300 60 l 300 53.375 294.625 48 288 48 c 281.375 48 276 53.375
 276 60 c 276 324 l 276 330.625 281.375 336 288 336 c 294.625 336 300 330.625
 300 324 c h
300 324 m f
107.98 335.988 m 114.223 335.988 120.359 333.535 125.012 328.879 c 245.609
 206.418 l 245.789 206.238 245.965 206.051 246.125 205.859 c 253.902 196.895
 253.902 183.379 246.125 174.414 c 245.922 174.176 245.707 173.945 245.484
 173.723 c 124.945 55.055 l 118.051 48.168 107.789 46.129 98.801 49.848 
c 89.809 53.566 84 62.262 84 72 c 84 312 l 84 321.738 89.809 330.434 98.801
 334.152 c 101.777 335.387 104.891 335.988 107.98 335.988 c h
108 72 m 227.945 190.145 l 108 312 l h
108 72 m f
Q Q
showpage
%%Trailer
end
%%EOF
