%!PS-Adobe-3.0 EPSF-3.0
%%Creator: cairo 1.16.0 (https://cairographics.org)
%%CreationDate: Wed Oct 16 08:10:05 2019
%%Pages: 1
%%DocumentData: Clean7Bit
%%LanguageLevel: 2
%%BoundingBox: 48 96 336 288
%%EndComments
%%BeginProlog
50 dict begin
/q { gsave } bind def
/Q { grestore } bind def
/cm { 6 array astore concat } bind def
/w { setlinewidth } bind def
/J { setlinecap } bind def
/j { setlinejoin } bind def
/M { setmiterlimit } bind def
/d { setdash } bind def
/m { moveto } bind def
/l { lineto } bind def
/c { curveto } bind def
/h { closepath } bind def
/re { exch dup neg 3 1 roll 5 3 roll moveto 0 rlineto
      0 exch rlineto 0 rlineto closepath } bind def
/S { stroke } bind def
/f { fill } bind def
/f* { eofill } bind def
/n { newpath } bind def
/W { clip } bind def
/W* { eoclip } bind def
/BT { } bind def
/ET { } bind def
/BDC { mark 3 1 roll /BDC pdfmark } bind def
/EMC { mark /EMC pdfmark } bind def
/cairo_store_point { /cairo_point_y exch def /cairo_point_x exch def } def
/Tj { show currentpoint cairo_store_point } bind def
/TJ {
  {
    dup
    type /stringtype eq
    { show } { -0.001 mul 0 cairo_font_matrix dtransform rmoveto } ifelse
  } forall
  currentpoint cairo_store_point
} bind def
/cairo_selectfont { cairo_font_matrix aload pop pop pop 0 0 6 array astore
    cairo_font exch selectfont cairo_point_x cairo_point_y moveto } bind def
/Tf { pop /cairo_font exch def /cairo_font_matrix where
      { pop cairo_selectfont } if } bind def
/Td { matrix translate cairo_font_matrix matrix concatmatrix dup
      /cairo_font_matrix exch def dup 4 get exch 5 get cairo_store_point
      /cairo_font where { pop cairo_selectfont } if } bind def
/Tm { 2 copy 8 2 roll 6 array astore /cairo_font_matrix exch def
      cairo_store_point /cairo_font where { pop cairo_selectfont } if } bind def
/g { setgray } bind def
/rg { setrgbcolor } bind def
/d1 { setcachedevice } bind def
/cairo_data_source {
  CairoDataIndex CairoData length lt
    { CairoData CairoDataIndex get /CairoDataIndex CairoDataIndex 1 add def }
    { () } ifelse
} def
/cairo_flush_ascii85_file { cairo_ascii85_file status { cairo_ascii85_file flushfile } if } def
/cairo_image { image cairo_flush_ascii85_file } def
/cairo_imagemask { imagemask cairo_flush_ascii85_file } def
%%EndProlog
%%BeginSetup
%%EndSetup
%%Page: 1 1
%%BeginPageSetup
%%PageBoundingBox: 48 96 336 288
%%EndPageSetup
q 48 96 288 192 rectclip
1 0 0 -1 0 384 cm q
0.878431 0.968627 0.980392 rg
168 108 48 168 re f
0.00392157 0.180392 0.321569 rg
60 204 m 133.031 204 l 117.516 219.516 l 112.828 224.203 112.828 231.797
 117.516 236.484 c 119.855 238.828 122.93 240 126 240 c 129.07 240 132.145
 238.828 134.484 236.484 c 156 214.969 l 156 276 l 156 282.625 161.375 288
 168 288 c 174.625 288 180 282.625 180 276 c 180 108 l 180 101.375 174.625
 96 168 96 c 161.375 96 156 101.375 156 108 c 156 169.031 l 134.484 147.516
 l 129.805 142.828 122.195 142.828 117.516 147.516 c 112.828 152.203 112.828
 159.797 117.516 164.484 c 133.027 180 l 60 180 l 53.375 180 48 185.375 
48 192 c 48 198.625 53.375 204 60 204 c h
60 204 m f
324 180 m 250.973 180 l 266.484 164.484 l 271.172 159.797 271.172 152.203
 266.484 147.516 c 261.805 142.828 254.195 142.828 249.516 147.516 c 228
 169.031 l 228 108 l 228 101.375 222.625 96 216 96 c 209.375 96 204 101.375
 204 108 c 204 276 l 204 282.625 209.375 288 216 288 c 222.625 288 228 282.625
 228 276 c 228 214.969 l 249.516 236.484 l 251.855 238.828 254.93 240 258
 240 c 261.07 240 264.145 238.828 266.484 236.484 c 271.172 231.797 271.172
 224.203 266.484 219.516 c 250.969 204 l 324 204 l 330.625 204 336 198.625
 336 192 c 336 185.375 330.625 180 324 180 c h
324 180 m f
Q Q
showpage
%%Trailer
end
%%EOF
