%!PS-Adobe-3.0 EPSF-3.0
%%Creator: cairo 1.16.0 (https://cairographics.org)
%%CreationDate: Wed Oct 16 08:10:05 2019
%%Pages: 1
%%DocumentData: Clean7Bit
%%LanguageLevel: 2
%%BoundingBox: 96 48 288 336
%%EndComments
%%BeginProlog
50 dict begin
/q { gsave } bind def
/Q { grestore } bind def
/cm { 6 array astore concat } bind def
/w { setlinewidth } bind def
/J { setlinecap } bind def
/j { setlinejoin } bind def
/M { setmiterlimit } bind def
/d { setdash } bind def
/m { moveto } bind def
/l { lineto } bind def
/c { curveto } bind def
/h { closepath } bind def
/re { exch dup neg 3 1 roll 5 3 roll moveto 0 rlineto
      0 exch rlineto 0 rlineto closepath } bind def
/S { stroke } bind def
/f { fill } bind def
/f* { eofill } bind def
/n { newpath } bind def
/W { clip } bind def
/W* { eoclip } bind def
/BT { } bind def
/ET { } bind def
/BDC { mark 3 1 roll /BDC pdfmark } bind def
/EMC { mark /EMC pdfmark } bind def
/cairo_store_point { /cairo_point_y exch def /cairo_point_x exch def } def
/Tj { show currentpoint cairo_store_point } bind def
/TJ {
  {
    dup
    type /stringtype eq
    { show } { -0.001 mul 0 cairo_font_matrix dtransform rmoveto } ifelse
  } forall
  currentpoint cairo_store_point
} bind def
/cairo_selectfont { cairo_font_matrix aload pop pop pop 0 0 6 array astore
    cairo_font exch selectfont cairo_point_x cairo_point_y moveto } bind def
/Tf { pop /cairo_font exch def /cairo_font_matrix where
      { pop cairo_selectfont } if } bind def
/Td { matrix translate cairo_font_matrix matrix concatmatrix dup
      /cairo_font_matrix exch def dup 4 get exch 5 get cairo_store_point
      /cairo_font where { pop cairo_selectfont } if } bind def
/Tm { 2 copy 8 2 roll 6 array astore /cairo_font_matrix exch def
      cairo_store_point /cairo_font where { pop cairo_selectfont } if } bind def
/g { setgray } bind def
/rg { setrgbcolor } bind def
/d1 { setcachedevice } bind def
/cairo_data_source {
  CairoDataIndex CairoData length lt
    { CairoData CairoDataIndex get /CairoDataIndex CairoDataIndex 1 add def }
    { () } ifelse
} def
/cairo_flush_ascii85_file { cairo_ascii85_file status { cairo_ascii85_file flushfile } if } def
/cairo_image { image cairo_flush_ascii85_file } def
/cairo_imagemask { imagemask cairo_flush_ascii85_file } def
%%EndProlog
%%BeginSetup
%%EndSetup
%%Page: 1 1
%%BeginPageSetup
%%PageBoundingBox: 96 48 288 336
%%EndPageSetup
q 96 48 192 288 rectclip
1 0 0 -1 0 384 cm q
0.878431 0.968627 0.980392 rg
108 168 168 48 re f
0.00392157 0.180392 0.321569 rg
276 156 m 214.969 156 l 236.484 134.484 l 241.172 129.797 241.172 122.203
 236.484 117.516 c 231.797 112.828 224.203 112.828 219.516 117.516 c 204
 133.027 l 204 60 l 204 53.375 198.625 48 192 48 c 185.375 48 180 53.375
 180 60 c 180 133.031 l 164.484 117.516 l 159.797 112.828 152.203 112.828
 147.516 117.516 c 142.828 122.203 142.828 129.797 147.516 134.484 c 169.031
 156 l 108 156 l 101.375 156 96 161.375 96 168 c 96 174.625 101.375 180 
108 180 c 276 180 l 282.625 180 288 174.625 288 168 c 288 161.375 282.625
 156 276 156 c h
276 156 m f
288 216 m 288 209.375 282.625 204 276 204 c 108 204 l 101.375 204 96 209.375
 96 216 c 96 222.625 101.375 228 108 228 c 169.031 228 l 147.516 249.516
 l 142.828 254.203 142.828 261.797 147.516 266.484 c 149.863 268.828 152.93
 270 156 270 c 159.07 270 162.137 268.828 164.484 266.484 c 180 250.969 
l 180 324 l 180 330.625 185.375 336 192 336 c 198.625 336 204 330.625 204
 324 c 204 250.969 l 219.516 266.484 l 224.203 271.172 231.797 271.172 236.484
 266.484 c 241.172 261.797 241.172 254.203 236.484 249.516 c 214.969 228
 l 276 228 l 282.625 228 288 222.625 288 216 c h
288 216 m f
Q Q
showpage
%%Trailer
end
%%EOF
