%!PS-Adobe-3.0 EPSF-3.0
%%Creator: cairo 1.16.0 (https://cairographics.org)
%%CreationDate: Wed Oct 16 08:10:05 2019
%%Pages: 1
%%DocumentData: Clean7Bit
%%LanguageLevel: 2
%%BoundingBox: 48 48 336 336
%%EndComments
%%BeginProlog
50 dict begin
/q { gsave } bind def
/Q { grestore } bind def
/cm { 6 array astore concat } bind def
/w { setlinewidth } bind def
/J { setlinecap } bind def
/j { setlinejoin } bind def
/M { setmiterlimit } bind def
/d { setdash } bind def
/m { moveto } bind def
/l { lineto } bind def
/c { curveto } bind def
/h { closepath } bind def
/re { exch dup neg 3 1 roll 5 3 roll moveto 0 rlineto
      0 exch rlineto 0 rlineto closepath } bind def
/S { stroke } bind def
/f { fill } bind def
/f* { eofill } bind def
/n { newpath } bind def
/W { clip } bind def
/W* { eoclip } bind def
/BT { } bind def
/ET { } bind def
/BDC { mark 3 1 roll /BDC pdfmark } bind def
/EMC { mark /EMC pdfmark } bind def
/cairo_store_point { /cairo_point_y exch def /cairo_point_x exch def } def
/Tj { show currentpoint cairo_store_point } bind def
/TJ {
  {
    dup
    type /stringtype eq
    { show } { -0.001 mul 0 cairo_font_matrix dtransform rmoveto } ifelse
  } forall
  currentpoint cairo_store_point
} bind def
/cairo_selectfont { cairo_font_matrix aload pop pop pop 0 0 6 array astore
    cairo_font exch selectfont cairo_point_x cairo_point_y moveto } bind def
/Tf { pop /cairo_font exch def /cairo_font_matrix where
      { pop cairo_selectfont } if } bind def
/Td { matrix translate cairo_font_matrix matrix concatmatrix dup
      /cairo_font_matrix exch def dup 4 get exch 5 get cairo_store_point
      /cairo_font where { pop cairo_selectfont } if } bind def
/Tm { 2 copy 8 2 roll 6 array astore /cairo_font_matrix exch def
      cairo_store_point /cairo_font where { pop cairo_selectfont } if } bind def
/g { setgray } bind def
/rg { setrgbcolor } bind def
/d1 { setcachedevice } bind def
/cairo_data_source {
  CairoDataIndex CairoData length lt
    { CairoData CairoDataIndex get /CairoDataIndex CairoDataIndex 1 add def }
    { () } ifelse
} def
/cairo_flush_ascii85_file { cairo_ascii85_file status { cairo_ascii85_file flushfile } if } def
/cairo_image { image cairo_flush_ascii85_file } def
/cairo_imagemask { imagemask cairo_flush_ascii85_file } def
%%EndProlog
%%BeginSetup
%%EndSetup
%%Page: 1 1
%%BeginPageSetup
%%PageBoundingBox: 48 48 336 336
%%EndPageSetup
q 48 48 288 288 rectclip
1 0 0 -1 0 384 cm q
0.878431 0.968627 0.980392 rg
282 168 m 282 216 l 216 216 l 216 282 l 168 282 l 168 216 l 102 216 l 102
 168 l 168 168 l 168 102 l 216 102 l 216 168 l h
282 168 m f
0.00392157 0.180392 0.321569 rg
168 204 m 102 204 l 95.375 204 90 209.375 90 216 c 90 222.625 95.375 228
 102 228 c 139.031 228 l 51.516 315.516 l 46.828 320.203 46.828 327.797 
51.516 332.484 c 53.863 334.828 56.93 336 60 336 c 63.07 336 66.137 334.828
 68.484 332.484 c 156 244.969 l 156 282 l 156 288.625 161.375 294 168 294
 c 174.625 294 180 288.625 180 282 c 180 216 l 180 209.375 174.625 204 168
 204 c h
168 204 m f
168 90 m 161.375 90 156 95.375 156 102 c 156 139.031 l 68.484 51.516 l 
63.797 46.828 56.203 46.828 51.516 51.516 c 46.828 56.203 46.828 63.797 
51.516 68.484 c 139.031 156 l 102 156 l 95.375 156 90 161.375 90 168 c 90
 174.625 95.375 180 102 180 c 168 180 l 174.625 180 180 174.625 180 168 
c 180 102 l 180 95.375 174.625 90 168 90 c h
168 90 m f
315.516 51.516 m 228 139.031 l 228 102 l 228 95.375 222.625 90 216 90 c
 209.375 90 204 95.375 204 102 c 204 168 l 204 174.625 209.375 180 216 180
 c 282 180 l 288.625 180 294 174.625 294 168 c 294 161.375 288.625 156 282
 156 c 244.969 156 l 332.484 68.484 l 337.172 63.797 337.172 56.203 332.484
 51.516 c 327.797 46.828 320.203 46.828 315.516 51.516 c h
315.516 51.516 m f
244.969 228 m 282 228 l 288.625 228 294 222.625 294 216 c 294 209.375 288.625
 204 282 204 c 216 204 l 209.375 204 204 209.375 204 216 c 204 282 l 204
 288.625 209.375 294 216 294 c 222.625 294 228 288.625 228 282 c 228 244.969
 l 315.516 332.484 l 317.863 334.828 320.93 336 324 336 c 327.07 336 330.137
 334.828 332.484 332.484 c 337.172 327.797 337.172 320.203 332.484 315.516
 c h
244.969 228 m f
Q Q
showpage
%%Trailer
end
%%EOF
