%!PS-Adobe-3.0 EPSF-3.0
%%Creator: cairo 1.16.0 (https://cairographics.org)
%%CreationDate: Wed Oct 16 08:10:05 2019
%%Pages: 1
%%DocumentData: Clean7Bit
%%LanguageLevel: 2
%%BoundingBox: 48 48 336 336
%%EndComments
%%BeginProlog
50 dict begin
/q { gsave } bind def
/Q { grestore } bind def
/cm { 6 array astore concat } bind def
/w { setlinewidth } bind def
/J { setlinecap } bind def
/j { setlinejoin } bind def
/M { setmiterlimit } bind def
/d { setdash } bind def
/m { moveto } bind def
/l { lineto } bind def
/c { curveto } bind def
/h { closepath } bind def
/re { exch dup neg 3 1 roll 5 3 roll moveto 0 rlineto
      0 exch rlineto 0 rlineto closepath } bind def
/S { stroke } bind def
/f { fill } bind def
/f* { eofill } bind def
/n { newpath } bind def
/W { clip } bind def
/W* { eoclip } bind def
/BT { } bind def
/ET { } bind def
/BDC { mark 3 1 roll /BDC pdfmark } bind def
/EMC { mark /EMC pdfmark } bind def
/cairo_store_point { /cairo_point_y exch def /cairo_point_x exch def } def
/Tj { show currentpoint cairo_store_point } bind def
/TJ {
  {
    dup
    type /stringtype eq
    { show } { -0.001 mul 0 cairo_font_matrix dtransform rmoveto } ifelse
  } forall
  currentpoint cairo_store_point
} bind def
/cairo_selectfont { cairo_font_matrix aload pop pop pop 0 0 6 array astore
    cairo_font exch selectfont cairo_point_x cairo_point_y moveto } bind def
/Tf { pop /cairo_font exch def /cairo_font_matrix where
      { pop cairo_selectfont } if } bind def
/Td { matrix translate cairo_font_matrix matrix concatmatrix dup
      /cairo_font_matrix exch def dup 4 get exch 5 get cairo_store_point
      /cairo_font where { pop cairo_selectfont } if } bind def
/Tm { 2 copy 8 2 roll 6 array astore /cairo_font_matrix exch def
      cairo_store_point /cairo_font where { pop cairo_selectfont } if } bind def
/g { setgray } bind def
/rg { setrgbcolor } bind def
/d1 { setcachedevice } bind def
/cairo_data_source {
  CairoDataIndex CairoData length lt
    { CairoData CairoDataIndex get /CairoDataIndex CairoDataIndex 1 add def }
    { () } ifelse
} def
/cairo_flush_ascii85_file { cairo_ascii85_file status { cairo_ascii85_file flushfile } if } def
/cairo_image { image cairo_flush_ascii85_file } def
/cairo_imagemask { imagemask cairo_flush_ascii85_file } def
%%EndProlog
%%BeginSetup
%%EndSetup
%%Page: 1 1
%%BeginPageSetup
%%PageBoundingBox: 48 48 336 336
%%EndPageSetup
q 48 48 288 288 rectclip
1 0 0 -1 0 384 cm q
0.00392157 0.180392 0.321569 rg
192 48 m 185.375 48 180 53.375 180 60 c 180 127.031 l 152.484 99.516 l 
147.805 94.828 140.195 94.828 135.516 99.516 c 130.828 104.203 130.828 111.797
 135.516 116.484 c 183.516 164.484 l 185.855 166.828 188.93 168 192 168 
c 195.07 168 198.145 166.828 200.484 164.484 c 248.484 116.484 l 253.172
 111.797 253.172 104.203 248.484 99.516 c 243.805 94.828 236.195 94.828 
231.516 99.516 c 204 127.031 l 204 60 l 204 53.375 198.625 48 192 48 c h
192 48 m f
48 192 m 48 198.625 53.375 204 60 204 c 127.031 204 l 99.516 231.516 l 
94.828 236.203 94.828 243.797 99.516 248.484 c 101.855 250.828 104.93 252
 108 252 c 111.07 252 114.145 250.828 116.484 248.484 c 164.484 200.484 
l 169.172 195.797 169.172 188.203 164.484 183.516 c 116.484 135.516 l 111.805
 130.828 104.195 130.828 99.516 135.516 c 94.828 140.203 94.828 147.797 
99.516 152.484 c 127.031 180 l 60 180 l 53.375 180 48 185.375 48 192 c h
48 192 m f
324 180 m 256.969 180 l 284.484 152.484 l 289.172 147.797 289.172 140.203
 284.484 135.516 c 279.805 130.828 272.195 130.828 267.516 135.516 c 219.516
 183.516 l 214.828 188.203 214.828 195.797 219.516 200.484 c 267.516 248.484
 l 269.855 250.828 272.93 252 276 252 c 279.07 252 282.145 250.828 284.484
 248.484 c 289.172 243.797 289.172 236.203 284.484 231.516 c 256.969 204
 l 324 204 l 330.625 204 336 198.625 336 192 c 336 185.375 330.625 180 324
 180 c h
324 180 m f
204 256.969 m 231.516 284.484 l 233.855 286.828 236.93 288 240 288 c 243.07
 288 246.145 286.828 248.484 284.484 c 253.172 279.797 253.172 272.203 248.484
 267.516 c 200.484 219.516 l 195.805 214.828 188.195 214.828 183.516 219.516
 c 135.516 267.516 l 130.828 272.203 130.828 279.797 135.516 284.484 c 140.195
 289.172 147.805 289.172 152.484 284.484 c 180 256.969 l 180 324 l 180 330.625
 185.375 336 192 336 c 198.625 336 204 330.625 204 324 c h
204 256.969 m f
Q Q
showpage
%%Trailer
end
%%EOF
