%!PS-Adobe-3.0 EPSF-3.0
%%Creator: cairo 1.16.0 (https://cairographics.org)
%%CreationDate: Wed Oct 16 08:10:06 2019
%%Pages: 1
%%DocumentData: Clean7Bit
%%LanguageLevel: 2
%%BoundingBox: 48 48 336 336
%%EndComments
%%BeginProlog
50 dict begin
/q { gsave } bind def
/Q { grestore } bind def
/cm { 6 array astore concat } bind def
/w { setlinewidth } bind def
/J { setlinecap } bind def
/j { setlinejoin } bind def
/M { setmiterlimit } bind def
/d { setdash } bind def
/m { moveto } bind def
/l { lineto } bind def
/c { curveto } bind def
/h { closepath } bind def
/re { exch dup neg 3 1 roll 5 3 roll moveto 0 rlineto
      0 exch rlineto 0 rlineto closepath } bind def
/S { stroke } bind def
/f { fill } bind def
/f* { eofill } bind def
/n { newpath } bind def
/W { clip } bind def
/W* { eoclip } bind def
/BT { } bind def
/ET { } bind def
/BDC { mark 3 1 roll /BDC pdfmark } bind def
/EMC { mark /EMC pdfmark } bind def
/cairo_store_point { /cairo_point_y exch def /cairo_point_x exch def } def
/Tj { show currentpoint cairo_store_point } bind def
/TJ {
  {
    dup
    type /stringtype eq
    { show } { -0.001 mul 0 cairo_font_matrix dtransform rmoveto } ifelse
  } forall
  currentpoint cairo_store_point
} bind def
/cairo_selectfont { cairo_font_matrix aload pop pop pop 0 0 6 array astore
    cairo_font exch selectfont cairo_point_x cairo_point_y moveto } bind def
/Tf { pop /cairo_font exch def /cairo_font_matrix where
      { pop cairo_selectfont } if } bind def
/Td { matrix translate cairo_font_matrix matrix concatmatrix dup
      /cairo_font_matrix exch def dup 4 get exch 5 get cairo_store_point
      /cairo_font where { pop cairo_selectfont } if } bind def
/Tm { 2 copy 8 2 roll 6 array astore /cairo_font_matrix exch def
      cairo_store_point /cairo_font where { pop cairo_selectfont } if } bind def
/g { setgray } bind def
/rg { setrgbcolor } bind def
/d1 { setcachedevice } bind def
/cairo_data_source {
  CairoDataIndex CairoData length lt
    { CairoData CairoDataIndex get /CairoDataIndex CairoDataIndex 1 add def }
    { () } ifelse
} def
/cairo_flush_ascii85_file { cairo_ascii85_file status { cairo_ascii85_file flushfile } if } def
/cairo_image { image cairo_flush_ascii85_file } def
/cairo_imagemask { imagemask cairo_flush_ascii85_file } def
%%EndProlog
%%BeginSetup
%%EndSetup
%%Page: 1 1
%%BeginPageSetup
%%PageBoundingBox: 48 48 336 336
%%EndPageSetup
q 48 48 288 288 rectclip
1 0 0 -1 0 384 cm q
0.878431 0.968627 0.980392 rg
240 192 m 240 218.508 218.508 240 192 240 c 165.492 240 144 218.508 144
 192 c 144 165.492 165.492 144 192 144 c 218.508 144 240 165.492 240 192
 c h
240 192 m f
0.00392157 0.180392 0.321569 rg
231.516 116.484 m 233.863 118.828 236.93 120 240 120 c 243.07 120 246.137
 118.828 248.484 116.484 c 253.172 111.797 253.172 104.203 248.484 99.516
 c 200.484 51.516 l 195.797 46.828 188.203 46.828 183.516 51.516 c 135.516
 99.516 l 130.828 104.203 130.828 111.797 135.516 116.484 c 140.203 121.172
 147.797 121.172 152.484 116.484 c 180 88.969 l 180 156 l 180 162.625 185.375
 168 192 168 c 198.625 168 204 162.625 204 156 c 204 88.969 l h
231.516 116.484 m f
284.484 135.516 m 279.797 130.828 272.203 130.828 267.516 135.516 c 262.828
 140.203 262.828 147.797 267.516 152.484 c 295.031 180 l 228 180 l 221.375
 180 216 185.375 216 192 c 216 198.625 221.375 204 228 204 c 295.031 204
 l 267.516 231.516 l 262.828 236.203 262.828 243.797 267.516 248.484 c 269.863
 250.828 272.93 252 276 252 c 279.07 252 282.137 250.828 284.484 248.484
 c 332.484 200.484 l 337.172 195.797 337.172 188.203 332.484 183.516 c h
284.484 135.516 m f
231.516 267.516 m 204 295.031 l 204 228 l 204 221.375 198.625 216 192 216
 c 185.375 216 180 221.375 180 228 c 180 295.031 l 152.484 267.516 l 147.797
 262.828 140.203 262.828 135.516 267.516 c 130.828 272.203 130.828 279.797
 135.516 284.484 c 183.516 332.484 l 185.863 334.828 188.93 336 192 336 
c 195.07 336 198.137 334.828 200.484 332.484 c 248.484 284.484 l 253.172
 279.797 253.172 272.203 248.484 267.516 c 243.797 262.828 236.203 262.828
 231.516 267.516 c h
231.516 267.516 m f
116.484 135.516 m 111.797 130.828 104.203 130.828 99.516 135.516 c 51.516
 183.516 l 46.828 188.203 46.828 195.797 51.516 200.484 c 99.516 248.484
 l 101.863 250.828 104.93 252 108 252 c 111.07 252 114.137 250.828 116.484
 248.484 c 121.172 243.797 121.172 236.203 116.484 231.516 c 88.969 204 
l 156 204 l 162.625 204 168 198.625 168 192 c 168 185.375 162.625 180 156
 180 c 88.969 180 l 116.484 152.484 l 121.172 147.797 121.172 140.203 116.484
 135.516 c h
116.484 135.516 m f
Q Q
showpage
%%Trailer
end
%%EOF
