%!PS-Adobe-3.0 EPSF-3.0
%%Creator: cairo 1.16.0 (https://cairographics.org)
%%CreationDate: Wed Oct 16 08:10:06 2019
%%Pages: 1
%%DocumentData: Clean7Bit
%%LanguageLevel: 2
%%BoundingBox: 48 60 336 324
%%EndComments
%%BeginProlog
50 dict begin
/q { gsave } bind def
/Q { grestore } bind def
/cm { 6 array astore concat } bind def
/w { setlinewidth } bind def
/J { setlinecap } bind def
/j { setlinejoin } bind def
/M { setmiterlimit } bind def
/d { setdash } bind def
/m { moveto } bind def
/l { lineto } bind def
/c { curveto } bind def
/h { closepath } bind def
/re { exch dup neg 3 1 roll 5 3 roll moveto 0 rlineto
      0 exch rlineto 0 rlineto closepath } bind def
/S { stroke } bind def
/f { fill } bind def
/f* { eofill } bind def
/n { newpath } bind def
/W { clip } bind def
/W* { eoclip } bind def
/BT { } bind def
/ET { } bind def
/BDC { mark 3 1 roll /BDC pdfmark } bind def
/EMC { mark /EMC pdfmark } bind def
/cairo_store_point { /cairo_point_y exch def /cairo_point_x exch def } def
/Tj { show currentpoint cairo_store_point } bind def
/TJ {
  {
    dup
    type /stringtype eq
    { show } { -0.001 mul 0 cairo_font_matrix dtransform rmoveto } ifelse
  } forall
  currentpoint cairo_store_point
} bind def
/cairo_selectfont { cairo_font_matrix aload pop pop pop 0 0 6 array astore
    cairo_font exch selectfont cairo_point_x cairo_point_y moveto } bind def
/Tf { pop /cairo_font exch def /cairo_font_matrix where
      { pop cairo_selectfont } if } bind def
/Td { matrix translate cairo_font_matrix matrix concatmatrix dup
      /cairo_font_matrix exch def dup 4 get exch 5 get cairo_store_point
      /cairo_font where { pop cairo_selectfont } if } bind def
/Tm { 2 copy 8 2 roll 6 array astore /cairo_font_matrix exch def
      cairo_store_point /cairo_font where { pop cairo_selectfont } if } bind def
/g { setgray } bind def
/rg { setrgbcolor } bind def
/d1 { setcachedevice } bind def
/cairo_data_source {
  CairoDataIndex CairoData length lt
    { CairoData CairoDataIndex get /CairoDataIndex CairoDataIndex 1 add def }
    { () } ifelse
} def
/cairo_flush_ascii85_file { cairo_ascii85_file status { cairo_ascii85_file flushfile } if } def
/cairo_image { image cairo_flush_ascii85_file } def
/cairo_imagemask { imagemask cairo_flush_ascii85_file } def
%%EndProlog
%%BeginSetup
%%EndSetup
%%Page: 1 1
%%BeginPageSetup
%%PageBoundingBox: 48 60 336 324
%%EndPageSetup
q 48 60 288 264 rectclip
1 0 0 -1 0 384 cm q
0.878431 0.968627 0.980392 rg
300 192 m 300 258.273 246.273 312 180 312 c 113.727 312 60 258.273 60 192
 c 60 125.727 113.727 72 180 72 c 246.273 72 300 125.727 300 192 c h
300 192 m f
0.00392157 0.180392 0.321569 rg
314.992 130.074 m 302.875 143.852 l 283.23 93.355 234.965 60 180 60 c 107.215
 60 48 119.215 48 192 c 48 264.785 107.215 324 180 324 c 242.555 324 296.957
 279.582 309.359 218.383 c 310.68 211.883 306.48 205.547 299.98 204.238 
c 293.449 202.906 287.152 207.121 285.84 213.617 c 275.695 263.672 231.188
 300 180 300 c 120.449 300 72 251.551 72 192 c 72 132.449 120.449 84 180
 84 c 224.023 84 262.781 110.137 279.469 149.969 c 261.48 144.516 l 255.148
 142.609 248.438 146.18 246.516 152.52 c 244.598 158.863 248.18 165.562 
254.52 167.484 c 294.121 179.484 l 295.266 179.832 296.438 180 297.602 180
 c 300.988 180 304.289 178.559 306.605 175.926 c 333.008 145.926 l 337.387
 140.953 336.898 133.367 331.926 128.992 c 326.953 124.609 319.363 125.102
 314.992 130.074 c h
314.992 130.074 m f
Q Q
showpage
%%Trailer
end
%%EOF
