%!PS-Adobe-3.0 EPSF-3.0
%%Creator: cairo 1.16.0 (https://cairographics.org)
%%CreationDate: Wed Oct 16 08:10:06 2019
%%Pages: 1
%%DocumentData: Clean7Bit
%%LanguageLevel: 2
%%BoundingBox: 48 72 336 312
%%EndComments
%%BeginProlog
50 dict begin
/q { gsave } bind def
/Q { grestore } bind def
/cm { 6 array astore concat } bind def
/w { setlinewidth } bind def
/J { setlinecap } bind def
/j { setlinejoin } bind def
/M { setmiterlimit } bind def
/d { setdash } bind def
/m { moveto } bind def
/l { lineto } bind def
/c { curveto } bind def
/h { closepath } bind def
/re { exch dup neg 3 1 roll 5 3 roll moveto 0 rlineto
      0 exch rlineto 0 rlineto closepath } bind def
/S { stroke } bind def
/f { fill } bind def
/f* { eofill } bind def
/n { newpath } bind def
/W { clip } bind def
/W* { eoclip } bind def
/BT { } bind def
/ET { } bind def
/BDC { mark 3 1 roll /BDC pdfmark } bind def
/EMC { mark /EMC pdfmark } bind def
/cairo_store_point { /cairo_point_y exch def /cairo_point_x exch def } def
/Tj { show currentpoint cairo_store_point } bind def
/TJ {
  {
    dup
    type /stringtype eq
    { show } { -0.001 mul 0 cairo_font_matrix dtransform rmoveto } ifelse
  } forall
  currentpoint cairo_store_point
} bind def
/cairo_selectfont { cairo_font_matrix aload pop pop pop 0 0 6 array astore
    cairo_font exch selectfont cairo_point_x cairo_point_y moveto } bind def
/Tf { pop /cairo_font exch def /cairo_font_matrix where
      { pop cairo_selectfont } if } bind def
/Td { matrix translate cairo_font_matrix matrix concatmatrix dup
      /cairo_font_matrix exch def dup 4 get exch 5 get cairo_store_point
      /cairo_font where { pop cairo_selectfont } if } bind def
/Tm { 2 copy 8 2 roll 6 array astore /cairo_font_matrix exch def
      cairo_store_point /cairo_font where { pop cairo_selectfont } if } bind def
/g { setgray } bind def
/rg { setrgbcolor } bind def
/d1 { setcachedevice } bind def
/cairo_data_source {
  CairoDataIndex CairoData length lt
    { CairoData CairoDataIndex get /CairoDataIndex CairoDataIndex 1 add def }
    { () } ifelse
} def
/cairo_flush_ascii85_file { cairo_ascii85_file status { cairo_ascii85_file flushfile } if } def
/cairo_image { image cairo_flush_ascii85_file } def
/cairo_imagemask { imagemask cairo_flush_ascii85_file } def
%%EndProlog
%%BeginSetup
%%EndSetup
%%Page: 1 1
%%BeginPageSetup
%%PageBoundingBox: 48 72 336 312
%%EndPageSetup
q 48 72 288 240 rectclip
1 0 0 -1 0 384 cm q
0.878431 0.968627 0.980392 rg
108 84 m 276 84 l 289.254 84 300 94.746 300 108 c 300 276 l 300 289.254
 289.254 300 276 300 c 108 300 l 94.746 300 84 289.254 84 276 c 84 108 l
 84 94.746 94.746 84 108 84 c h
108 84 m f
0.00392157 0.180392 0.321569 rg
300 180 m 306.625 180 312 174.625 312 168 c 312 108 l 312 88.145 295.855
 72 276 72 c 108 72 l 88.145 72 72 88.145 72 108 c 72 139.031 l 68.484 135.516
 l 63.805 130.828 56.195 130.828 51.516 135.516 c 46.828 140.203 46.828 
147.797 51.516 152.484 c 75.516 176.484 l 77.855 178.828 80.93 180 84 180
 c 87.07 180 90.145 178.828 92.484 176.484 c 116.484 152.484 l 121.172 147.797
 121.172 140.203 116.484 135.516 c 111.805 130.828 104.195 130.828 99.516
 135.516 c 96 139.031 l 96 108 l 96 101.383 101.383 96 108 96 c 276 96 l
 282.617 96 288 101.383 288 108 c 288 168 l 288 174.625 293.375 180 300 
180 c h
300 180 m f
308.484 207.516 m 303.805 202.828 296.195 202.828 291.516 207.516 c 267.516
 231.516 l 262.828 236.203 262.828 243.797 267.516 248.484 c 272.195 253.172
 279.805 253.172 284.484 248.484 c 288 244.969 l 288 276 l 288 282.617 282.617
 288 276 288 c 108 288 l 101.383 288 96 282.617 96 276 c 96 216 l 96 209.375
 90.625 204 84 204 c 77.375 204 72 209.375 72 216 c 72 276 l 72 295.855 
88.145 312 108 312 c 276 312 l 295.855 312 312 295.855 312 276 c 312 244.969
 l 315.516 248.484 l 317.855 250.828 320.93 252 324 252 c 327.07 252 330.145
 250.828 332.484 248.484 c 337.172 243.797 337.172 236.203 332.484 231.516
 c h
308.484 207.516 m f
Q Q
showpage
%%Trailer
end
%%EOF
