%!PS-Adobe-3.0 EPSF-3.0
%%Creator: cairo 1.16.0 (https://cairographics.org)
%%CreationDate: Wed Oct 16 08:10:06 2019
%%Pages: 1
%%DocumentData: Clean7Bit
%%LanguageLevel: 2
%%BoundingBox: 48 96 336 288
%%EndComments
%%BeginProlog
50 dict begin
/q { gsave } bind def
/Q { grestore } bind def
/cm { 6 array astore concat } bind def
/w { setlinewidth } bind def
/J { setlinecap } bind def
/j { setlinejoin } bind def
/M { setmiterlimit } bind def
/d { setdash } bind def
/m { moveto } bind def
/l { lineto } bind def
/c { curveto } bind def
/h { closepath } bind def
/re { exch dup neg 3 1 roll 5 3 roll moveto 0 rlineto
      0 exch rlineto 0 rlineto closepath } bind def
/S { stroke } bind def
/f { fill } bind def
/f* { eofill } bind def
/n { newpath } bind def
/W { clip } bind def
/W* { eoclip } bind def
/BT { } bind def
/ET { } bind def
/BDC { mark 3 1 roll /BDC pdfmark } bind def
/EMC { mark /EMC pdfmark } bind def
/cairo_store_point { /cairo_point_y exch def /cairo_point_x exch def } def
/Tj { show currentpoint cairo_store_point } bind def
/TJ {
  {
    dup
    type /stringtype eq
    { show } { -0.001 mul 0 cairo_font_matrix dtransform rmoveto } ifelse
  } forall
  currentpoint cairo_store_point
} bind def
/cairo_selectfont { cairo_font_matrix aload pop pop pop 0 0 6 array astore
    cairo_font exch selectfont cairo_point_x cairo_point_y moveto } bind def
/Tf { pop /cairo_font exch def /cairo_font_matrix where
      { pop cairo_selectfont } if } bind def
/Td { matrix translate cairo_font_matrix matrix concatmatrix dup
      /cairo_font_matrix exch def dup 4 get exch 5 get cairo_store_point
      /cairo_font where { pop cairo_selectfont } if } bind def
/Tm { 2 copy 8 2 roll 6 array astore /cairo_font_matrix exch def
      cairo_store_point /cairo_font where { pop cairo_selectfont } if } bind def
/g { setgray } bind def
/rg { setrgbcolor } bind def
/d1 { setcachedevice } bind def
/cairo_data_source {
  CairoDataIndex CairoData length lt
    { CairoData CairoDataIndex get /CairoDataIndex CairoDataIndex 1 add def }
    { () } ifelse
} def
/cairo_flush_ascii85_file { cairo_ascii85_file status { cairo_ascii85_file flushfile } if } def
/cairo_image { image cairo_flush_ascii85_file } def
/cairo_imagemask { imagemask cairo_flush_ascii85_file } def
%%EndProlog
%%BeginSetup
%%EndSetup
%%Page: 1 1
%%BeginPageSetup
%%PageBoundingBox: 48 96 336 288
%%EndPageSetup
q 48 96 288 192 rectclip
1 0 0 -1 0 384 cm q
0.878431 0.968627 0.980392 rg
114 138 m 270 138 l 299.824 138 324 162.176 324 192 c 324 221.824 299.824
 246 270 246 c 114 246 l 84.176 246 60 221.824 60 192 c 60 162.176 84.176
 138 114 138 c h
114 138 m f
0.00392157 0.180392 0.321569 rg
114 150 m 168 150 l 174.625 150 180 144.625 180 138 c 180 131.375 174.625
 126 168 126 c 114 126 l 96.324 126 79.746 132.883 67.375 145.332 c 54.883
 157.746 48 174.324 48 192 c 48 228.391 77.609 258 114 258 c 139.031 258
 l 129.516 267.516 l 124.828 272.203 124.828 279.797 129.516 284.484 c 131.863
 286.828 134.93 288 138 288 c 141.07 288 144.137 286.828 146.484 284.484
 c 176.484 254.484 l 181.172 249.797 181.172 242.203 176.484 237.516 c 146.484
 207.516 l 141.797 202.828 134.203 202.828 129.516 207.516 c 124.828 212.203
 124.828 219.797 129.516 224.484 c 139.031 234 l 114 234 l 90.848 234 72
 215.152 72 192 c 72 180.762 76.367 170.23 84.355 162.301 c 92.23 154.367
 102.762 150 114 150 c h
114 150 m f
270 126 m 244.969 126 l 254.484 116.484 l 259.172 111.797 259.172 104.203
 254.484 99.516 c 249.797 94.828 242.203 94.828 237.516 99.516 c 207.516
 129.516 l 202.828 134.203 202.828 141.797 207.516 146.484 c 237.516 176.484
 l 239.863 178.828 242.93 180 246 180 c 249.07 180 252.137 178.828 254.484
 176.484 c 259.172 171.797 259.172 164.203 254.484 159.516 c 244.969 150
 l 270 150 l 281.238 150 291.77 154.367 299.699 162.355 c 307.633 170.23
 312 180.762 312 192 c 312 215.152 293.152 234 270 234 c 216 234 l 209.375
 234 204 239.375 204 246 c 204 252.625 209.375 258 216 258 c 270 258 l 306.391
 258 336 228.391 336 192 c 336 174.324 329.117 157.746 316.676 145.379 c
 304.254 132.883 287.676 126 270 126 c h
270 126 m f
Q Q
showpage
%%Trailer
end
%%EOF
