%!PS-Adobe-3.0 EPSF-3.0
%%Creator: cairo 1.16.0 (https://cairographics.org)
%%CreationDate: Wed Oct 16 08:10:07 2019
%%Pages: 1
%%DocumentData: Clean7Bit
%%LanguageLevel: 2
%%BoundingBox: 48 114 336 270
%%EndComments
%%BeginProlog
50 dict begin
/q { gsave } bind def
/Q { grestore } bind def
/cm { 6 array astore concat } bind def
/w { setlinewidth } bind def
/J { setlinecap } bind def
/j { setlinejoin } bind def
/M { setmiterlimit } bind def
/d { setdash } bind def
/m { moveto } bind def
/l { lineto } bind def
/c { curveto } bind def
/h { closepath } bind def
/re { exch dup neg 3 1 roll 5 3 roll moveto 0 rlineto
      0 exch rlineto 0 rlineto closepath } bind def
/S { stroke } bind def
/f { fill } bind def
/f* { eofill } bind def
/n { newpath } bind def
/W { clip } bind def
/W* { eoclip } bind def
/BT { } bind def
/ET { } bind def
/BDC { mark 3 1 roll /BDC pdfmark } bind def
/EMC { mark /EMC pdfmark } bind def
/cairo_store_point { /cairo_point_y exch def /cairo_point_x exch def } def
/Tj { show currentpoint cairo_store_point } bind def
/TJ {
  {
    dup
    type /stringtype eq
    { show } { -0.001 mul 0 cairo_font_matrix dtransform rmoveto } ifelse
  } forall
  currentpoint cairo_store_point
} bind def
/cairo_selectfont { cairo_font_matrix aload pop pop pop 0 0 6 array astore
    cairo_font exch selectfont cairo_point_x cairo_point_y moveto } bind def
/Tf { pop /cairo_font exch def /cairo_font_matrix where
      { pop cairo_selectfont } if } bind def
/Td { matrix translate cairo_font_matrix matrix concatmatrix dup
      /cairo_font_matrix exch def dup 4 get exch 5 get cairo_store_point
      /cairo_font where { pop cairo_selectfont } if } bind def
/Tm { 2 copy 8 2 roll 6 array astore /cairo_font_matrix exch def
      cairo_store_point /cairo_font where { pop cairo_selectfont } if } bind def
/g { setgray } bind def
/rg { setrgbcolor } bind def
/d1 { setcachedevice } bind def
/cairo_data_source {
  CairoDataIndex CairoData length lt
    { CairoData CairoDataIndex get /CairoDataIndex CairoDataIndex 1 add def }
    { () } ifelse
} def
/cairo_flush_ascii85_file { cairo_ascii85_file status { cairo_ascii85_file flushfile } if } def
/cairo_image { image cairo_flush_ascii85_file } def
/cairo_imagemask { imagemask cairo_flush_ascii85_file } def
%%EndProlog
%%BeginSetup
%%EndSetup
%%Page: 1 1
%%BeginPageSetup
%%PageBoundingBox: 48 114 336 270
%%EndPageSetup
q 48 114 288 156 rectclip
1 0 0 -1 0 384 cm q
0.878431 0.968627 0.980392 rg
144 126 m 111 126 l 82.836 126 60 148.836 60 177 c 60 205.164 82.836 228
 111 228 c 144 228 l h
144 126 m f
0.00392157 0.180392 0.321569 rg
302.484 189.516 m 297.805 184.828 290.195 184.828 285.516 189.516 c 280.828
 194.203 280.828 201.797 285.516 206.484 c 295.031 216 l 111 216 l 100.586
 216 90.793 211.945 83.426 204.57 c 76.055 197.207 72 187.414 72 177 c 72
 155.496 89.496 138 111 138 c 144 138 l 150.625 138 156 132.625 156 126 
c 156 119.375 150.625 114 144 114 c 111 114 l 76.262 114 48 142.262 48 177
 c 48 193.828 54.551 209.645 66.457 221.543 c 78.355 233.449 94.172 240 
111 240 c 295.031 240 l 285.516 249.516 l 280.828 254.203 280.828 261.797
 285.516 266.484 c 287.855 268.828 290.93 270 294 270 c 297.07 270 300.145
 268.828 302.484 266.484 c 332.484 236.484 l 337.172 231.797 337.172 224.203
 332.484 219.516 c h
302.484 189.516 m f
Q Q
showpage
%%Trailer
end
%%EOF
