%!PS-Adobe-3.0 EPSF-3.0
%%Creator: cairo 1.16.0 (https://cairographics.org)
%%CreationDate: Wed Oct 16 08:10:07 2019
%%Pages: 1
%%DocumentData: Clean7Bit
%%LanguageLevel: 2
%%BoundingBox: 48 114 336 270
%%EndComments
%%BeginProlog
50 dict begin
/q { gsave } bind def
/Q { grestore } bind def
/cm { 6 array astore concat } bind def
/w { setlinewidth } bind def
/J { setlinecap } bind def
/j { setlinejoin } bind def
/M { setmiterlimit } bind def
/d { setdash } bind def
/m { moveto } bind def
/l { lineto } bind def
/c { curveto } bind def
/h { closepath } bind def
/re { exch dup neg 3 1 roll 5 3 roll moveto 0 rlineto
      0 exch rlineto 0 rlineto closepath } bind def
/S { stroke } bind def
/f { fill } bind def
/f* { eofill } bind def
/n { newpath } bind def
/W { clip } bind def
/W* { eoclip } bind def
/BT { } bind def
/ET { } bind def
/BDC { mark 3 1 roll /BDC pdfmark } bind def
/EMC { mark /EMC pdfmark } bind def
/cairo_store_point { /cairo_point_y exch def /cairo_point_x exch def } def
/Tj { show currentpoint cairo_store_point } bind def
/TJ {
  {
    dup
    type /stringtype eq
    { show } { -0.001 mul 0 cairo_font_matrix dtransform rmoveto } ifelse
  } forall
  currentpoint cairo_store_point
} bind def
/cairo_selectfont { cairo_font_matrix aload pop pop pop 0 0 6 array astore
    cairo_font exch selectfont cairo_point_x cairo_point_y moveto } bind def
/Tf { pop /cairo_font exch def /cairo_font_matrix where
      { pop cairo_selectfont } if } bind def
/Td { matrix translate cairo_font_matrix matrix concatmatrix dup
      /cairo_font_matrix exch def dup 4 get exch 5 get cairo_store_point
      /cairo_font where { pop cairo_selectfont } if } bind def
/Tm { 2 copy 8 2 roll 6 array astore /cairo_font_matrix exch def
      cairo_store_point /cairo_font where { pop cairo_selectfont } if } bind def
/g { setgray } bind def
/rg { setrgbcolor } bind def
/d1 { setcachedevice } bind def
/cairo_data_source {
  CairoDataIndex CairoData length lt
    { CairoData CairoDataIndex get /CairoDataIndex CairoDataIndex 1 add def }
    { () } ifelse
} def
/cairo_flush_ascii85_file { cairo_ascii85_file status { cairo_ascii85_file flushfile } if } def
/cairo_image { image cairo_flush_ascii85_file } def
/cairo_imagemask { imagemask cairo_flush_ascii85_file } def
%%EndProlog
%%BeginSetup
%%EndSetup
%%Page: 1 1
%%BeginPageSetup
%%PageBoundingBox: 48 114 336 270
%%EndPageSetup
q 48 114 288 156 rectclip
1 0 0 -1 0 384 cm q
0.878431 0.968627 0.980392 rg
144 156 m 111 156 l 82.836 156 60 178.836 60 207 c 60 235.164 82.836 258
 111 258 c 144 258 l h
144 156 m f
0.00392157 0.180392 0.321569 rg
302.484 117.516 m 297.805 112.828 290.195 112.828 285.516 117.516 c 280.828
 122.203 280.828 129.797 285.516 134.484 c 295.031 144 l 111 144 l 94.172
 144 78.355 150.551 66.457 162.457 c 54.551 174.355 48 190.172 48 207 c 
48 241.738 76.262 270 111 270 c 144 270 l 150.625 270 156 264.625 156 258
 c 156 251.375 150.625 246 144 246 c 111 246 l 89.496 246 72 228.504 72 
207 c 72 196.586 76.055 186.793 83.43 179.426 c 90.793 172.055 100.586 168
 111 168 c 295.031 168 l 285.516 177.516 l 280.828 182.203 280.828 189.797
 285.516 194.484 c 287.855 196.828 290.93 198 294 198 c 297.07 198 300.145
 196.828 302.484 194.484 c 332.484 164.484 l 337.172 159.797 337.172 152.203
 332.484 147.516 c h
302.484 117.516 m f
Q Q
showpage
%%Trailer
end
%%EOF
