%!PS-Adobe-3.0 EPSF-3.0
%%Creator: cairo 1.16.0 (https://cairographics.org)
%%CreationDate: Wed Oct 16 08:10:07 2019
%%Pages: 1
%%DocumentData: Clean7Bit
%%LanguageLevel: 2
%%BoundingBox: 48 114 336 270
%%EndComments
%%BeginProlog
50 dict begin
/q { gsave } bind def
/Q { grestore } bind def
/cm { 6 array astore concat } bind def
/w { setlinewidth } bind def
/J { setlinecap } bind def
/j { setlinejoin } bind def
/M { setmiterlimit } bind def
/d { setdash } bind def
/m { moveto } bind def
/l { lineto } bind def
/c { curveto } bind def
/h { closepath } bind def
/re { exch dup neg 3 1 roll 5 3 roll moveto 0 rlineto
      0 exch rlineto 0 rlineto closepath } bind def
/S { stroke } bind def
/f { fill } bind def
/f* { eofill } bind def
/n { newpath } bind def
/W { clip } bind def
/W* { eoclip } bind def
/BT { } bind def
/ET { } bind def
/BDC { mark 3 1 roll /BDC pdfmark } bind def
/EMC { mark /EMC pdfmark } bind def
/cairo_store_point { /cairo_point_y exch def /cairo_point_x exch def } def
/Tj { show currentpoint cairo_store_point } bind def
/TJ {
  {
    dup
    type /stringtype eq
    { show } { -0.001 mul 0 cairo_font_matrix dtransform rmoveto } ifelse
  } forall
  currentpoint cairo_store_point
} bind def
/cairo_selectfont { cairo_font_matrix aload pop pop pop 0 0 6 array astore
    cairo_font exch selectfont cairo_point_x cairo_point_y moveto } bind def
/Tf { pop /cairo_font exch def /cairo_font_matrix where
      { pop cairo_selectfont } if } bind def
/Td { matrix translate cairo_font_matrix matrix concatmatrix dup
      /cairo_font_matrix exch def dup 4 get exch 5 get cairo_store_point
      /cairo_font where { pop cairo_selectfont } if } bind def
/Tm { 2 copy 8 2 roll 6 array astore /cairo_font_matrix exch def
      cairo_store_point /cairo_font where { pop cairo_selectfont } if } bind def
/g { setgray } bind def
/rg { setrgbcolor } bind def
/d1 { setcachedevice } bind def
/cairo_data_source {
  CairoDataIndex CairoData length lt
    { CairoData CairoDataIndex get /CairoDataIndex CairoDataIndex 1 add def }
    { () } ifelse
} def
/cairo_flush_ascii85_file { cairo_ascii85_file status { cairo_ascii85_file flushfile } if } def
/cairo_image { image cairo_flush_ascii85_file } def
/cairo_imagemask { imagemask cairo_flush_ascii85_file } def
%%EndProlog
%%BeginSetup
%%EndSetup
%%Page: 1 1
%%BeginPageSetup
%%PageBoundingBox: 48 114 336 270
%%EndPageSetup
q 48 114 288 156 rectclip
1 0 0 -1 0 384 cm q
0.878431 0.968627 0.980392 rg
240 258 m 273 258 l 301.164 258 324 235.164 324 207 c 324 178.836 301.164
 156 273 156 c 240 156 l h
240 258 m f
0.00392157 0.180392 0.321569 rg
273 144 m 88.969 144 l 98.484 134.484 l 103.172 129.797 103.172 122.203
 98.484 117.516 c 93.805 112.828 86.195 112.828 81.516 117.516 c 51.516 
147.516 l 46.828 152.203 46.828 159.797 51.516 164.484 c 81.516 194.484 
l 83.855 196.828 86.93 198 90 198 c 93.07 198 96.145 196.828 98.484 194.484
 c 103.172 189.797 103.172 182.203 98.484 177.516 c 88.969 168 l 273 168
 l 283.41 168 293.203 172.055 300.574 179.43 c 307.938 186.793 312 196.586
 312 207 c 312 228.504 294.504 246 273 246 c 240 246 l 233.375 246 228 251.375
 228 258 c 228 264.625 233.375 270 240 270 c 273 270 l 307.738 270 336 241.738
 336 207 c 336 190.172 329.441 174.355 317.543 162.457 c 305.641 150.551
 289.824 144 273 144 c h
273 144 m f
Q Q
showpage
%%Trailer
end
%%EOF
