%!PS-Adobe-3.0 EPSF-3.0
%%Creator: cairo 1.16.0 (https://cairographics.org)
%%CreationDate: Wed Oct 16 08:10:07 2019
%%Pages: 1
%%DocumentData: Clean7Bit
%%LanguageLevel: 2
%%BoundingBox: 48 114 336 270
%%EndComments
%%BeginProlog
50 dict begin
/q { gsave } bind def
/Q { grestore } bind def
/cm { 6 array astore concat } bind def
/w { setlinewidth } bind def
/J { setlinecap } bind def
/j { setlinejoin } bind def
/M { setmiterlimit } bind def
/d { setdash } bind def
/m { moveto } bind def
/l { lineto } bind def
/c { curveto } bind def
/h { closepath } bind def
/re { exch dup neg 3 1 roll 5 3 roll moveto 0 rlineto
      0 exch rlineto 0 rlineto closepath } bind def
/S { stroke } bind def
/f { fill } bind def
/f* { eofill } bind def
/n { newpath } bind def
/W { clip } bind def
/W* { eoclip } bind def
/BT { } bind def
/ET { } bind def
/BDC { mark 3 1 roll /BDC pdfmark } bind def
/EMC { mark /EMC pdfmark } bind def
/cairo_store_point { /cairo_point_y exch def /cairo_point_x exch def } def
/Tj { show currentpoint cairo_store_point } bind def
/TJ {
  {
    dup
    type /stringtype eq
    { show } { -0.001 mul 0 cairo_font_matrix dtransform rmoveto } ifelse
  } forall
  currentpoint cairo_store_point
} bind def
/cairo_selectfont { cairo_font_matrix aload pop pop pop 0 0 6 array astore
    cairo_font exch selectfont cairo_point_x cairo_point_y moveto } bind def
/Tf { pop /cairo_font exch def /cairo_font_matrix where
      { pop cairo_selectfont } if } bind def
/Td { matrix translate cairo_font_matrix matrix concatmatrix dup
      /cairo_font_matrix exch def dup 4 get exch 5 get cairo_store_point
      /cairo_font where { pop cairo_selectfont } if } bind def
/Tm { 2 copy 8 2 roll 6 array astore /cairo_font_matrix exch def
      cairo_store_point /cairo_font where { pop cairo_selectfont } if } bind def
/g { setgray } bind def
/rg { setrgbcolor } bind def
/d1 { setcachedevice } bind def
/cairo_data_source {
  CairoDataIndex CairoData length lt
    { CairoData CairoDataIndex get /CairoDataIndex CairoDataIndex 1 add def }
    { () } ifelse
} def
/cairo_flush_ascii85_file { cairo_ascii85_file status { cairo_ascii85_file flushfile } if } def
/cairo_image { image cairo_flush_ascii85_file } def
/cairo_imagemask { imagemask cairo_flush_ascii85_file } def
%%EndProlog
%%BeginSetup
%%EndSetup
%%Page: 1 1
%%BeginPageSetup
%%PageBoundingBox: 48 114 336 270
%%EndPageSetup
q 48 114 288 156 rectclip
1 0 0 -1 0 384 cm q
0.878431 0.968627 0.980392 rg
240 228 m 273 228 l 301.164 228 324 205.164 324 177 c 324 148.836 301.164
 126 273 126 c 240 126 l h
240 228 m f
0.00392157 0.180392 0.321569 rg
273 114 m 240 114 l 233.375 114 228 119.375 228 126 c 228 132.625 233.375
 138 240 138 c 273 138 l 294.504 138 312 155.496 312 177 c 312 187.414 307.938
 197.207 300.574 204.574 c 293.203 211.945 283.41 216 273 216 c 88.969 216
 l 98.484 206.484 l 103.172 201.797 103.172 194.203 98.484 189.516 c 93.797
 184.828 86.203 184.828 81.516 189.516 c 51.516 219.516 l 46.828 224.203
 46.828 231.797 51.516 236.484 c 81.516 266.484 l 83.863 268.828 86.93 270
 90 270 c 93.07 270 96.137 268.828 98.484 266.484 c 103.172 261.797 103.172
 254.203 98.484 249.516 c 88.969 240 l 273 240 l 289.824 240 305.641 233.449
 317.543 221.543 c 329.449 209.641 336 193.828 336 177 c 336 142.262 307.738
 114 273 114 c h
273 114 m f
Q Q
showpage
%%Trailer
end
%%EOF
