%!PS-Adobe-3.0 EPSF-3.0
%%Creator: cairo 1.16.0 (https://cairographics.org)
%%CreationDate: Wed Oct 16 08:10:08 2019
%%Pages: 1
%%DocumentData: Clean7Bit
%%LanguageLevel: 2
%%BoundingBox: 48 72 336 312
%%EndComments
%%BeginProlog
50 dict begin
/q { gsave } bind def
/Q { grestore } bind def
/cm { 6 array astore concat } bind def
/w { setlinewidth } bind def
/J { setlinecap } bind def
/j { setlinejoin } bind def
/M { setmiterlimit } bind def
/d { setdash } bind def
/m { moveto } bind def
/l { lineto } bind def
/c { curveto } bind def
/h { closepath } bind def
/re { exch dup neg 3 1 roll 5 3 roll moveto 0 rlineto
      0 exch rlineto 0 rlineto closepath } bind def
/S { stroke } bind def
/f { fill } bind def
/f* { eofill } bind def
/n { newpath } bind def
/W { clip } bind def
/W* { eoclip } bind def
/BT { } bind def
/ET { } bind def
/BDC { mark 3 1 roll /BDC pdfmark } bind def
/EMC { mark /EMC pdfmark } bind def
/cairo_store_point { /cairo_point_y exch def /cairo_point_x exch def } def
/Tj { show currentpoint cairo_store_point } bind def
/TJ {
  {
    dup
    type /stringtype eq
    { show } { -0.001 mul 0 cairo_font_matrix dtransform rmoveto } ifelse
  } forall
  currentpoint cairo_store_point
} bind def
/cairo_selectfont { cairo_font_matrix aload pop pop pop 0 0 6 array astore
    cairo_font exch selectfont cairo_point_x cairo_point_y moveto } bind def
/Tf { pop /cairo_font exch def /cairo_font_matrix where
      { pop cairo_selectfont } if } bind def
/Td { matrix translate cairo_font_matrix matrix concatmatrix dup
      /cairo_font_matrix exch def dup 4 get exch 5 get cairo_store_point
      /cairo_font where { pop cairo_selectfont } if } bind def
/Tm { 2 copy 8 2 roll 6 array astore /cairo_font_matrix exch def
      cairo_store_point /cairo_font where { pop cairo_selectfont } if } bind def
/g { setgray } bind def
/rg { setrgbcolor } bind def
/d1 { setcachedevice } bind def
/cairo_data_source {
  CairoDataIndex CairoData length lt
    { CairoData CairoDataIndex get /CairoDataIndex CairoDataIndex 1 add def }
    { () } ifelse
} def
/cairo_flush_ascii85_file { cairo_ascii85_file status { cairo_ascii85_file flushfile } if } def
/cairo_image { image cairo_flush_ascii85_file } def
/cairo_imagemask { imagemask cairo_flush_ascii85_file } def
%%EndProlog
%%BeginSetup
%%EndSetup
%%Page: 1 1
%%BeginPageSetup
%%PageBoundingBox: 48 72 336 312
%%EndPageSetup
q 48 72 288 240 rectclip
1 0 0 -1 0 384 cm q
0.878431 0.968627 0.980392 rg
300 192 m 300 251.648 251.648 300 192 300 c 132.352 300 84 251.648 84 192
 c 84 132.352 132.352 84 192 84 c 251.648 84 300 132.352 300 192 c h
300 192 m f
0.00392157 0.180392 0.321569 rg
192 72 m 143.91 72 100.668 100.844 81.895 144.523 c 68.953 130.016 l 64.547
 125.059 56.953 124.621 52.016 129.047 c 47.07 133.457 46.637 141.043 51.047
 145.984 c 77.809 175.984 l 80.125 178.586 83.395 180 86.762 180 c 87.93
 180 89.117 179.832 90.27 179.473 c 129.512 167.473 l 135.852 165.539 139.41
 158.832 137.473 152.488 c 135.539 146.148 128.812 142.586 122.488 144.527
 c 106.016 149.562 l 121.969 117.137 155.195 96 192 96 c 237.148 96 275.621
 126.691 285.535 170.641 c 286.793 176.215 291.742 180 297.227 180 c 298.105
 180 298.992 179.902 299.879 179.707 c 306.344 178.246 310.402 171.828 308.945
 165.355 c 296.543 110.387 248.453 72 192 72 c h
192 72 m f
192 288 m 146.852 288 108.379 257.309 98.465 213.359 c 97.004 206.902 90.605
 202.836 84.113 204.293 c 77.652 205.754 73.59 212.172 75.047 218.645 c 
87.457 273.613 135.547 312 192 312 c 240.09 312 283.332 283.156 302.105 
239.477 c 315.047 253.984 l 317.41 256.645 320.699 258 324.008 258 c 326.852
 258 329.699 256.996 331.984 254.953 c 336.93 250.543 337.363 242.957 332.953
 238.016 c 306.191 208.016 l 303.066 204.516 298.195 203.141 293.73 204.527
 c 254.488 216.527 l 248.148 218.461 244.59 225.168 246.527 231.512 c 248.461
 237.852 255.16 241.391 261.512 239.473 c 277.984 234.438 l 262.031 266.863
 228.805 288 192 288 c h
192 288 m f
Q Q
showpage
%%Trailer
end
%%EOF
