%!PS-Adobe-3.0 EPSF-3.0
%%Creator: cairo 1.16.0 (https://cairographics.org)
%%CreationDate: Wed Oct 16 08:10:09 2019
%%Pages: 1
%%DocumentData: Clean7Bit
%%LanguageLevel: 2
%%BoundingBox: 144 48 240 336
%%EndComments
%%BeginProlog
50 dict begin
/q { gsave } bind def
/Q { grestore } bind def
/cm { 6 array astore concat } bind def
/w { setlinewidth } bind def
/J { setlinecap } bind def
/j { setlinejoin } bind def
/M { setmiterlimit } bind def
/d { setdash } bind def
/m { moveto } bind def
/l { lineto } bind def
/c { curveto } bind def
/h { closepath } bind def
/re { exch dup neg 3 1 roll 5 3 roll moveto 0 rlineto
      0 exch rlineto 0 rlineto closepath } bind def
/S { stroke } bind def
/f { fill } bind def
/f* { eofill } bind def
/n { newpath } bind def
/W { clip } bind def
/W* { eoclip } bind def
/BT { } bind def
/ET { } bind def
/BDC { mark 3 1 roll /BDC pdfmark } bind def
/EMC { mark /EMC pdfmark } bind def
/cairo_store_point { /cairo_point_y exch def /cairo_point_x exch def } def
/Tj { show currentpoint cairo_store_point } bind def
/TJ {
  {
    dup
    type /stringtype eq
    { show } { -0.001 mul 0 cairo_font_matrix dtransform rmoveto } ifelse
  } forall
  currentpoint cairo_store_point
} bind def
/cairo_selectfont { cairo_font_matrix aload pop pop pop 0 0 6 array astore
    cairo_font exch selectfont cairo_point_x cairo_point_y moveto } bind def
/Tf { pop /cairo_font exch def /cairo_font_matrix where
      { pop cairo_selectfont } if } bind def
/Td { matrix translate cairo_font_matrix matrix concatmatrix dup
      /cairo_font_matrix exch def dup 4 get exch 5 get cairo_store_point
      /cairo_font where { pop cairo_selectfont } if } bind def
/Tm { 2 copy 8 2 roll 6 array astore /cairo_font_matrix exch def
      cairo_store_point /cairo_font where { pop cairo_selectfont } if } bind def
/g { setgray } bind def
/rg { setrgbcolor } bind def
/d1 { setcachedevice } bind def
/cairo_data_source {
  CairoDataIndex CairoData length lt
    { CairoData CairoDataIndex get /CairoDataIndex CairoDataIndex 1 add def }
    { () } ifelse
} def
/cairo_flush_ascii85_file { cairo_ascii85_file status { cairo_ascii85_file flushfile } if } def
/cairo_image { image cairo_flush_ascii85_file } def
/cairo_imagemask { imagemask cairo_flush_ascii85_file } def
%%EndProlog
%%BeginSetup
%%EndSetup
%%Page: 1 1
%%BeginPageSetup
%%PageBoundingBox: 144 48 240 336
%%EndPageSetup
q 144 48 96 288 rectclip
1 0 0 -1 0 384 cm q
0.00392157 0.180392 0.321569 rg
192 48 m 185.375 48 180 53.375 180 60 c 180 139.031 l 164.484 123.516 l
 159.805 118.828 152.195 118.828 147.516 123.516 c 142.828 128.203 142.828
 135.797 147.516 140.484 c 183.516 176.484 l 185.855 178.828 188.93 180 
192 180 c 195.07 180 198.145 178.828 200.484 176.484 c 236.484 140.484 l
 241.172 135.797 241.172 128.203 236.484 123.516 c 231.805 118.828 224.195
 118.828 219.516 123.516 c 204 139.031 l 204 60 l 204 53.375 198.625 48 
192 48 c h
192 48 m f
147.516 260.484 m 152.195 265.172 159.805 265.172 164.484 260.484 c 180
 244.969 l 180 324 l 180 330.625 185.375 336 192 336 c 198.625 336 204 330.625
 204 324 c 204 244.969 l 219.516 260.484 l 221.855 262.828 224.93 264 228
 264 c 231.07 264 234.145 262.828 236.484 260.484 c 241.172 255.797 241.172
 248.203 236.484 243.516 c 200.484 207.516 l 195.805 202.828 188.195 202.828
 183.516 207.516 c 147.516 243.516 l 142.828 248.203 142.828 255.797 147.516
 260.484 c h
147.516 260.484 m f
Q Q
showpage
%%Trailer
end
%%EOF
