%!PS-Adobe-3.0 EPSF-3.0
%%Creator: cairo 1.16.0 (https://cairographics.org)
%%CreationDate: Wed Oct 16 08:10:09 2019
%%Pages: 1
%%DocumentData: Clean7Bit
%%LanguageLevel: 2
%%BoundingBox: 48 90 336 294
%%EndComments
%%BeginProlog
50 dict begin
/q { gsave } bind def
/Q { grestore } bind def
/cm { 6 array astore concat } bind def
/w { setlinewidth } bind def
/J { setlinecap } bind def
/j { setlinejoin } bind def
/M { setmiterlimit } bind def
/d { setdash } bind def
/m { moveto } bind def
/l { lineto } bind def
/c { curveto } bind def
/h { closepath } bind def
/re { exch dup neg 3 1 roll 5 3 roll moveto 0 rlineto
      0 exch rlineto 0 rlineto closepath } bind def
/S { stroke } bind def
/f { fill } bind def
/f* { eofill } bind def
/n { newpath } bind def
/W { clip } bind def
/W* { eoclip } bind def
/BT { } bind def
/ET { } bind def
/BDC { mark 3 1 roll /BDC pdfmark } bind def
/EMC { mark /EMC pdfmark } bind def
/cairo_store_point { /cairo_point_y exch def /cairo_point_x exch def } def
/Tj { show currentpoint cairo_store_point } bind def
/TJ {
  {
    dup
    type /stringtype eq
    { show } { -0.001 mul 0 cairo_font_matrix dtransform rmoveto } ifelse
  } forall
  currentpoint cairo_store_point
} bind def
/cairo_selectfont { cairo_font_matrix aload pop pop pop 0 0 6 array astore
    cairo_font exch selectfont cairo_point_x cairo_point_y moveto } bind def
/Tf { pop /cairo_font exch def /cairo_font_matrix where
      { pop cairo_selectfont } if } bind def
/Td { matrix translate cairo_font_matrix matrix concatmatrix dup
      /cairo_font_matrix exch def dup 4 get exch 5 get cairo_store_point
      /cairo_font where { pop cairo_selectfont } if } bind def
/Tm { 2 copy 8 2 roll 6 array astore /cairo_font_matrix exch def
      cairo_store_point /cairo_font where { pop cairo_selectfont } if } bind def
/g { setgray } bind def
/rg { setrgbcolor } bind def
/d1 { setcachedevice } bind def
/cairo_data_source {
  CairoDataIndex CairoData length lt
    { CairoData CairoDataIndex get /CairoDataIndex CairoDataIndex 1 add def }
    { () } ifelse
} def
/cairo_flush_ascii85_file { cairo_ascii85_file status { cairo_ascii85_file flushfile } if } def
/cairo_image { image cairo_flush_ascii85_file } def
/cairo_imagemask { imagemask cairo_flush_ascii85_file } def
%%EndProlog
%%BeginSetup
%%EndSetup
%%Page: 1 1
%%BeginPageSetup
%%PageBoundingBox: 48 90 336 294
%%EndPageSetup
q 48 90 288 204 rectclip
1 0 0 -1 0 384 cm q
0.00392157 0.180392 0.321569 rg
302.484 213.516 m 297.797 208.828 290.203 208.828 285.516 213.516 c 280.828
 218.203 280.828 225.797 285.516 230.484 c 295.031 240 l 263.039 240 l 252.066
 240 241.836 235.078 234.965 226.5 c 207.367 192 l 234.965 157.5 l 241.836
 148.922 252.066 144 263.039 144 c 295.031 144 l 285.516 153.516 l 280.828
 158.203 280.828 165.797 285.516 170.484 c 287.863 172.828 290.93 174 294
 174 c 297.07 174 300.137 172.828 302.484 170.484 c 332.484 140.484 l 337.172
 135.797 337.172 128.203 332.484 123.516 c 302.484 93.516 l 297.797 88.828
 290.203 88.828 285.516 93.516 c 280.828 98.203 280.828 105.797 285.516 
110.484 c 295.031 120 l 263.039 120 l 244.734 120 227.672 128.203 216.227
 142.5 c 192 172.789 l 167.773 142.5 l 156.328 128.203 139.266 120 120.961
 120 c 60 120 l 53.375 120 48 125.375 48 132 c 48 138.625 53.375 144 60 
144 c 120.961 144 l 131.934 144 142.164 148.922 149.035 157.5 c 176.633 
192 l 149.035 226.5 l 142.164 235.078 131.934 240 120.961 240 c 60 240 l
 53.375 240 48 245.375 48 252 c 48 258.625 53.375 264 60 264 c 120.961 264
 l 139.266 264 156.328 255.797 167.773 241.5 c 192 211.211 l 216.227 241.5
 l 227.672 255.797 244.734 264 263.039 264 c 295.031 264 l 285.516 273.516
 l 280.828 278.203 280.828 285.797 285.516 290.484 c 287.863 292.828 290.93
 294 294 294 c 297.07 294 300.137 292.828 302.484 290.484 c 332.484 260.484
 l 337.172 255.797 337.172 248.203 332.484 243.516 c h
302.484 213.516 m f
Q Q
showpage
%%Trailer
end
%%EOF
