%!PS-Adobe-3.0 EPSF-3.0
%%Creator: cairo 1.16.0 (https://cairographics.org)
%%CreationDate: Wed Oct 16 08:10:09 2019
%%Pages: 1
%%DocumentData: Clean7Bit
%%LanguageLevel: 2
%%BoundingBox: 48 90 336 294
%%EndComments
%%BeginProlog
50 dict begin
/q { gsave } bind def
/Q { grestore } bind def
/cm { 6 array astore concat } bind def
/w { setlinewidth } bind def
/J { setlinecap } bind def
/j { setlinejoin } bind def
/M { setmiterlimit } bind def
/d { setdash } bind def
/m { moveto } bind def
/l { lineto } bind def
/c { curveto } bind def
/h { closepath } bind def
/re { exch dup neg 3 1 roll 5 3 roll moveto 0 rlineto
      0 exch rlineto 0 rlineto closepath } bind def
/S { stroke } bind def
/f { fill } bind def
/f* { eofill } bind def
/n { newpath } bind def
/W { clip } bind def
/W* { eoclip } bind def
/BT { } bind def
/ET { } bind def
/BDC { mark 3 1 roll /BDC pdfmark } bind def
/EMC { mark /EMC pdfmark } bind def
/cairo_store_point { /cairo_point_y exch def /cairo_point_x exch def } def
/Tj { show currentpoint cairo_store_point } bind def
/TJ {
  {
    dup
    type /stringtype eq
    { show } { -0.001 mul 0 cairo_font_matrix dtransform rmoveto } ifelse
  } forall
  currentpoint cairo_store_point
} bind def
/cairo_selectfont { cairo_font_matrix aload pop pop pop 0 0 6 array astore
    cairo_font exch selectfont cairo_point_x cairo_point_y moveto } bind def
/Tf { pop /cairo_font exch def /cairo_font_matrix where
      { pop cairo_selectfont } if } bind def
/Td { matrix translate cairo_font_matrix matrix concatmatrix dup
      /cairo_font_matrix exch def dup 4 get exch 5 get cairo_store_point
      /cairo_font where { pop cairo_selectfont } if } bind def
/Tm { 2 copy 8 2 roll 6 array astore /cairo_font_matrix exch def
      cairo_store_point /cairo_font where { pop cairo_selectfont } if } bind def
/g { setgray } bind def
/rg { setrgbcolor } bind def
/d1 { setcachedevice } bind def
/cairo_data_source {
  CairoDataIndex CairoData length lt
    { CairoData CairoDataIndex get /CairoDataIndex CairoDataIndex 1 add def }
    { () } ifelse
} def
/cairo_flush_ascii85_file { cairo_ascii85_file status { cairo_ascii85_file flushfile } if } def
/cairo_image { image cairo_flush_ascii85_file } def
/cairo_imagemask { imagemask cairo_flush_ascii85_file } def
%%EndProlog
%%BeginSetup
%%EndSetup
%%Page: 1 1
%%BeginPageSetup
%%PageBoundingBox: 48 90 336 294
%%EndPageSetup
q 48 90 288 204 rectclip
1 0 0 -1 0 384 cm q
0.00392157 0.180392 0.321569 rg
290.484 93.516 m 285.797 88.828 278.203 88.828 273.516 93.516 c 268.828
 98.203 268.828 105.797 273.516 110.484 c 295.031 132 l 60 132 l 53.375 
132 48 137.375 48 144 c 48 150.625 53.375 156 60 156 c 295.031 156 l 273.516
 177.516 l 268.828 182.203 268.828 189.797 273.516 194.484 c 275.863 196.828
 278.93 198 282 198 c 285.07 198 288.137 196.828 290.484 194.484 c 332.484
 152.484 l 337.172 147.797 337.172 140.203 332.484 135.516 c h
290.484 93.516 m f
324 228 m 88.969 228 l 110.484 206.484 l 115.172 201.797 115.172 194.203
 110.484 189.516 c 105.797 184.828 98.203 184.828 93.516 189.516 c 51.516
 231.516 l 46.828 236.203 46.828 243.797 51.516 248.484 c 93.516 290.484
 l 95.863 292.828 98.93 294 102 294 c 105.07 294 108.137 292.828 110.484
 290.484 c 115.172 285.797 115.172 278.203 110.484 273.516 c 88.969 252 
l 324 252 l 330.625 252 336 246.625 336 240 c 336 233.375 330.625 228 324
 228 c h
324 228 m f
Q Q
showpage
%%Trailer
end
%%EOF
