%!PS-Adobe-3.0 EPSF-3.0
%%Creator: cairo 1.16.0 (https://cairographics.org)
%%CreationDate: Wed Oct 16 08:10:10 2019
%%Pages: 1
%%DocumentData: Clean7Bit
%%LanguageLevel: 2
%%BoundingBox: 84 48 300 336
%%EndComments
%%BeginProlog
50 dict begin
/q { gsave } bind def
/Q { grestore } bind def
/cm { 6 array astore concat } bind def
/w { setlinewidth } bind def
/J { setlinecap } bind def
/j { setlinejoin } bind def
/M { setmiterlimit } bind def
/d { setdash } bind def
/m { moveto } bind def
/l { lineto } bind def
/c { curveto } bind def
/h { closepath } bind def
/re { exch dup neg 3 1 roll 5 3 roll moveto 0 rlineto
      0 exch rlineto 0 rlineto closepath } bind def
/S { stroke } bind def
/f { fill } bind def
/f* { eofill } bind def
/n { newpath } bind def
/W { clip } bind def
/W* { eoclip } bind def
/BT { } bind def
/ET { } bind def
/BDC { mark 3 1 roll /BDC pdfmark } bind def
/EMC { mark /EMC pdfmark } bind def
/cairo_store_point { /cairo_point_y exch def /cairo_point_x exch def } def
/Tj { show currentpoint cairo_store_point } bind def
/TJ {
  {
    dup
    type /stringtype eq
    { show } { -0.001 mul 0 cairo_font_matrix dtransform rmoveto } ifelse
  } forall
  currentpoint cairo_store_point
} bind def
/cairo_selectfont { cairo_font_matrix aload pop pop pop 0 0 6 array astore
    cairo_font exch selectfont cairo_point_x cairo_point_y moveto } bind def
/Tf { pop /cairo_font exch def /cairo_font_matrix where
      { pop cairo_selectfont } if } bind def
/Td { matrix translate cairo_font_matrix matrix concatmatrix dup
      /cairo_font_matrix exch def dup 4 get exch 5 get cairo_store_point
      /cairo_font where { pop cairo_selectfont } if } bind def
/Tm { 2 copy 8 2 roll 6 array astore /cairo_font_matrix exch def
      cairo_store_point /cairo_font where { pop cairo_selectfont } if } bind def
/g { setgray } bind def
/rg { setrgbcolor } bind def
/d1 { setcachedevice } bind def
/cairo_data_source {
  CairoDataIndex CairoData length lt
    { CairoData CairoDataIndex get /CairoDataIndex CairoDataIndex 1 add def }
    { () } ifelse
} def
/cairo_flush_ascii85_file { cairo_ascii85_file status { cairo_ascii85_file flushfile } if } def
/cairo_image { image cairo_flush_ascii85_file } def
/cairo_imagemask { imagemask cairo_flush_ascii85_file } def
%%EndProlog
%%BeginSetup
%%EndSetup
%%Page: 1 1
%%BeginPageSetup
%%PageBoundingBox: 84 48 300 336
%%EndPageSetup
q 84 48 216 288 rectclip
1 0 0 -1 0 384 cm q
0.00392157 0.180392 0.321569 rg
188.484 93.516 m 146.484 51.516 l 141.805 46.828 134.195 46.828 129.516
 51.516 c 87.516 93.516 l 82.828 98.203 82.828 105.797 87.516 110.484 c 
92.195 115.172 99.805 115.172 104.484 110.484 c 126 88.969 l 126 324 l 126
 330.625 131.375 336 138 336 c 144.625 336 150 330.625 150 324 c 150 88.969
 l 171.516 110.484 l 173.855 112.828 176.93 114 180 114 c 183.07 114 186.145
 112.828 188.484 110.484 c 193.172 105.797 193.172 98.203 188.484 93.516
 c h
188.484 93.516 m f
279.516 273.516 m 258 295.031 l 258 60 l 258 53.375 252.625 48 246 48 c
 239.375 48 234 53.375 234 60 c 234 295.031 l 212.484 273.516 l 207.805 
268.828 200.195 268.828 195.516 273.516 c 190.828 278.203 190.828 285.797
 195.516 290.484 c 237.516 332.484 l 239.855 334.828 242.93 336 246 336 
c 249.07 336 252.145 334.828 254.484 332.484 c 296.484 290.484 l 301.172
 285.797 301.172 278.203 296.484 273.516 c 291.805 268.828 284.195 268.828
 279.516 273.516 c h
279.516 273.516 m f
Q Q
showpage
%%Trailer
end
%%EOF
