%!PS-Adobe-3.0 EPSF-3.0
%%Creator: cairo 1.16.0 (https://cairographics.org)
%%CreationDate: Wed Oct 16 08:10:11 2019
%%Pages: 1
%%DocumentData: Clean7Bit
%%LanguageLevel: 2
%%BoundingBox: 48 48 336 336
%%EndComments
%%BeginProlog
50 dict begin
/q { gsave } bind def
/Q { grestore } bind def
/cm { 6 array astore concat } bind def
/w { setlinewidth } bind def
/J { setlinecap } bind def
/j { setlinejoin } bind def
/M { setmiterlimit } bind def
/d { setdash } bind def
/m { moveto } bind def
/l { lineto } bind def
/c { curveto } bind def
/h { closepath } bind def
/re { exch dup neg 3 1 roll 5 3 roll moveto 0 rlineto
      0 exch rlineto 0 rlineto closepath } bind def
/S { stroke } bind def
/f { fill } bind def
/f* { eofill } bind def
/n { newpath } bind def
/W { clip } bind def
/W* { eoclip } bind def
/BT { } bind def
/ET { } bind def
/BDC { mark 3 1 roll /BDC pdfmark } bind def
/EMC { mark /EMC pdfmark } bind def
/cairo_store_point { /cairo_point_y exch def /cairo_point_x exch def } def
/Tj { show currentpoint cairo_store_point } bind def
/TJ {
  {
    dup
    type /stringtype eq
    { show } { -0.001 mul 0 cairo_font_matrix dtransform rmoveto } ifelse
  } forall
  currentpoint cairo_store_point
} bind def
/cairo_selectfont { cairo_font_matrix aload pop pop pop 0 0 6 array astore
    cairo_font exch selectfont cairo_point_x cairo_point_y moveto } bind def
/Tf { pop /cairo_font exch def /cairo_font_matrix where
      { pop cairo_selectfont } if } bind def
/Td { matrix translate cairo_font_matrix matrix concatmatrix dup
      /cairo_font_matrix exch def dup 4 get exch 5 get cairo_store_point
      /cairo_font where { pop cairo_selectfont } if } bind def
/Tm { 2 copy 8 2 roll 6 array astore /cairo_font_matrix exch def
      cairo_store_point /cairo_font where { pop cairo_selectfont } if } bind def
/g { setgray } bind def
/rg { setrgbcolor } bind def
/d1 { setcachedevice } bind def
/cairo_data_source {
  CairoDataIndex CairoData length lt
    { CairoData CairoDataIndex get /CairoDataIndex CairoDataIndex 1 add def }
    { () } ifelse
} def
/cairo_flush_ascii85_file { cairo_ascii85_file status { cairo_ascii85_file flushfile } if } def
/cairo_image { image cairo_flush_ascii85_file } def
/cairo_imagemask { imagemask cairo_flush_ascii85_file } def
%%EndProlog
%%BeginSetup
%%EndSetup
%%Page: 1 1
%%BeginPageSetup
%%PageBoundingBox: 48 48 336 336
%%EndPageSetup
q 48 48 288 288 rectclip
1 0 0 -1 0 384 cm q
0.301961 0.815686 0.882353 rg
324.031 192 m 324.031 264.918 264.918 324.031 192 324.031 c 119.082 324.031
 59.969 264.918 59.969 192 c 59.969 119.082 119.082 59.969 192 59.969 c 
264.918 59.969 324.031 119.082 324.031 192 c h
324.031 192 m f
0.00392157 0.180392 0.321569 rg
192 335.914 m 228.883 335.914 265.766 321.895 293.852 293.844 c 349.945
 237.691 349.945 146.316 293.84 90.148 c 237.684 34.055 146.316 34.062 90.16
 90.148 c 90.16 90.148 90.156 90.156 90.156 90.156 c 34.066 146.309 34.066
 237.684 90.16 293.852 c 118.234 321.895 155.117 335.914 192 335.914 c h
107.125 107.125 m 153.938 60.383 230.082 60.383 276.871 107.125 c 323.621
 153.926 323.621 230.082 276.883 276.875 c 230.074 323.621 153.926 323.621
 107.129 276.883 c 60.383 230.082 60.383 153.93 107.125 107.125 c h
107.125 107.125 m f
168 246 m 168 252.625 173.375 258 180 258 c 234 258 l 247.234 258 258 247.234
 258 234 c 258 180 l 258 173.375 252.625 168 246 168 c 239.375 168 234 173.375
 234 180 c 234 234 l 180 234 l 173.375 234 168 239.375 168 246 c h
168 246 m f
132 210 m 186 210 l 199.234 210 210 199.234 210 186 c 210 132 l 210 125.375
 204.625 120 198 120 c 191.375 120 186 125.375 186 132 c 186 186 l 132 186
 l 125.375 186 120 191.375 120 198 c 120 204.625 125.375 210 132 210 c h
132 210 m f
Q Q
showpage
%%Trailer
end
%%EOF
