%!PS-Adobe-3.0 EPSF-3.0
%%Creator: cairo 1.16.0 (https://cairographics.org)
%%CreationDate: Wed Oct 16 08:10:15 2019
%%Pages: 1
%%DocumentData: Clean7Bit
%%LanguageLevel: 2
%%BoundingBox: 48 48 336 336
%%EndComments
%%BeginProlog
50 dict begin
/q { gsave } bind def
/Q { grestore } bind def
/cm { 6 array astore concat } bind def
/w { setlinewidth } bind def
/J { setlinecap } bind def
/j { setlinejoin } bind def
/M { setmiterlimit } bind def
/d { setdash } bind def
/m { moveto } bind def
/l { lineto } bind def
/c { curveto } bind def
/h { closepath } bind def
/re { exch dup neg 3 1 roll 5 3 roll moveto 0 rlineto
      0 exch rlineto 0 rlineto closepath } bind def
/S { stroke } bind def
/f { fill } bind def
/f* { eofill } bind def
/n { newpath } bind def
/W { clip } bind def
/W* { eoclip } bind def
/BT { } bind def
/ET { } bind def
/BDC { mark 3 1 roll /BDC pdfmark } bind def
/EMC { mark /EMC pdfmark } bind def
/cairo_store_point { /cairo_point_y exch def /cairo_point_x exch def } def
/Tj { show currentpoint cairo_store_point } bind def
/TJ {
  {
    dup
    type /stringtype eq
    { show } { -0.001 mul 0 cairo_font_matrix dtransform rmoveto } ifelse
  } forall
  currentpoint cairo_store_point
} bind def
/cairo_selectfont { cairo_font_matrix aload pop pop pop 0 0 6 array astore
    cairo_font exch selectfont cairo_point_x cairo_point_y moveto } bind def
/Tf { pop /cairo_font exch def /cairo_font_matrix where
      { pop cairo_selectfont } if } bind def
/Td { matrix translate cairo_font_matrix matrix concatmatrix dup
      /cairo_font_matrix exch def dup 4 get exch 5 get cairo_store_point
      /cairo_font where { pop cairo_selectfont } if } bind def
/Tm { 2 copy 8 2 roll 6 array astore /cairo_font_matrix exch def
      cairo_store_point /cairo_font where { pop cairo_selectfont } if } bind def
/g { setgray } bind def
/rg { setrgbcolor } bind def
/d1 { setcachedevice } bind def
/cairo_data_source {
  CairoDataIndex CairoData length lt
    { CairoData CairoDataIndex get /CairoDataIndex CairoDataIndex 1 add def }
    { () } ifelse
} def
/cairo_flush_ascii85_file { cairo_ascii85_file status { cairo_ascii85_file flushfile } if } def
/cairo_image { image cairo_flush_ascii85_file } def
/cairo_imagemask { imagemask cairo_flush_ascii85_file } def
%%EndProlog
%%BeginSetup
%%EndSetup
%%Page: 1 1
%%BeginPageSetup
%%PageBoundingBox: 48 48 336 336
%%EndPageSetup
q 48 48 288 288 rectclip
1 0 0 -1 0 384 cm q
0.301961 0.815686 0.882353 rg
324.031 192 m 324.031 264.918 264.918 324.031 192 324.031 c 119.082 324.031
 59.969 264.918 59.969 192 c 59.969 119.082 119.082 59.969 192 59.969 c 
264.918 59.969 324.031 119.082 324.031 192 c h
324.031 192 m f
0.00392157 0.180392 0.321569 rg
90.156 293.852 m 118.234 321.895 155.113 335.914 191.992 335.914 c 228.875
 335.914 265.766 321.895 293.852 293.844 c 349.938 237.691 349.938 146.316
 293.844 90.148 c 237.691 34.066 146.316 34.055 90.148 90.156 c 34.062 146.309
 34.062 237.684 90.148 293.84 c 90.148 293.844 90.156 293.852 90.156 293.852
 c h
107.125 107.129 m 153.918 60.379 230.074 60.379 276.875 107.125 c 323.621
 153.926 323.621 230.082 276.883 276.875 c 230.082 323.621 153.93 323.621
 107.129 276.883 c 60.383 230.07 60.383 153.918 107.125 107.129 c h
107.125 107.129 m f
180 150 m 234 150 l 234 204 l 234 210.625 239.375 216 246 216 c 252.625
 216 258 210.625 258 204 c 258 150 l 258 136.766 247.234 126 234 126 c 180
 126 l 173.375 126 168 131.375 168 138 c 168 144.625 173.375 150 180 150
 c h
180 150 m f
132 198 m 186 198 l 186 252 l 186 258.625 191.375 264 198 264 c 204.625
 264 210 258.625 210 252 c 210 198 l 210 184.766 199.234 174 186 174 c 132
 174 l 125.375 174 120 179.375 120 186 c 120 192.625 125.375 198 132 198
 c h
132 198 m f
Q Q
showpage
%%Trailer
end
%%EOF
