%!PS-Adobe-3.0 EPSF-3.0
%%Creator: cairo 1.16.0 (https://cairographics.org)
%%CreationDate: Wed Oct 16 08:10:16 2019
%%Pages: 1
%%DocumentData: Clean7Bit
%%LanguageLevel: 2
%%BoundingBox: 48 48 336 336
%%EndComments
%%BeginProlog
50 dict begin
/q { gsave } bind def
/Q { grestore } bind def
/cm { 6 array astore concat } bind def
/w { setlinewidth } bind def
/J { setlinecap } bind def
/j { setlinejoin } bind def
/M { setmiterlimit } bind def
/d { setdash } bind def
/m { moveto } bind def
/l { lineto } bind def
/c { curveto } bind def
/h { closepath } bind def
/re { exch dup neg 3 1 roll 5 3 roll moveto 0 rlineto
      0 exch rlineto 0 rlineto closepath } bind def
/S { stroke } bind def
/f { fill } bind def
/f* { eofill } bind def
/n { newpath } bind def
/W { clip } bind def
/W* { eoclip } bind def
/BT { } bind def
/ET { } bind def
/BDC { mark 3 1 roll /BDC pdfmark } bind def
/EMC { mark /EMC pdfmark } bind def
/cairo_store_point { /cairo_point_y exch def /cairo_point_x exch def } def
/Tj { show currentpoint cairo_store_point } bind def
/TJ {
  {
    dup
    type /stringtype eq
    { show } { -0.001 mul 0 cairo_font_matrix dtransform rmoveto } ifelse
  } forall
  currentpoint cairo_store_point
} bind def
/cairo_selectfont { cairo_font_matrix aload pop pop pop 0 0 6 array astore
    cairo_font exch selectfont cairo_point_x cairo_point_y moveto } bind def
/Tf { pop /cairo_font exch def /cairo_font_matrix where
      { pop cairo_selectfont } if } bind def
/Td { matrix translate cairo_font_matrix matrix concatmatrix dup
      /cairo_font_matrix exch def dup 4 get exch 5 get cairo_store_point
      /cairo_font where { pop cairo_selectfont } if } bind def
/Tm { 2 copy 8 2 roll 6 array astore /cairo_font_matrix exch def
      cairo_store_point /cairo_font where { pop cairo_selectfont } if } bind def
/g { setgray } bind def
/rg { setrgbcolor } bind def
/d1 { setcachedevice } bind def
/cairo_data_source {
  CairoDataIndex CairoData length lt
    { CairoData CairoDataIndex get /CairoDataIndex CairoDataIndex 1 add def }
    { () } ifelse
} def
/cairo_flush_ascii85_file { cairo_ascii85_file status { cairo_ascii85_file flushfile } if } def
/cairo_image { image cairo_flush_ascii85_file } def
/cairo_imagemask { imagemask cairo_flush_ascii85_file } def
%%EndProlog
%%BeginSetup
%%EndSetup
%%Page: 1 1
%%BeginPageSetup
%%PageBoundingBox: 48 48 336 336
%%EndPageSetup
q 48 48 288 288 rectclip
1 0 0 -1 0 384 cm q
0.301961 0.815686 0.882353 rg
324 192 m 324 264.902 264.902 324 192 324 c 119.098 324 60 264.902 60 192
 c 60 119.098 119.098 60 192 60 c 264.902 60 324 119.098 324 192 c h
324 192 m f
0.00392157 0.180392 0.321569 rg
192 336 m 271.398 336 336 271.402 336 192 c 336 112.598 271.398 48 192 
48 c 112.602 48 48 112.598 48 192 c 48 271.402 112.602 336 192 336 c h
192 72 m 258.168 72 312 125.832 312 192 c 312 258.168 258.168 312 192 312
 c 125.832 312 72 258.168 72 192 c 72 125.832 125.832 72 192 72 c h
192 72 m f
175.004 184.891 m 179.539 189.484 185.574 192.02 192 192.02 c 198.426 192.02
 204.461 189.484 208.828 185.062 c 248.371 146.605 l 253.121 141.984 253.23
 134.387 248.605 129.637 c 243.984 124.879 236.383 124.789 231.637 129.402
 c 191.91 167.863 l 152.371 129.402 l 147.625 124.789 140.016 124.883 135.402
 129.637 c 130.777 134.387 130.883 141.984 135.637 146.605 c h
175.004 184.891 m f
175.004 250.891 m 179.539 255.484 185.574 258.02 192 258.02 c 198.426 258.02
 204.461 255.484 208.828 251.062 c 248.371 212.605 l 253.121 207.984 253.23
 200.387 248.605 195.637 c 243.984 190.879 236.383 190.789 231.637 195.402
 c 191.91 233.863 l 152.371 195.402 l 147.625 190.789 140.016 190.883 135.402
 195.637 c 130.777 200.387 130.883 207.984 135.637 212.605 c h
175.004 250.891 m f
Q Q
showpage
%%Trailer
end
%%EOF
