%!PS-Adobe-3.0 EPSF-3.0
%%Creator: cairo 1.16.0 (https://cairographics.org)
%%CreationDate: Wed Oct 16 08:10:17 2019
%%Pages: 1
%%DocumentData: Clean7Bit
%%LanguageLevel: 2
%%BoundingBox: 48 48 336 336
%%EndComments
%%BeginProlog
50 dict begin
/q { gsave } bind def
/Q { grestore } bind def
/cm { 6 array astore concat } bind def
/w { setlinewidth } bind def
/J { setlinecap } bind def
/j { setlinejoin } bind def
/M { setmiterlimit } bind def
/d { setdash } bind def
/m { moveto } bind def
/l { lineto } bind def
/c { curveto } bind def
/h { closepath } bind def
/re { exch dup neg 3 1 roll 5 3 roll moveto 0 rlineto
      0 exch rlineto 0 rlineto closepath } bind def
/S { stroke } bind def
/f { fill } bind def
/f* { eofill } bind def
/n { newpath } bind def
/W { clip } bind def
/W* { eoclip } bind def
/BT { } bind def
/ET { } bind def
/BDC { mark 3 1 roll /BDC pdfmark } bind def
/EMC { mark /EMC pdfmark } bind def
/cairo_store_point { /cairo_point_y exch def /cairo_point_x exch def } def
/Tj { show currentpoint cairo_store_point } bind def
/TJ {
  {
    dup
    type /stringtype eq
    { show } { -0.001 mul 0 cairo_font_matrix dtransform rmoveto } ifelse
  } forall
  currentpoint cairo_store_point
} bind def
/cairo_selectfont { cairo_font_matrix aload pop pop pop 0 0 6 array astore
    cairo_font exch selectfont cairo_point_x cairo_point_y moveto } bind def
/Tf { pop /cairo_font exch def /cairo_font_matrix where
      { pop cairo_selectfont } if } bind def
/Td { matrix translate cairo_font_matrix matrix concatmatrix dup
      /cairo_font_matrix exch def dup 4 get exch 5 get cairo_store_point
      /cairo_font where { pop cairo_selectfont } if } bind def
/Tm { 2 copy 8 2 roll 6 array astore /cairo_font_matrix exch def
      cairo_store_point /cairo_font where { pop cairo_selectfont } if } bind def
/g { setgray } bind def
/rg { setrgbcolor } bind def
/d1 { setcachedevice } bind def
/cairo_data_source {
  CairoDataIndex CairoData length lt
    { CairoData CairoDataIndex get /CairoDataIndex CairoDataIndex 1 add def }
    { () } ifelse
} def
/cairo_flush_ascii85_file { cairo_ascii85_file status { cairo_ascii85_file flushfile } if } def
/cairo_image { image cairo_flush_ascii85_file } def
/cairo_imagemask { imagemask cairo_flush_ascii85_file } def
%%EndProlog
%%BeginSetup
%%EndSetup
%%Page: 1 1
%%BeginPageSetup
%%PageBoundingBox: 48 48 336 336
%%EndPageSetup
q 48 48 288 288 rectclip
1 0 0 -1 0 384 cm q
1 0.439216 0.262745 rg
96 60 m 288 60 l 307.883 60 324 76.117 324 96 c 324 288 l 324 307.883 307.883
 324 288 324 c 96 324 l 76.117 324 60 307.883 60 288 c 60 96 l 60 76.117
 76.117 60 96 60 c h
96 60 m f
0.00392157 0.180392 0.321569 rg
288 48 m 96 48 l 69.535 48 48 69.535 48 96 c 48 144 l 48 150.625 53.375
 156 60 156 c 66.625 156 72 150.625 72 144 c 72 96 l 72 82.766 82.766 72
 96 72 c 288 72 l 301.234 72 312 82.766 312 96 c 312 288 l 312 301.234 301.234
 312 288 312 c 96 312 l 82.766 312 72 301.234 72 288 c 72 240 l 72 233.375
 66.625 228 60 228 c 53.375 228 48 233.375 48 240 c 48 288 l 48 314.465 
69.535 336 96 336 c 288 336 l 314.465 336 336 314.465 336 288 c 336 96 l
 336 69.535 314.465 48 288 48 c h
288 48 m f
129.629 248.605 m 131.965 250.871 134.98 252 138 252 c 141.125 252 144.254
 250.789 146.605 248.371 c 184.895 208.996 l 189.492 204.461 192.023 198.426
 192.023 192 c 192.023 185.574 189.492 179.539 185.07 175.172 c 146.609 
135.629 l 141.984 130.879 134.395 130.777 129.641 135.395 c 124.891 140.023
 124.789 147.613 129.406 152.363 c 167.867 192.09 l 129.406 231.629 l 124.777
 236.383 124.879 243.977 129.629 248.605 c h
129.629 248.605 m f
195.629 248.605 m 197.965 250.871 200.98 252 204 252 c 207.125 252 210.254
 250.789 212.605 248.371 c 250.895 208.996 l 255.492 204.461 258.023 198.426
 258.023 192 c 258.023 185.574 255.492 179.539 251.07 175.172 c 212.609 
135.629 l 207.988 130.879 200.387 130.777 195.641 135.395 c 190.891 140.023
 190.789 147.613 195.406 152.363 c 233.867 192.09 l 195.406 231.629 l 190.777
 236.383 190.879 243.977 195.629 248.605 c h
195.629 248.605 m f
Q Q
showpage
%%Trailer
end
%%EOF
