%!PS-Adobe-3.0 EPSF-3.0
%%Creator: cairo 1.16.0 (https://cairographics.org)
%%CreationDate: Wed Oct 16 08:10:17 2019
%%Pages: 1
%%DocumentData: Clean7Bit
%%LanguageLevel: 2
%%BoundingBox: 48 48 336 336
%%EndComments
%%BeginProlog
50 dict begin
/q { gsave } bind def
/Q { grestore } bind def
/cm { 6 array astore concat } bind def
/w { setlinewidth } bind def
/J { setlinecap } bind def
/j { setlinejoin } bind def
/M { setmiterlimit } bind def
/d { setdash } bind def
/m { moveto } bind def
/l { lineto } bind def
/c { curveto } bind def
/h { closepath } bind def
/re { exch dup neg 3 1 roll 5 3 roll moveto 0 rlineto
      0 exch rlineto 0 rlineto closepath } bind def
/S { stroke } bind def
/f { fill } bind def
/f* { eofill } bind def
/n { newpath } bind def
/W { clip } bind def
/W* { eoclip } bind def
/BT { } bind def
/ET { } bind def
/BDC { mark 3 1 roll /BDC pdfmark } bind def
/EMC { mark /EMC pdfmark } bind def
/cairo_store_point { /cairo_point_y exch def /cairo_point_x exch def } def
/Tj { show currentpoint cairo_store_point } bind def
/TJ {
  {
    dup
    type /stringtype eq
    { show } { -0.001 mul 0 cairo_font_matrix dtransform rmoveto } ifelse
  } forall
  currentpoint cairo_store_point
} bind def
/cairo_selectfont { cairo_font_matrix aload pop pop pop 0 0 6 array astore
    cairo_font exch selectfont cairo_point_x cairo_point_y moveto } bind def
/Tf { pop /cairo_font exch def /cairo_font_matrix where
      { pop cairo_selectfont } if } bind def
/Td { matrix translate cairo_font_matrix matrix concatmatrix dup
      /cairo_font_matrix exch def dup 4 get exch 5 get cairo_store_point
      /cairo_font where { pop cairo_selectfont } if } bind def
/Tm { 2 copy 8 2 roll 6 array astore /cairo_font_matrix exch def
      cairo_store_point /cairo_font where { pop cairo_selectfont } if } bind def
/g { setgray } bind def
/rg { setrgbcolor } bind def
/d1 { setcachedevice } bind def
/cairo_data_source {
  CairoDataIndex CairoData length lt
    { CairoData CairoDataIndex get /CairoDataIndex CairoDataIndex 1 add def }
    { () } ifelse
} def
/cairo_flush_ascii85_file { cairo_ascii85_file status { cairo_ascii85_file flushfile } if } def
/cairo_image { image cairo_flush_ascii85_file } def
/cairo_imagemask { imagemask cairo_flush_ascii85_file } def
%%EndProlog
%%BeginSetup
%%EndSetup
%%Page: 1 1
%%BeginPageSetup
%%PageBoundingBox: 48 48 336 336
%%EndPageSetup
q 48 48 288 288 rectclip
1 0 0 -1 0 384 cm q
0.301961 0.815686 0.882353 rg
324 192 m 324 264.902 264.902 324 192 324 c 119.098 324 60 264.902 60 192
 c 60 119.098 119.098 60 192 60 c 264.902 60 324 119.098 324 192 c h
324 192 m f
0.00392157 0.180392 0.321569 rg
192 48 m 112.602 48 48 112.602 48 192 c 48 271.398 112.602 336 192 336 
c 271.398 336 336 271.398 336 192 c 336 112.602 271.398 48 192 48 c h
192 312 m 125.832 312 72 258.168 72 192 c 72 125.832 125.832 72 192 72 
c 258.168 72 312 125.832 312 192 c 312 258.168 258.168 312 192 312 c h
192 312 m f
185.062 175.172 m 146.605 135.629 l 141.984 130.871 134.383 130.777 129.637
 135.395 c 124.883 140.023 124.777 147.613 129.402 152.363 c 167.863 192.09
 l 129.402 231.629 l 124.777 236.383 124.883 243.977 129.637 248.598 c 131.965
 250.871 134.98 252 138 252 c 141.125 252 144.254 250.789 146.605 248.371
 c 184.895 208.996 l 189.492 204.461 192.023 198.426 192.023 192 c 192.023
 185.574 189.484 179.539 185.062 175.172 c h
185.062 175.172 m f
212.605 135.629 m 207.984 130.871 200.383 130.777 195.637 135.395 c 190.883
 140.023 190.777 147.613 195.402 152.363 c 233.863 192.09 l 195.402 231.629
 l 190.777 236.383 190.883 243.977 195.637 248.598 c 197.965 250.871 200.98
 252 204 252 c 207.125 252 210.254 250.789 212.605 248.371 c 250.895 208.996
 l 255.492 204.461 258.023 198.426 258.023 192 c 258.023 185.574 255.492
 179.539 251.07 175.172 c h
212.605 135.629 m f
Q Q
showpage
%%Trailer
end
%%EOF
