%!PS-Adobe-3.0 EPSF-3.0
%%Creator: cairo 1.16.0 (https://cairographics.org)
%%CreationDate: Wed Oct 16 08:10:18 2019
%%Pages: 1
%%DocumentData: Clean7Bit
%%LanguageLevel: 2
%%BoundingBox: 48 48 336 336
%%EndComments
%%BeginProlog
50 dict begin
/q { gsave } bind def
/Q { grestore } bind def
/cm { 6 array astore concat } bind def
/w { setlinewidth } bind def
/J { setlinecap } bind def
/j { setlinejoin } bind def
/M { setmiterlimit } bind def
/d { setdash } bind def
/m { moveto } bind def
/l { lineto } bind def
/c { curveto } bind def
/h { closepath } bind def
/re { exch dup neg 3 1 roll 5 3 roll moveto 0 rlineto
      0 exch rlineto 0 rlineto closepath } bind def
/S { stroke } bind def
/f { fill } bind def
/f* { eofill } bind def
/n { newpath } bind def
/W { clip } bind def
/W* { eoclip } bind def
/BT { } bind def
/ET { } bind def
/BDC { mark 3 1 roll /BDC pdfmark } bind def
/EMC { mark /EMC pdfmark } bind def
/cairo_store_point { /cairo_point_y exch def /cairo_point_x exch def } def
/Tj { show currentpoint cairo_store_point } bind def
/TJ {
  {
    dup
    type /stringtype eq
    { show } { -0.001 mul 0 cairo_font_matrix dtransform rmoveto } ifelse
  } forall
  currentpoint cairo_store_point
} bind def
/cairo_selectfont { cairo_font_matrix aload pop pop pop 0 0 6 array astore
    cairo_font exch selectfont cairo_point_x cairo_point_y moveto } bind def
/Tf { pop /cairo_font exch def /cairo_font_matrix where
      { pop cairo_selectfont } if } bind def
/Td { matrix translate cairo_font_matrix matrix concatmatrix dup
      /cairo_font_matrix exch def dup 4 get exch 5 get cairo_store_point
      /cairo_font where { pop cairo_selectfont } if } bind def
/Tm { 2 copy 8 2 roll 6 array astore /cairo_font_matrix exch def
      cairo_store_point /cairo_font where { pop cairo_selectfont } if } bind def
/g { setgray } bind def
/rg { setrgbcolor } bind def
/d1 { setcachedevice } bind def
/cairo_data_source {
  CairoDataIndex CairoData length lt
    { CairoData CairoDataIndex get /CairoDataIndex CairoDataIndex 1 add def }
    { () } ifelse
} def
/cairo_flush_ascii85_file { cairo_ascii85_file status { cairo_ascii85_file flushfile } if } def
/cairo_image { image cairo_flush_ascii85_file } def
/cairo_imagemask { imagemask cairo_flush_ascii85_file } def
%%EndProlog
%%BeginSetup
%%EndSetup
%%Page: 1 1
%%BeginPageSetup
%%PageBoundingBox: 48 48 336 336
%%EndPageSetup
q 48 48 288 288 rectclip
1 0 0 -1 0 384 cm q
1 0.439216 0.262745 rg
96 60 m 288 60 l 307.883 60 324 76.117 324 96 c 324 288 l 324 307.883 307.883
 324 288 324 c 96 324 l 76.117 324 60 307.883 60 288 c 60 96 l 60 76.117
 76.117 60 96 60 c h
96 60 m f
0.00392157 0.180392 0.321569 rg
288 48 m 96 48 l 69.535 48 48 69.535 48 96 c 48 288 l 48 314.465 69.535
 336 96 336 c 144 336 l 150.625 336 156 330.625 156 324 c 156 317.375 150.625
 312 144 312 c 96 312 l 82.766 312 72 301.234 72 288 c 72 96 l 72 82.766
 82.766 72 96 72 c 288 72 l 301.234 72 312 82.766 312 96 c 312 288 l 312
 301.234 301.234 312 288 312 c 240 312 l 233.375 312 228 317.375 228 324
 c 228 330.625 233.375 336 240 336 c 288 336 l 314.465 336 336 314.465 336
 288 c 336 96 l 336 69.535 314.465 48 288 48 c h
288 48 m f
135.395 254.371 m 140.023 259.129 147.617 259.223 152.363 254.605 c 192.09
 216.145 l 231.629 254.605 l 233.965 256.871 236.98 258 240 258 c 243.125
 258 246.254 256.789 248.605 254.371 c 253.223 249.617 253.121 242.023 248.371
 237.402 c 208.996 199.109 l 204.461 194.516 198.426 191.98 192 191.98 c
 185.574 191.98 179.539 194.516 175.172 198.938 c 135.629 237.395 l 130.879
 242.023 130.777 249.617 135.395 254.371 c h
135.395 254.371 m f
152.371 188.605 m 192.098 150.145 l 231.637 188.605 l 233.965 190.871 236.98
 192 240 192 c 243.125 192 246.254 190.789 248.605 188.371 c 253.223 183.617
 253.121 176.023 248.371 171.402 c 208.996 133.109 l 204.461 128.516 198.426
 125.98 192 125.98 c 185.574 125.98 179.539 128.516 175.172 132.938 c 135.629
 171.395 l 130.879 176.023 130.777 183.613 135.395 188.363 c 140.023 193.121
 147.625 193.219 152.371 188.605 c h
152.371 188.605 m f
Q Q
showpage
%%Trailer
end
%%EOF
