%!PS-Adobe-3.0 EPSF-3.0
%%Creator: cairo 1.16.0 (https://cairographics.org)
%%CreationDate: Wed Oct 16 08:10:18 2019
%%Pages: 1
%%DocumentData: Clean7Bit
%%LanguageLevel: 2
%%BoundingBox: 72 48 312 336
%%EndComments
%%BeginProlog
50 dict begin
/q { gsave } bind def
/Q { grestore } bind def
/cm { 6 array astore concat } bind def
/w { setlinewidth } bind def
/J { setlinecap } bind def
/j { setlinejoin } bind def
/M { setmiterlimit } bind def
/d { setdash } bind def
/m { moveto } bind def
/l { lineto } bind def
/c { curveto } bind def
/h { closepath } bind def
/re { exch dup neg 3 1 roll 5 3 roll moveto 0 rlineto
      0 exch rlineto 0 rlineto closepath } bind def
/S { stroke } bind def
/f { fill } bind def
/f* { eofill } bind def
/n { newpath } bind def
/W { clip } bind def
/W* { eoclip } bind def
/BT { } bind def
/ET { } bind def
/BDC { mark 3 1 roll /BDC pdfmark } bind def
/EMC { mark /EMC pdfmark } bind def
/cairo_store_point { /cairo_point_y exch def /cairo_point_x exch def } def
/Tj { show currentpoint cairo_store_point } bind def
/TJ {
  {
    dup
    type /stringtype eq
    { show } { -0.001 mul 0 cairo_font_matrix dtransform rmoveto } ifelse
  } forall
  currentpoint cairo_store_point
} bind def
/cairo_selectfont { cairo_font_matrix aload pop pop pop 0 0 6 array astore
    cairo_font exch selectfont cairo_point_x cairo_point_y moveto } bind def
/Tf { pop /cairo_font exch def /cairo_font_matrix where
      { pop cairo_selectfont } if } bind def
/Td { matrix translate cairo_font_matrix matrix concatmatrix dup
      /cairo_font_matrix exch def dup 4 get exch 5 get cairo_store_point
      /cairo_font where { pop cairo_selectfont } if } bind def
/Tm { 2 copy 8 2 roll 6 array astore /cairo_font_matrix exch def
      cairo_store_point /cairo_font where { pop cairo_selectfont } if } bind def
/g { setgray } bind def
/rg { setrgbcolor } bind def
/d1 { setcachedevice } bind def
/cairo_data_source {
  CairoDataIndex CairoData length lt
    { CairoData CairoDataIndex get /CairoDataIndex CairoDataIndex 1 add def }
    { () } ifelse
} def
/cairo_flush_ascii85_file { cairo_ascii85_file status { cairo_ascii85_file flushfile } if } def
/cairo_image { image cairo_flush_ascii85_file } def
/cairo_imagemask { imagemask cairo_flush_ascii85_file } def
%%EndProlog
%%BeginSetup
%%EndSetup
%%Page: 1 1
%%BeginPageSetup
%%PageBoundingBox: 72 48 312 336
%%EndPageSetup
q 72 48 240 288 rectclip
1 0 0 -1 0 384 cm q
0.878431 0.968627 0.980392 rg
84 252 m 300 252 l 300 300 l 300 313.254 289.254 324 276 324 c 108 324 
l 94.746 324 84 313.254 84 300 c h
84 252 m f
0.00392157 0.180392 0.321569 rg
192 276 m 198.625 276 204 270.625 204 264 c 204 88.969 l 243.516 128.484
 l 245.855 130.828 248.93 132 252 132 c 255.07 132 258.145 130.828 260.484
 128.484 c 265.172 123.797 265.172 116.203 260.484 111.516 c 200.484 51.516
 l 195.805 46.828 188.195 46.828 183.516 51.516 c 123.516 111.516 l 118.828
 116.203 118.828 123.797 123.516 128.484 c 128.195 133.172 135.805 133.172
 140.484 128.484 c 180 88.969 l 180 264 l 180 270.625 185.375 276 192 276
 c h
192 276 m f
84 240 m 77.375 240 72 245.375 72 252 c 72 300 l 72 319.855 88.145 336 
108 336 c 276 336 l 295.855 336 312 319.855 312 300 c 312 252 l 312 245.375
 306.625 240 300 240 c 293.375 240 288 245.375 288 252 c 288 300 l 288 306.617
 282.617 312 276 312 c 108 312 l 101.383 312 96 306.617 96 300 c 96 252 
l 96 245.375 90.625 240 84 240 c h
84 240 m f
Q Q
showpage
%%Trailer
end
%%EOF
