%!PS-Adobe-3.0 EPSF-3.0
%%Creator: cairo 1.16.0 (https://cairographics.org)
%%CreationDate: Wed Oct 16 08:10:18 2019
%%Pages: 1
%%DocumentData: Clean7Bit
%%LanguageLevel: 2
%%BoundingBox: 48 84 336 300
%%EndComments
%%BeginProlog
50 dict begin
/q { gsave } bind def
/Q { grestore } bind def
/cm { 6 array astore concat } bind def
/w { setlinewidth } bind def
/J { setlinecap } bind def
/j { setlinejoin } bind def
/M { setmiterlimit } bind def
/d { setdash } bind def
/m { moveto } bind def
/l { lineto } bind def
/c { curveto } bind def
/h { closepath } bind def
/re { exch dup neg 3 1 roll 5 3 roll moveto 0 rlineto
      0 exch rlineto 0 rlineto closepath } bind def
/S { stroke } bind def
/f { fill } bind def
/f* { eofill } bind def
/n { newpath } bind def
/W { clip } bind def
/W* { eoclip } bind def
/BT { } bind def
/ET { } bind def
/BDC { mark 3 1 roll /BDC pdfmark } bind def
/EMC { mark /EMC pdfmark } bind def
/cairo_store_point { /cairo_point_y exch def /cairo_point_x exch def } def
/Tj { show currentpoint cairo_store_point } bind def
/TJ {
  {
    dup
    type /stringtype eq
    { show } { -0.001 mul 0 cairo_font_matrix dtransform rmoveto } ifelse
  } forall
  currentpoint cairo_store_point
} bind def
/cairo_selectfont { cairo_font_matrix aload pop pop pop 0 0 6 array astore
    cairo_font exch selectfont cairo_point_x cairo_point_y moveto } bind def
/Tf { pop /cairo_font exch def /cairo_font_matrix where
      { pop cairo_selectfont } if } bind def
/Td { matrix translate cairo_font_matrix matrix concatmatrix dup
      /cairo_font_matrix exch def dup 4 get exch 5 get cairo_store_point
      /cairo_font where { pop cairo_selectfont } if } bind def
/Tm { 2 copy 8 2 roll 6 array astore /cairo_font_matrix exch def
      cairo_store_point /cairo_font where { pop cairo_selectfont } if } bind def
/g { setgray } bind def
/rg { setrgbcolor } bind def
/d1 { setcachedevice } bind def
/cairo_data_source {
  CairoDataIndex CairoData length lt
    { CairoData CairoDataIndex get /CairoDataIndex CairoDataIndex 1 add def }
    { () } ifelse
} def
/cairo_flush_ascii85_file { cairo_ascii85_file status { cairo_ascii85_file flushfile } if } def
/cairo_image { image cairo_flush_ascii85_file } def
/cairo_imagemask { imagemask cairo_flush_ascii85_file } def
%%EndProlog
%%BeginSetup
%%EndSetup
%%Page: 1 1
%%BeginPageSetup
%%PageBoundingBox: 48 84 336 300
%%EndPageSetup
q 48 84 288 216 rectclip
1 0 0 -1 0 384 cm q
1 0.439216 0.262745 rg
320.461 267.539 m 328.02 275.102 322.68 288 312 288 c 72 288 l 61.32 288
 55.98 275.102 63.539 267.539 c 182.281 146.941 l 186.781 143.039 193.5 
143.039 198 146.941 c h
320.461 267.539 m f
0.00392157 0.180392 0.321569 rg
324 84 m 60 84 l 53.375 84 48 89.375 48 96 c 48 102.625 53.375 108 60 108
 c 324 108 l 330.625 108 336 102.625 336 96 c 336 89.375 330.625 84 324 
84 c h
324 84 m f
72 300 m 312 300 l 321.73 300 330.426 294.191 334.152 285.203 c 337.879
 276.211 335.832 265.949 328.879 258.988 c 206.418 138.391 l 206.238 138.211
 206.047 138.035 205.859 137.875 c 196.906 130.117 183.391 130.105 174.414
 137.875 c 174.18 138.086 173.945 138.301 173.73 138.523 c 55.055 259.055
 l 48.168 265.949 46.121 276.211 49.848 285.203 c 53.574 294.191 62.27 300
 72 300 c h
190.145 156.055 m 312 276 l 72 276 l h
190.145 156.055 m f
Q Q
showpage
%%Trailer
end
%%EOF
